G04 #@! TF.GenerationSoftware,KiCad,Pcbnew,5.1.9+dfsg1-1*
G04 #@! TF.CreationDate,2021-02-14T23:58:02+01:00*
G04 #@! TF.ProjectId,Connector33,436f6e6e-6563-4746-9f72-33332e6b6963,rev?*
G04 #@! TF.SameCoordinates,Original*
G04 #@! TF.FileFunction,Profile,NP*
%FSLAX46Y46*%
G04 Gerber Fmt 4.6, Leading zero omitted, Abs format (unit mm)*
G04 Created by KiCad (PCBNEW 5.1.9+dfsg1-1) date 2021-02-14 23:58:02*
%MOMM*%
%LPD*%
G01*
G04 APERTURE LIST*
G04 #@! TA.AperFunction,Profile*
%ADD10C,0.050000*%
G04 #@! TD*
G04 APERTURE END LIST*
D10*
X166605000Y-145250000D02*
X166605000Y-51270000D01*
X166605000Y-51270000D02*
X184385000Y-51270000D01*
X184385000Y-145250000D02*
X166605000Y-145250000D01*
G04 #@! TO.C,J2*
X195815000Y-142710000D02*
X189465000Y-142710000D01*
X197085000Y-141440000D02*
X195815000Y-142710000D01*
X189465000Y-142710000D02*
X184385000Y-145250000D01*
X197085000Y-140170000D02*
X197085000Y-141440000D01*
X194545000Y-140170000D02*
X197085000Y-140170000D01*
X189465000Y-53810000D02*
X184385000Y-51270000D01*
X195815000Y-53810000D02*
X189465000Y-53810000D01*
X197085000Y-55080000D02*
X195815000Y-53810000D01*
X197085000Y-56350000D02*
X197085000Y-55080000D01*
X194545000Y-56350000D02*
X197085000Y-56350000D01*
X194545000Y-140170000D02*
X194545000Y-56350000D01*
G04 #@! TD*
M02*
