G04 #@! TF.GenerationSoftware,KiCad,Pcbnew,5.1.9+dfsg1-1*
G04 #@! TF.CreationDate,2021-02-14T23:58:02+01:00*
G04 #@! TF.ProjectId,Connector33,436f6e6e-6563-4746-9f72-33332e6b6963,rev?*
G04 #@! TF.SameCoordinates,Original*
G04 #@! TF.FileFunction,Copper,L1,Top*
G04 #@! TF.FilePolarity,Positive*
%FSLAX46Y46*%
G04 Gerber Fmt 4.6, Leading zero omitted, Abs format (unit mm)*
G04 Created by KiCad (PCBNEW 5.1.9+dfsg1-1) date 2021-02-14 23:58:02*
%MOMM*%
%LPD*%
G01*
G04 APERTURE LIST*
G04 #@! TA.AperFunction,NonConductor*
%ADD10C,0.150000*%
G04 #@! TD*
G04 #@! TA.AperFunction,ComponentPad*
%ADD11C,5.000000*%
G04 #@! TD*
G04 #@! TA.AperFunction,ConnectorPad*
%ADD12R,9.144000X1.651000*%
G04 #@! TD*
G04 #@! TA.AperFunction,ComponentPad*
%ADD13O,1.700000X1.700000*%
G04 #@! TD*
G04 #@! TA.AperFunction,ComponentPad*
%ADD14R,1.700000X1.700000*%
G04 #@! TD*
G04 #@! TA.AperFunction,Conductor*
%ADD15C,1.000000*%
G04 #@! TD*
G04 #@! TA.AperFunction,Conductor*
%ADD16C,0.500000*%
G04 #@! TD*
G04 #@! TA.AperFunction,Conductor*
%ADD17C,0.100000*%
G04 #@! TD*
G04 APERTURE END LIST*
D10*
X178035000Y-56350000D02*
X178670000Y-56350000D01*
X176765000Y-56350000D02*
X177400000Y-56350000D01*
X175495000Y-56350000D02*
X176130000Y-56350000D01*
X175495000Y-55715000D02*
X178670000Y-55715000D01*
D11*
G04 #@! TO.P,H2,1*
G04 #@! TO.N,GND*
X169630000Y-141030000D03*
G04 #@! TD*
G04 #@! TO.P,H1,1*
G04 #@! TO.N,GND*
X169630000Y-55430000D03*
G04 #@! TD*
D12*
G04 #@! TO.P,J2,32*
G04 #@! TO.N,Net-(J1-Pad32)*
X189465000Y-60160000D03*
G04 #@! TO.P,J2,27*
G04 #@! TO.N,Net-(J1-Pad27)*
X189465000Y-72860000D03*
G04 #@! TO.P,J2,31*
G04 #@! TO.N,Net-(J1-Pad31)*
X189465000Y-62700000D03*
G04 #@! TO.P,J2,30*
G04 #@! TO.N,Net-(J1-Pad30)*
X189465000Y-65240000D03*
G04 #@! TO.P,J2,29*
G04 #@! TO.N,Net-(J1-Pad29)*
X189465000Y-67780000D03*
G04 #@! TO.P,J2,33*
G04 #@! TO.N,Net-(J1-Pad33)*
X189465000Y-57620000D03*
G04 #@! TO.P,J2,28*
G04 #@! TO.N,Net-(J1-Pad28)*
X189465000Y-70320000D03*
G04 #@! TO.P,J2,24*
G04 #@! TO.N,Net-(J1-Pad24)*
X189465000Y-80480000D03*
G04 #@! TO.P,J2,25*
G04 #@! TO.N,Net-(J1-Pad25)*
X189465000Y-77940000D03*
G04 #@! TO.P,J2,23*
G04 #@! TO.N,Net-(J1-Pad23)*
X189465000Y-83020000D03*
G04 #@! TO.P,J2,26*
G04 #@! TO.N,Net-(J1-Pad26)*
X189465000Y-75400000D03*
G04 #@! TO.P,J2,19*
G04 #@! TO.N,GND*
X189465000Y-93180000D03*
G04 #@! TO.P,J2,22*
G04 #@! TO.N,Net-(J1-Pad22)*
X189465000Y-85560000D03*
G04 #@! TO.P,J2,18*
G04 #@! TO.N,Net-(J1-Pad18)*
X189465000Y-95720000D03*
G04 #@! TO.P,J2,21*
G04 #@! TO.N,Net-(J1-Pad21)*
X189465000Y-88100000D03*
G04 #@! TO.P,J2,20*
G04 #@! TO.N,Net-(J1-Pad20)*
X189465000Y-90640000D03*
G04 #@! TO.P,J2,17*
G04 #@! TO.N,Net-(J1-Pad17)*
X189465000Y-98260000D03*
G04 #@! TO.P,J2,16*
G04 #@! TO.N,Net-(J1-Pad16)*
X189465000Y-100800000D03*
G04 #@! TO.P,J2,15*
G04 #@! TO.N,Net-(J1-Pad15)*
X189465000Y-103340000D03*
G04 #@! TO.P,J2,14*
G04 #@! TO.N,Net-(J1-Pad14)*
X189465000Y-105880000D03*
G04 #@! TO.P,J2,13*
G04 #@! TO.N,Net-(J1-Pad13)*
X189465000Y-108420000D03*
G04 #@! TO.P,J2,12*
G04 #@! TO.N,Net-(J1-Pad12)*
X189465000Y-110960000D03*
G04 #@! TO.P,J2,1*
G04 #@! TO.N,Net-(J1-Pad1)*
X189465000Y-138900000D03*
G04 #@! TO.P,J2,2*
G04 #@! TO.N,Net-(J1-Pad2)*
X189465000Y-136360000D03*
G04 #@! TO.P,J2,3*
G04 #@! TO.N,Net-(J1-Pad3)*
X189465000Y-133820000D03*
G04 #@! TO.P,J2,4*
G04 #@! TO.N,Net-(J1-Pad4)*
X189465000Y-131280000D03*
G04 #@! TO.P,J2,5*
G04 #@! TO.N,Net-(J1-Pad5)*
X189465000Y-128740000D03*
G04 #@! TO.P,J2,6*
G04 #@! TO.N,Net-(J1-Pad6)*
X189465000Y-126200000D03*
G04 #@! TO.P,J2,7*
G04 #@! TO.N,Net-(J1-Pad7)*
X189465000Y-123660000D03*
G04 #@! TO.P,J2,8*
G04 #@! TO.N,Net-(J1-Pad8)*
X189465000Y-121120000D03*
G04 #@! TO.P,J2,9*
G04 #@! TO.N,Net-(J1-Pad9)*
X189465000Y-118580000D03*
G04 #@! TO.P,J2,10*
G04 #@! TO.N,Net-(J1-Pad10)*
X189465000Y-116040000D03*
G04 #@! TO.P,J2,11*
G04 #@! TO.N,Net-(J1-Pad11)*
X189465000Y-113500000D03*
G04 #@! TD*
D13*
G04 #@! TO.P,J1,33*
G04 #@! TO.N,Net-(J1-Pad33)*
X173590000Y-57620000D03*
G04 #@! TO.P,J1,32*
G04 #@! TO.N,Net-(J1-Pad32)*
X173590000Y-60160000D03*
G04 #@! TO.P,J1,31*
G04 #@! TO.N,Net-(J1-Pad31)*
X173590000Y-62700000D03*
G04 #@! TO.P,J1,30*
G04 #@! TO.N,Net-(J1-Pad30)*
X173590000Y-65240000D03*
G04 #@! TO.P,J1,29*
G04 #@! TO.N,Net-(J1-Pad29)*
X173590000Y-67780000D03*
G04 #@! TO.P,J1,28*
G04 #@! TO.N,Net-(J1-Pad28)*
X173590000Y-70320000D03*
G04 #@! TO.P,J1,27*
G04 #@! TO.N,Net-(J1-Pad27)*
X173590000Y-72860000D03*
G04 #@! TO.P,J1,26*
G04 #@! TO.N,Net-(J1-Pad26)*
X173590000Y-75400000D03*
G04 #@! TO.P,J1,25*
G04 #@! TO.N,Net-(J1-Pad25)*
X173590000Y-77940000D03*
G04 #@! TO.P,J1,24*
G04 #@! TO.N,Net-(J1-Pad24)*
X173590000Y-80480000D03*
G04 #@! TO.P,J1,23*
G04 #@! TO.N,Net-(J1-Pad23)*
X173590000Y-83020000D03*
G04 #@! TO.P,J1,22*
G04 #@! TO.N,Net-(J1-Pad22)*
X173590000Y-85560000D03*
G04 #@! TO.P,J1,21*
G04 #@! TO.N,Net-(J1-Pad21)*
X173590000Y-88100000D03*
G04 #@! TO.P,J1,20*
G04 #@! TO.N,Net-(J1-Pad20)*
X173590000Y-90640000D03*
G04 #@! TO.P,J1,19*
G04 #@! TO.N,GND*
X173590000Y-93180000D03*
G04 #@! TO.P,J1,18*
G04 #@! TO.N,Net-(J1-Pad18)*
X173590000Y-95720000D03*
G04 #@! TO.P,J1,17*
G04 #@! TO.N,Net-(J1-Pad17)*
X173590000Y-98260000D03*
G04 #@! TO.P,J1,16*
G04 #@! TO.N,Net-(J1-Pad16)*
X173590000Y-100800000D03*
G04 #@! TO.P,J1,15*
G04 #@! TO.N,Net-(J1-Pad15)*
X173590000Y-103340000D03*
G04 #@! TO.P,J1,14*
G04 #@! TO.N,Net-(J1-Pad14)*
X173590000Y-105880000D03*
G04 #@! TO.P,J1,13*
G04 #@! TO.N,Net-(J1-Pad13)*
X173590000Y-108420000D03*
G04 #@! TO.P,J1,12*
G04 #@! TO.N,Net-(J1-Pad12)*
X173590000Y-110960000D03*
G04 #@! TO.P,J1,11*
G04 #@! TO.N,Net-(J1-Pad11)*
X173590000Y-113500000D03*
G04 #@! TO.P,J1,10*
G04 #@! TO.N,Net-(J1-Pad10)*
X173590000Y-116040000D03*
G04 #@! TO.P,J1,9*
G04 #@! TO.N,Net-(J1-Pad9)*
X173590000Y-118580000D03*
G04 #@! TO.P,J1,8*
G04 #@! TO.N,Net-(J1-Pad8)*
X173590000Y-121120000D03*
G04 #@! TO.P,J1,7*
G04 #@! TO.N,Net-(J1-Pad7)*
X173590000Y-123660000D03*
G04 #@! TO.P,J1,6*
G04 #@! TO.N,Net-(J1-Pad6)*
X173590000Y-126200000D03*
G04 #@! TO.P,J1,5*
G04 #@! TO.N,Net-(J1-Pad5)*
X173590000Y-128740000D03*
G04 #@! TO.P,J1,4*
G04 #@! TO.N,Net-(J1-Pad4)*
X173590000Y-131280000D03*
G04 #@! TO.P,J1,3*
G04 #@! TO.N,Net-(J1-Pad3)*
X173590000Y-133820000D03*
G04 #@! TO.P,J1,2*
G04 #@! TO.N,Net-(J1-Pad2)*
X173590000Y-136360000D03*
D14*
G04 #@! TO.P,J1,1*
G04 #@! TO.N,Net-(J1-Pad1)*
X173590000Y-138900000D03*
G04 #@! TD*
D15*
G04 #@! TO.N,GND*
X173590000Y-93180000D02*
X189465000Y-93180000D01*
G04 #@! TO.N,Net-(J1-Pad33)*
X189465000Y-57620000D02*
X173590000Y-57620000D01*
G04 #@! TO.N,Net-(J1-Pad32)*
X189465000Y-60160000D02*
X173590000Y-60160000D01*
G04 #@! TO.N,Net-(J1-Pad31)*
X189465000Y-62700000D02*
X173590000Y-62700000D01*
G04 #@! TO.N,Net-(J1-Pad30)*
X189465000Y-65240000D02*
X173590000Y-65240000D01*
G04 #@! TO.N,Net-(J1-Pad29)*
X189465000Y-67780000D02*
X173590000Y-67780000D01*
G04 #@! TO.N,Net-(J1-Pad28)*
X189465000Y-70320000D02*
X173590000Y-70320000D01*
G04 #@! TO.N,Net-(J1-Pad27)*
X189465000Y-72860000D02*
X173590000Y-72860000D01*
G04 #@! TO.N,Net-(J1-Pad26)*
X189465000Y-75400000D02*
X173590000Y-75400000D01*
G04 #@! TO.N,Net-(J1-Pad25)*
X173590000Y-77940000D02*
X189465000Y-77940000D01*
G04 #@! TO.N,Net-(J1-Pad24)*
X189465000Y-80480000D02*
X173590000Y-80480000D01*
G04 #@! TO.N,Net-(J1-Pad23)*
X173590000Y-83020000D02*
X189465000Y-83020000D01*
G04 #@! TO.N,Net-(J1-Pad22)*
X189465000Y-85560000D02*
X173590000Y-85560000D01*
G04 #@! TO.N,Net-(J1-Pad21)*
X173590000Y-88100000D02*
X189465000Y-88100000D01*
G04 #@! TO.N,Net-(J1-Pad20)*
X189465000Y-90640000D02*
X173590000Y-90640000D01*
G04 #@! TO.N,Net-(J1-Pad18)*
X189465000Y-95720000D02*
X173590000Y-95720000D01*
G04 #@! TO.N,Net-(J1-Pad17)*
X189465000Y-98260000D02*
X173590000Y-98260000D01*
G04 #@! TO.N,Net-(J1-Pad16)*
X173590000Y-100800000D02*
X189465000Y-100800000D01*
G04 #@! TO.N,Net-(J1-Pad15)*
X189465000Y-103340000D02*
X173590000Y-103340000D01*
G04 #@! TO.N,Net-(J1-Pad14)*
X173590000Y-105880000D02*
X189465000Y-105880000D01*
G04 #@! TO.N,Net-(J1-Pad13)*
X189465000Y-108420000D02*
X173590000Y-108420000D01*
G04 #@! TO.N,Net-(J1-Pad12)*
X173590000Y-110960000D02*
X189465000Y-110960000D01*
G04 #@! TO.N,Net-(J1-Pad11)*
X189465000Y-113500000D02*
X173590000Y-113500000D01*
G04 #@! TO.N,Net-(J1-Pad10)*
X173590000Y-116040000D02*
X189465000Y-116040000D01*
G04 #@! TO.N,Net-(J1-Pad9)*
X189465000Y-118580000D02*
X173590000Y-118580000D01*
G04 #@! TO.N,Net-(J1-Pad8)*
X173590000Y-121120000D02*
X189465000Y-121120000D01*
G04 #@! TO.N,Net-(J1-Pad7)*
X189465000Y-123660000D02*
X173590000Y-123660000D01*
G04 #@! TO.N,Net-(J1-Pad6)*
X173590000Y-126200000D02*
X189465000Y-126200000D01*
G04 #@! TO.N,Net-(J1-Pad5)*
X189465000Y-128740000D02*
X173590000Y-128740000D01*
G04 #@! TO.N,Net-(J1-Pad4)*
X173590000Y-131280000D02*
X189465000Y-131280000D01*
G04 #@! TO.N,Net-(J1-Pad3)*
X189465000Y-133820000D02*
X173590000Y-133820000D01*
G04 #@! TO.N,Net-(J1-Pad2)*
X173590000Y-136360000D02*
X189465000Y-136360000D01*
G04 #@! TO.N,Net-(J1-Pad1)*
X189465000Y-138900000D02*
X173590000Y-138900000D01*
G04 #@! TD*
D16*
G04 #@! TO.N,GND*
X183500000Y-56100000D02*
X179464646Y-56100000D01*
X179444170Y-56032500D01*
X179490947Y-55878296D01*
X179507030Y-55715000D01*
X179490947Y-55551704D01*
X179443315Y-55394682D01*
X179365965Y-55249971D01*
X179261870Y-55123130D01*
X179135029Y-55019035D01*
X178990318Y-54941685D01*
X178833296Y-54894053D01*
X178710918Y-54882000D01*
X175454082Y-54882000D01*
X175331704Y-54894053D01*
X175174682Y-54941685D01*
X175029971Y-55019035D01*
X174903130Y-55123130D01*
X174799035Y-55249971D01*
X174721685Y-55394682D01*
X174674053Y-55551704D01*
X174657970Y-55715000D01*
X174674053Y-55878296D01*
X174720830Y-56032500D01*
X174675163Y-56183044D01*
X174652133Y-56211107D01*
X174629030Y-56254329D01*
X174614804Y-56301227D01*
X174610000Y-56350000D01*
X174610000Y-56362000D01*
X174601593Y-56362000D01*
X174351673Y-56195009D01*
X174059036Y-56073795D01*
X173748374Y-56012000D01*
X173431626Y-56012000D01*
X173120964Y-56073795D01*
X172828327Y-56195009D01*
X172564960Y-56370985D01*
X172340985Y-56594960D01*
X172165009Y-56858327D01*
X172043795Y-57150964D01*
X171982000Y-57461626D01*
X171982000Y-57778374D01*
X172043795Y-58089036D01*
X172165009Y-58381673D01*
X172340985Y-58645040D01*
X172564960Y-58869015D01*
X172596366Y-58890000D01*
X172564960Y-58910985D01*
X172340985Y-59134960D01*
X172165009Y-59398327D01*
X172043795Y-59690964D01*
X171982000Y-60001626D01*
X171982000Y-60318374D01*
X172043795Y-60629036D01*
X172165009Y-60921673D01*
X172340985Y-61185040D01*
X172564960Y-61409015D01*
X172596366Y-61430000D01*
X172564960Y-61450985D01*
X172340985Y-61674960D01*
X172165009Y-61938327D01*
X172043795Y-62230964D01*
X171982000Y-62541626D01*
X171982000Y-62858374D01*
X172043795Y-63169036D01*
X172165009Y-63461673D01*
X172340985Y-63725040D01*
X172564960Y-63949015D01*
X172596366Y-63970000D01*
X172564960Y-63990985D01*
X172340985Y-64214960D01*
X172165009Y-64478327D01*
X172043795Y-64770964D01*
X171982000Y-65081626D01*
X171982000Y-65398374D01*
X172043795Y-65709036D01*
X172165009Y-66001673D01*
X172340985Y-66265040D01*
X172564960Y-66489015D01*
X172596366Y-66510000D01*
X172564960Y-66530985D01*
X172340985Y-66754960D01*
X172165009Y-67018327D01*
X172043795Y-67310964D01*
X171982000Y-67621626D01*
X171982000Y-67938374D01*
X172043795Y-68249036D01*
X172165009Y-68541673D01*
X172340985Y-68805040D01*
X172564960Y-69029015D01*
X172596366Y-69050000D01*
X172564960Y-69070985D01*
X172340985Y-69294960D01*
X172165009Y-69558327D01*
X172043795Y-69850964D01*
X171982000Y-70161626D01*
X171982000Y-70478374D01*
X172043795Y-70789036D01*
X172165009Y-71081673D01*
X172340985Y-71345040D01*
X172564960Y-71569015D01*
X172596366Y-71590000D01*
X172564960Y-71610985D01*
X172340985Y-71834960D01*
X172165009Y-72098327D01*
X172043795Y-72390964D01*
X171982000Y-72701626D01*
X171982000Y-73018374D01*
X172043795Y-73329036D01*
X172165009Y-73621673D01*
X172340985Y-73885040D01*
X172564960Y-74109015D01*
X172596366Y-74130000D01*
X172564960Y-74150985D01*
X172340985Y-74374960D01*
X172165009Y-74638327D01*
X172043795Y-74930964D01*
X171982000Y-75241626D01*
X171982000Y-75558374D01*
X172043795Y-75869036D01*
X172165009Y-76161673D01*
X172340985Y-76425040D01*
X172564960Y-76649015D01*
X172596366Y-76670000D01*
X172564960Y-76690985D01*
X172340985Y-76914960D01*
X172165009Y-77178327D01*
X172043795Y-77470964D01*
X171982000Y-77781626D01*
X171982000Y-78098374D01*
X172043795Y-78409036D01*
X172165009Y-78701673D01*
X172340985Y-78965040D01*
X172564960Y-79189015D01*
X172596366Y-79210000D01*
X172564960Y-79230985D01*
X172340985Y-79454960D01*
X172165009Y-79718327D01*
X172043795Y-80010964D01*
X171982000Y-80321626D01*
X171982000Y-80638374D01*
X172043795Y-80949036D01*
X172165009Y-81241673D01*
X172340985Y-81505040D01*
X172564960Y-81729015D01*
X172596366Y-81750000D01*
X172564960Y-81770985D01*
X172340985Y-81994960D01*
X172165009Y-82258327D01*
X172043795Y-82550964D01*
X171982000Y-82861626D01*
X171982000Y-83178374D01*
X172043795Y-83489036D01*
X172165009Y-83781673D01*
X172340985Y-84045040D01*
X172564960Y-84269015D01*
X172596366Y-84290000D01*
X172564960Y-84310985D01*
X172340985Y-84534960D01*
X172165009Y-84798327D01*
X172043795Y-85090964D01*
X171982000Y-85401626D01*
X171982000Y-85718374D01*
X172043795Y-86029036D01*
X172165009Y-86321673D01*
X172340985Y-86585040D01*
X172564960Y-86809015D01*
X172596366Y-86830000D01*
X172564960Y-86850985D01*
X172340985Y-87074960D01*
X172165009Y-87338327D01*
X172043795Y-87630964D01*
X171982000Y-87941626D01*
X171982000Y-88258374D01*
X172043795Y-88569036D01*
X172165009Y-88861673D01*
X172340985Y-89125040D01*
X172564960Y-89349015D01*
X172596366Y-89370000D01*
X172564960Y-89390985D01*
X172340985Y-89614960D01*
X172165009Y-89878327D01*
X172043795Y-90170964D01*
X171982000Y-90481626D01*
X171982000Y-90798374D01*
X172043795Y-91109036D01*
X172165009Y-91401673D01*
X172340985Y-91665040D01*
X172564960Y-91889015D01*
X172828327Y-92064991D01*
X173120964Y-92186205D01*
X173431626Y-92248000D01*
X173748374Y-92248000D01*
X174059036Y-92186205D01*
X174351673Y-92064991D01*
X174601593Y-91898000D01*
X174610000Y-91898000D01*
X174610000Y-94462000D01*
X174601593Y-94462000D01*
X174351673Y-94295009D01*
X174059036Y-94173795D01*
X173748374Y-94112000D01*
X173431626Y-94112000D01*
X173120964Y-94173795D01*
X172828327Y-94295009D01*
X172564960Y-94470985D01*
X172340985Y-94694960D01*
X172165009Y-94958327D01*
X172043795Y-95250964D01*
X171982000Y-95561626D01*
X171982000Y-95878374D01*
X172043795Y-96189036D01*
X172165009Y-96481673D01*
X172340985Y-96745040D01*
X172564960Y-96969015D01*
X172596366Y-96990000D01*
X172564960Y-97010985D01*
X172340985Y-97234960D01*
X172165009Y-97498327D01*
X172043795Y-97790964D01*
X171982000Y-98101626D01*
X171982000Y-98418374D01*
X172043795Y-98729036D01*
X172165009Y-99021673D01*
X172340985Y-99285040D01*
X172564960Y-99509015D01*
X172596366Y-99530000D01*
X172564960Y-99550985D01*
X172340985Y-99774960D01*
X172165009Y-100038327D01*
X172043795Y-100330964D01*
X171982000Y-100641626D01*
X171982000Y-100958374D01*
X172043795Y-101269036D01*
X172165009Y-101561673D01*
X172340985Y-101825040D01*
X172564960Y-102049015D01*
X172596366Y-102070000D01*
X172564960Y-102090985D01*
X172340985Y-102314960D01*
X172165009Y-102578327D01*
X172043795Y-102870964D01*
X171982000Y-103181626D01*
X171982000Y-103498374D01*
X172043795Y-103809036D01*
X172165009Y-104101673D01*
X172340985Y-104365040D01*
X172564960Y-104589015D01*
X172596366Y-104610000D01*
X172564960Y-104630985D01*
X172340985Y-104854960D01*
X172165009Y-105118327D01*
X172043795Y-105410964D01*
X171982000Y-105721626D01*
X171982000Y-106038374D01*
X172043795Y-106349036D01*
X172165009Y-106641673D01*
X172340985Y-106905040D01*
X172564960Y-107129015D01*
X172596366Y-107150000D01*
X172564960Y-107170985D01*
X172340985Y-107394960D01*
X172165009Y-107658327D01*
X172043795Y-107950964D01*
X171982000Y-108261626D01*
X171982000Y-108578374D01*
X172043795Y-108889036D01*
X172165009Y-109181673D01*
X172340985Y-109445040D01*
X172564960Y-109669015D01*
X172596366Y-109690000D01*
X172564960Y-109710985D01*
X172340985Y-109934960D01*
X172165009Y-110198327D01*
X172043795Y-110490964D01*
X171982000Y-110801626D01*
X171982000Y-111118374D01*
X172043795Y-111429036D01*
X172165009Y-111721673D01*
X172340985Y-111985040D01*
X172564960Y-112209015D01*
X172596366Y-112230000D01*
X172564960Y-112250985D01*
X172340985Y-112474960D01*
X172165009Y-112738327D01*
X172043795Y-113030964D01*
X171982000Y-113341626D01*
X171982000Y-113658374D01*
X172043795Y-113969036D01*
X172165009Y-114261673D01*
X172340985Y-114525040D01*
X172564960Y-114749015D01*
X172596366Y-114770000D01*
X172564960Y-114790985D01*
X172340985Y-115014960D01*
X172165009Y-115278327D01*
X172043795Y-115570964D01*
X171982000Y-115881626D01*
X171982000Y-116198374D01*
X172043795Y-116509036D01*
X172165009Y-116801673D01*
X172340985Y-117065040D01*
X172564960Y-117289015D01*
X172596366Y-117310000D01*
X172564960Y-117330985D01*
X172340985Y-117554960D01*
X172165009Y-117818327D01*
X172043795Y-118110964D01*
X171982000Y-118421626D01*
X171982000Y-118738374D01*
X172043795Y-119049036D01*
X172165009Y-119341673D01*
X172340985Y-119605040D01*
X172564960Y-119829015D01*
X172596366Y-119850000D01*
X172564960Y-119870985D01*
X172340985Y-120094960D01*
X172165009Y-120358327D01*
X172043795Y-120650964D01*
X171982000Y-120961626D01*
X171982000Y-121278374D01*
X172043795Y-121589036D01*
X172165009Y-121881673D01*
X172340985Y-122145040D01*
X172564960Y-122369015D01*
X172596366Y-122390000D01*
X172564960Y-122410985D01*
X172340985Y-122634960D01*
X172165009Y-122898327D01*
X172043795Y-123190964D01*
X171982000Y-123501626D01*
X171982000Y-123818374D01*
X172043795Y-124129036D01*
X172165009Y-124421673D01*
X172340985Y-124685040D01*
X172564960Y-124909015D01*
X172596366Y-124930000D01*
X172564960Y-124950985D01*
X172340985Y-125174960D01*
X172165009Y-125438327D01*
X172043795Y-125730964D01*
X171982000Y-126041626D01*
X171982000Y-126358374D01*
X172043795Y-126669036D01*
X172165009Y-126961673D01*
X172340985Y-127225040D01*
X172564960Y-127449015D01*
X172596366Y-127470000D01*
X172564960Y-127490985D01*
X172340985Y-127714960D01*
X172165009Y-127978327D01*
X172043795Y-128270964D01*
X171982000Y-128581626D01*
X171982000Y-128898374D01*
X172043795Y-129209036D01*
X172165009Y-129501673D01*
X172340985Y-129765040D01*
X172564960Y-129989015D01*
X172596366Y-130010000D01*
X172564960Y-130030985D01*
X172340985Y-130254960D01*
X172165009Y-130518327D01*
X172043795Y-130810964D01*
X171982000Y-131121626D01*
X171982000Y-131438374D01*
X172043795Y-131749036D01*
X172165009Y-132041673D01*
X172340985Y-132305040D01*
X172564960Y-132529015D01*
X172596366Y-132550000D01*
X172564960Y-132570985D01*
X172340985Y-132794960D01*
X172165009Y-133058327D01*
X172043795Y-133350964D01*
X171982000Y-133661626D01*
X171982000Y-133978374D01*
X172043795Y-134289036D01*
X172165009Y-134581673D01*
X172340985Y-134845040D01*
X172564960Y-135069015D01*
X172596366Y-135090000D01*
X172564960Y-135110985D01*
X172340985Y-135334960D01*
X172165009Y-135598327D01*
X172043795Y-135890964D01*
X171982000Y-136201626D01*
X171982000Y-136518374D01*
X172043795Y-136829036D01*
X172165009Y-137121673D01*
X172340985Y-137385040D01*
X172353205Y-137397260D01*
X172316840Y-137416697D01*
X172201420Y-137511420D01*
X172106697Y-137626840D01*
X172036311Y-137758523D01*
X171992968Y-137901406D01*
X171978333Y-138050000D01*
X171978333Y-139750000D01*
X171992968Y-139898594D01*
X172036311Y-140041477D01*
X172106697Y-140173160D01*
X172201420Y-140288580D01*
X172316840Y-140383303D01*
X172448523Y-140453689D01*
X172591406Y-140497032D01*
X172740000Y-140511667D01*
X174440000Y-140511667D01*
X174588594Y-140497032D01*
X174731477Y-140453689D01*
X174806293Y-140413699D01*
X174811227Y-140415196D01*
X174860000Y-140420000D01*
X183500000Y-140420000D01*
X183500000Y-144467000D01*
X167388000Y-144467000D01*
X167388000Y-52053000D01*
X183500000Y-52053000D01*
X183500000Y-56100000D01*
G04 #@! TA.AperFunction,Conductor*
D17*
G36*
X183500000Y-56100000D02*
G01*
X179464646Y-56100000D01*
X179444170Y-56032500D01*
X179490947Y-55878296D01*
X179507030Y-55715000D01*
X179490947Y-55551704D01*
X179443315Y-55394682D01*
X179365965Y-55249971D01*
X179261870Y-55123130D01*
X179135029Y-55019035D01*
X178990318Y-54941685D01*
X178833296Y-54894053D01*
X178710918Y-54882000D01*
X175454082Y-54882000D01*
X175331704Y-54894053D01*
X175174682Y-54941685D01*
X175029971Y-55019035D01*
X174903130Y-55123130D01*
X174799035Y-55249971D01*
X174721685Y-55394682D01*
X174674053Y-55551704D01*
X174657970Y-55715000D01*
X174674053Y-55878296D01*
X174720830Y-56032500D01*
X174675163Y-56183044D01*
X174652133Y-56211107D01*
X174629030Y-56254329D01*
X174614804Y-56301227D01*
X174610000Y-56350000D01*
X174610000Y-56362000D01*
X174601593Y-56362000D01*
X174351673Y-56195009D01*
X174059036Y-56073795D01*
X173748374Y-56012000D01*
X173431626Y-56012000D01*
X173120964Y-56073795D01*
X172828327Y-56195009D01*
X172564960Y-56370985D01*
X172340985Y-56594960D01*
X172165009Y-56858327D01*
X172043795Y-57150964D01*
X171982000Y-57461626D01*
X171982000Y-57778374D01*
X172043795Y-58089036D01*
X172165009Y-58381673D01*
X172340985Y-58645040D01*
X172564960Y-58869015D01*
X172596366Y-58890000D01*
X172564960Y-58910985D01*
X172340985Y-59134960D01*
X172165009Y-59398327D01*
X172043795Y-59690964D01*
X171982000Y-60001626D01*
X171982000Y-60318374D01*
X172043795Y-60629036D01*
X172165009Y-60921673D01*
X172340985Y-61185040D01*
X172564960Y-61409015D01*
X172596366Y-61430000D01*
X172564960Y-61450985D01*
X172340985Y-61674960D01*
X172165009Y-61938327D01*
X172043795Y-62230964D01*
X171982000Y-62541626D01*
X171982000Y-62858374D01*
X172043795Y-63169036D01*
X172165009Y-63461673D01*
X172340985Y-63725040D01*
X172564960Y-63949015D01*
X172596366Y-63970000D01*
X172564960Y-63990985D01*
X172340985Y-64214960D01*
X172165009Y-64478327D01*
X172043795Y-64770964D01*
X171982000Y-65081626D01*
X171982000Y-65398374D01*
X172043795Y-65709036D01*
X172165009Y-66001673D01*
X172340985Y-66265040D01*
X172564960Y-66489015D01*
X172596366Y-66510000D01*
X172564960Y-66530985D01*
X172340985Y-66754960D01*
X172165009Y-67018327D01*
X172043795Y-67310964D01*
X171982000Y-67621626D01*
X171982000Y-67938374D01*
X172043795Y-68249036D01*
X172165009Y-68541673D01*
X172340985Y-68805040D01*
X172564960Y-69029015D01*
X172596366Y-69050000D01*
X172564960Y-69070985D01*
X172340985Y-69294960D01*
X172165009Y-69558327D01*
X172043795Y-69850964D01*
X171982000Y-70161626D01*
X171982000Y-70478374D01*
X172043795Y-70789036D01*
X172165009Y-71081673D01*
X172340985Y-71345040D01*
X172564960Y-71569015D01*
X172596366Y-71590000D01*
X172564960Y-71610985D01*
X172340985Y-71834960D01*
X172165009Y-72098327D01*
X172043795Y-72390964D01*
X171982000Y-72701626D01*
X171982000Y-73018374D01*
X172043795Y-73329036D01*
X172165009Y-73621673D01*
X172340985Y-73885040D01*
X172564960Y-74109015D01*
X172596366Y-74130000D01*
X172564960Y-74150985D01*
X172340985Y-74374960D01*
X172165009Y-74638327D01*
X172043795Y-74930964D01*
X171982000Y-75241626D01*
X171982000Y-75558374D01*
X172043795Y-75869036D01*
X172165009Y-76161673D01*
X172340985Y-76425040D01*
X172564960Y-76649015D01*
X172596366Y-76670000D01*
X172564960Y-76690985D01*
X172340985Y-76914960D01*
X172165009Y-77178327D01*
X172043795Y-77470964D01*
X171982000Y-77781626D01*
X171982000Y-78098374D01*
X172043795Y-78409036D01*
X172165009Y-78701673D01*
X172340985Y-78965040D01*
X172564960Y-79189015D01*
X172596366Y-79210000D01*
X172564960Y-79230985D01*
X172340985Y-79454960D01*
X172165009Y-79718327D01*
X172043795Y-80010964D01*
X171982000Y-80321626D01*
X171982000Y-80638374D01*
X172043795Y-80949036D01*
X172165009Y-81241673D01*
X172340985Y-81505040D01*
X172564960Y-81729015D01*
X172596366Y-81750000D01*
X172564960Y-81770985D01*
X172340985Y-81994960D01*
X172165009Y-82258327D01*
X172043795Y-82550964D01*
X171982000Y-82861626D01*
X171982000Y-83178374D01*
X172043795Y-83489036D01*
X172165009Y-83781673D01*
X172340985Y-84045040D01*
X172564960Y-84269015D01*
X172596366Y-84290000D01*
X172564960Y-84310985D01*
X172340985Y-84534960D01*
X172165009Y-84798327D01*
X172043795Y-85090964D01*
X171982000Y-85401626D01*
X171982000Y-85718374D01*
X172043795Y-86029036D01*
X172165009Y-86321673D01*
X172340985Y-86585040D01*
X172564960Y-86809015D01*
X172596366Y-86830000D01*
X172564960Y-86850985D01*
X172340985Y-87074960D01*
X172165009Y-87338327D01*
X172043795Y-87630964D01*
X171982000Y-87941626D01*
X171982000Y-88258374D01*
X172043795Y-88569036D01*
X172165009Y-88861673D01*
X172340985Y-89125040D01*
X172564960Y-89349015D01*
X172596366Y-89370000D01*
X172564960Y-89390985D01*
X172340985Y-89614960D01*
X172165009Y-89878327D01*
X172043795Y-90170964D01*
X171982000Y-90481626D01*
X171982000Y-90798374D01*
X172043795Y-91109036D01*
X172165009Y-91401673D01*
X172340985Y-91665040D01*
X172564960Y-91889015D01*
X172828327Y-92064991D01*
X173120964Y-92186205D01*
X173431626Y-92248000D01*
X173748374Y-92248000D01*
X174059036Y-92186205D01*
X174351673Y-92064991D01*
X174601593Y-91898000D01*
X174610000Y-91898000D01*
X174610000Y-94462000D01*
X174601593Y-94462000D01*
X174351673Y-94295009D01*
X174059036Y-94173795D01*
X173748374Y-94112000D01*
X173431626Y-94112000D01*
X173120964Y-94173795D01*
X172828327Y-94295009D01*
X172564960Y-94470985D01*
X172340985Y-94694960D01*
X172165009Y-94958327D01*
X172043795Y-95250964D01*
X171982000Y-95561626D01*
X171982000Y-95878374D01*
X172043795Y-96189036D01*
X172165009Y-96481673D01*
X172340985Y-96745040D01*
X172564960Y-96969015D01*
X172596366Y-96990000D01*
X172564960Y-97010985D01*
X172340985Y-97234960D01*
X172165009Y-97498327D01*
X172043795Y-97790964D01*
X171982000Y-98101626D01*
X171982000Y-98418374D01*
X172043795Y-98729036D01*
X172165009Y-99021673D01*
X172340985Y-99285040D01*
X172564960Y-99509015D01*
X172596366Y-99530000D01*
X172564960Y-99550985D01*
X172340985Y-99774960D01*
X172165009Y-100038327D01*
X172043795Y-100330964D01*
X171982000Y-100641626D01*
X171982000Y-100958374D01*
X172043795Y-101269036D01*
X172165009Y-101561673D01*
X172340985Y-101825040D01*
X172564960Y-102049015D01*
X172596366Y-102070000D01*
X172564960Y-102090985D01*
X172340985Y-102314960D01*
X172165009Y-102578327D01*
X172043795Y-102870964D01*
X171982000Y-103181626D01*
X171982000Y-103498374D01*
X172043795Y-103809036D01*
X172165009Y-104101673D01*
X172340985Y-104365040D01*
X172564960Y-104589015D01*
X172596366Y-104610000D01*
X172564960Y-104630985D01*
X172340985Y-104854960D01*
X172165009Y-105118327D01*
X172043795Y-105410964D01*
X171982000Y-105721626D01*
X171982000Y-106038374D01*
X172043795Y-106349036D01*
X172165009Y-106641673D01*
X172340985Y-106905040D01*
X172564960Y-107129015D01*
X172596366Y-107150000D01*
X172564960Y-107170985D01*
X172340985Y-107394960D01*
X172165009Y-107658327D01*
X172043795Y-107950964D01*
X171982000Y-108261626D01*
X171982000Y-108578374D01*
X172043795Y-108889036D01*
X172165009Y-109181673D01*
X172340985Y-109445040D01*
X172564960Y-109669015D01*
X172596366Y-109690000D01*
X172564960Y-109710985D01*
X172340985Y-109934960D01*
X172165009Y-110198327D01*
X172043795Y-110490964D01*
X171982000Y-110801626D01*
X171982000Y-111118374D01*
X172043795Y-111429036D01*
X172165009Y-111721673D01*
X172340985Y-111985040D01*
X172564960Y-112209015D01*
X172596366Y-112230000D01*
X172564960Y-112250985D01*
X172340985Y-112474960D01*
X172165009Y-112738327D01*
X172043795Y-113030964D01*
X171982000Y-113341626D01*
X171982000Y-113658374D01*
X172043795Y-113969036D01*
X172165009Y-114261673D01*
X172340985Y-114525040D01*
X172564960Y-114749015D01*
X172596366Y-114770000D01*
X172564960Y-114790985D01*
X172340985Y-115014960D01*
X172165009Y-115278327D01*
X172043795Y-115570964D01*
X171982000Y-115881626D01*
X171982000Y-116198374D01*
X172043795Y-116509036D01*
X172165009Y-116801673D01*
X172340985Y-117065040D01*
X172564960Y-117289015D01*
X172596366Y-117310000D01*
X172564960Y-117330985D01*
X172340985Y-117554960D01*
X172165009Y-117818327D01*
X172043795Y-118110964D01*
X171982000Y-118421626D01*
X171982000Y-118738374D01*
X172043795Y-119049036D01*
X172165009Y-119341673D01*
X172340985Y-119605040D01*
X172564960Y-119829015D01*
X172596366Y-119850000D01*
X172564960Y-119870985D01*
X172340985Y-120094960D01*
X172165009Y-120358327D01*
X172043795Y-120650964D01*
X171982000Y-120961626D01*
X171982000Y-121278374D01*
X172043795Y-121589036D01*
X172165009Y-121881673D01*
X172340985Y-122145040D01*
X172564960Y-122369015D01*
X172596366Y-122390000D01*
X172564960Y-122410985D01*
X172340985Y-122634960D01*
X172165009Y-122898327D01*
X172043795Y-123190964D01*
X171982000Y-123501626D01*
X171982000Y-123818374D01*
X172043795Y-124129036D01*
X172165009Y-124421673D01*
X172340985Y-124685040D01*
X172564960Y-124909015D01*
X172596366Y-124930000D01*
X172564960Y-124950985D01*
X172340985Y-125174960D01*
X172165009Y-125438327D01*
X172043795Y-125730964D01*
X171982000Y-126041626D01*
X171982000Y-126358374D01*
X172043795Y-126669036D01*
X172165009Y-126961673D01*
X172340985Y-127225040D01*
X172564960Y-127449015D01*
X172596366Y-127470000D01*
X172564960Y-127490985D01*
X172340985Y-127714960D01*
X172165009Y-127978327D01*
X172043795Y-128270964D01*
X171982000Y-128581626D01*
X171982000Y-128898374D01*
X172043795Y-129209036D01*
X172165009Y-129501673D01*
X172340985Y-129765040D01*
X172564960Y-129989015D01*
X172596366Y-130010000D01*
X172564960Y-130030985D01*
X172340985Y-130254960D01*
X172165009Y-130518327D01*
X172043795Y-130810964D01*
X171982000Y-131121626D01*
X171982000Y-131438374D01*
X172043795Y-131749036D01*
X172165009Y-132041673D01*
X172340985Y-132305040D01*
X172564960Y-132529015D01*
X172596366Y-132550000D01*
X172564960Y-132570985D01*
X172340985Y-132794960D01*
X172165009Y-133058327D01*
X172043795Y-133350964D01*
X171982000Y-133661626D01*
X171982000Y-133978374D01*
X172043795Y-134289036D01*
X172165009Y-134581673D01*
X172340985Y-134845040D01*
X172564960Y-135069015D01*
X172596366Y-135090000D01*
X172564960Y-135110985D01*
X172340985Y-135334960D01*
X172165009Y-135598327D01*
X172043795Y-135890964D01*
X171982000Y-136201626D01*
X171982000Y-136518374D01*
X172043795Y-136829036D01*
X172165009Y-137121673D01*
X172340985Y-137385040D01*
X172353205Y-137397260D01*
X172316840Y-137416697D01*
X172201420Y-137511420D01*
X172106697Y-137626840D01*
X172036311Y-137758523D01*
X171992968Y-137901406D01*
X171978333Y-138050000D01*
X171978333Y-139750000D01*
X171992968Y-139898594D01*
X172036311Y-140041477D01*
X172106697Y-140173160D01*
X172201420Y-140288580D01*
X172316840Y-140383303D01*
X172448523Y-140453689D01*
X172591406Y-140497032D01*
X172740000Y-140511667D01*
X174440000Y-140511667D01*
X174588594Y-140497032D01*
X174731477Y-140453689D01*
X174806293Y-140413699D01*
X174811227Y-140415196D01*
X174860000Y-140420000D01*
X183500000Y-140420000D01*
X183500000Y-144467000D01*
X167388000Y-144467000D01*
X167388000Y-52053000D01*
X183500000Y-52053000D01*
X183500000Y-56100000D01*
G37*
G04 #@! TD.AperFunction*
G04 #@! TD*
M02*
