%TF.GenerationSoftware,KiCad,Pcbnew,5.1.8+dfsg1-1*%
%TF.CreationDate,2020-12-28T21:56:30+01:00*%
%TF.ProjectId,P11,5031312e-6b69-4636-9164-5f7063625858,rev?*%
%TF.SameCoordinates,Original*%
%TF.FileFunction,Soldermask,Bot*%
%TF.FilePolarity,Negative*%
%FSLAX46Y46*%
G04 Gerber Fmt 4.6, Leading zero omitted, Abs format (unit mm)*
G04 Created by KiCad (PCBNEW 5.1.8+dfsg1-1) date 2020-12-28 21:56:30*
%MOMM*%
%LPD*%
G01*
G04 APERTURE LIST*
%ADD10O,1.700000X1.700000*%
%ADD11R,1.700000X1.700000*%
%ADD12R,9.144000X1.651000*%
G04 APERTURE END LIST*
D10*
%TO.C,J2*%
X132080000Y-102870000D03*
X132080000Y-100330000D03*
X132080000Y-97790000D03*
X132080000Y-95250000D03*
X132080000Y-92710000D03*
X132080000Y-90170000D03*
X132080000Y-87630000D03*
X132080000Y-85090000D03*
X132080000Y-82550000D03*
X132080000Y-80010000D03*
D11*
X132080000Y-77470000D03*
%TD*%
D12*
%TO.C,J1*%
X115570000Y-102870000D03*
X115570000Y-100330000D03*
X115570000Y-97790000D03*
X115570000Y-95250000D03*
X115570000Y-92710000D03*
X115570000Y-90170000D03*
X115570000Y-87630000D03*
X115570000Y-85090000D03*
X115570000Y-82550000D03*
X115570000Y-80010000D03*
X115570000Y-77470000D03*
%TD*%
M02*
