G04 #@! TF.GenerationSoftware,KiCad,Pcbnew,5.1.9+dfsg1-1*
G04 #@! TF.CreationDate,2021-02-08T11:21:24+01:00*
G04 #@! TF.ProjectId,Attenuator,41747465-6e75-4617-946f-722e6b696361,rev?*
G04 #@! TF.SameCoordinates,Original*
G04 #@! TF.FileFunction,Legend,Top*
G04 #@! TF.FilePolarity,Positive*
%FSLAX46Y46*%
G04 Gerber Fmt 4.6, Leading zero omitted, Abs format (unit mm)*
G04 Created by KiCad (PCBNEW 5.1.9+dfsg1-1) date 2021-02-08 11:21:24*
%MOMM*%
%LPD*%
G01*
G04 APERTURE LIST*
%ADD10C,0.120000*%
%ADD11C,0.254000*%
%ADD12C,0.150000*%
G04 APERTURE END LIST*
D10*
G04 #@! TO.C,C5*
X125265000Y-90990000D02*
X130005000Y-90990000D01*
X125265000Y-98430000D02*
X130005000Y-98430000D01*
X130005000Y-98430000D02*
X130005000Y-90990000D01*
X125265000Y-98430000D02*
X125265000Y-90990000D01*
G04 #@! TO.C,C4*
X121754000Y-96980000D02*
X121739000Y-96980000D01*
X123879000Y-96980000D02*
X123864000Y-96980000D01*
X121754000Y-92440000D02*
X121739000Y-92440000D01*
X123879000Y-92440000D02*
X123864000Y-92440000D01*
X121739000Y-92440000D02*
X121739000Y-96980000D01*
X123879000Y-92440000D02*
X123879000Y-96980000D01*
G04 #@! TO.C,R1*
X108990000Y-79510000D02*
X109760000Y-79510000D01*
X117070000Y-79510000D02*
X116300000Y-79510000D01*
X109760000Y-80880000D02*
X116300000Y-80880000D01*
X109760000Y-78140000D02*
X109760000Y-80880000D01*
X116300000Y-78140000D02*
X109760000Y-78140000D01*
X116300000Y-80880000D02*
X116300000Y-78140000D01*
G04 #@! TO.C,R9*
X102770000Y-76335000D02*
X100160000Y-76335000D01*
X105510000Y-76335000D02*
G75*
G03*
X105510000Y-76335000I-1370000J0D01*
G01*
G04 #@! TO.C,R4*
X98525000Y-52840000D02*
X101135000Y-52840000D01*
X98525000Y-52840000D02*
G75*
G03*
X98525000Y-52840000I-1370000J0D01*
G01*
G04 #@! TO.C,L1*
X122809000Y-87995000D02*
X122809000Y-87575000D01*
X122809000Y-79915000D02*
X122809000Y-80335000D01*
X124579000Y-87575000D02*
X124579000Y-80335000D01*
X121039000Y-87575000D02*
X124579000Y-87575000D01*
X121039000Y-80335000D02*
X121039000Y-87575000D01*
X124579000Y-80335000D02*
X121039000Y-80335000D01*
G04 #@! TO.C,R16*
X140108000Y-85955000D02*
X140438000Y-85955000D01*
X140108000Y-79415000D02*
X140108000Y-85955000D01*
X140438000Y-79415000D02*
X140108000Y-79415000D01*
X142848000Y-85955000D02*
X142518000Y-85955000D01*
X142848000Y-79415000D02*
X142848000Y-85955000D01*
X142518000Y-79415000D02*
X142848000Y-79415000D01*
G04 #@! TO.C,R15*
X137060000Y-85955000D02*
X137390000Y-85955000D01*
X137060000Y-79415000D02*
X137060000Y-85955000D01*
X137390000Y-79415000D02*
X137060000Y-79415000D01*
X139800000Y-85955000D02*
X139470000Y-85955000D01*
X139800000Y-79415000D02*
X139800000Y-85955000D01*
X139470000Y-79415000D02*
X139800000Y-79415000D01*
G04 #@! TO.C,R14*
X127916000Y-85955000D02*
X128246000Y-85955000D01*
X127916000Y-79415000D02*
X127916000Y-85955000D01*
X128246000Y-79415000D02*
X127916000Y-79415000D01*
X130656000Y-85955000D02*
X130326000Y-85955000D01*
X130656000Y-79415000D02*
X130656000Y-85955000D01*
X130326000Y-79415000D02*
X130656000Y-79415000D01*
G04 #@! TO.C,R13*
X124868000Y-85955000D02*
X125198000Y-85955000D01*
X124868000Y-79415000D02*
X124868000Y-85955000D01*
X125198000Y-79415000D02*
X124868000Y-79415000D01*
X127608000Y-85955000D02*
X127278000Y-85955000D01*
X127608000Y-79415000D02*
X127608000Y-85955000D01*
X127278000Y-79415000D02*
X127608000Y-79415000D01*
G04 #@! TO.C,R12*
X130964000Y-85955000D02*
X131294000Y-85955000D01*
X130964000Y-79415000D02*
X130964000Y-85955000D01*
X131294000Y-79415000D02*
X130964000Y-79415000D01*
X133704000Y-85955000D02*
X133374000Y-85955000D01*
X133704000Y-79415000D02*
X133704000Y-85955000D01*
X133374000Y-79415000D02*
X133704000Y-79415000D01*
G04 #@! TO.C,R11*
X134012000Y-85955000D02*
X134342000Y-85955000D01*
X134012000Y-79415000D02*
X134012000Y-85955000D01*
X134342000Y-79415000D02*
X134012000Y-79415000D01*
X136752000Y-85955000D02*
X136422000Y-85955000D01*
X136752000Y-79415000D02*
X136752000Y-85955000D01*
X136422000Y-79415000D02*
X136752000Y-79415000D01*
G04 #@! TO.C,R5*
X125195000Y-75700000D02*
X127805000Y-75700000D01*
X125195000Y-75700000D02*
G75*
G03*
X125195000Y-75700000I-1370000J0D01*
G01*
G04 #@! TO.C,R20*
X72490000Y-76970000D02*
X75100000Y-76970000D01*
X72490000Y-76970000D02*
G75*
G03*
X72490000Y-76970000I-1370000J0D01*
G01*
G04 #@! TO.C,R19*
X73760000Y-91575000D02*
X76370000Y-91575000D01*
X73760000Y-91575000D02*
G75*
G03*
X73760000Y-91575000I-1370000J0D01*
G01*
G04 #@! TO.C,J2*
X75870000Y-89035000D02*
X74600000Y-89035000D01*
X75870000Y-87765000D02*
X75870000Y-89035000D01*
X73557071Y-84845000D02*
X73160000Y-84845000D01*
X73557071Y-85605000D02*
X73160000Y-85605000D01*
X64500000Y-84845000D02*
X70500000Y-84845000D01*
X64500000Y-85605000D02*
X64500000Y-84845000D01*
X70500000Y-85605000D02*
X64500000Y-85605000D01*
X73160000Y-86495000D02*
X70500000Y-86495000D01*
X73490000Y-87385000D02*
X73160000Y-87385000D01*
X73490000Y-88145000D02*
X73160000Y-88145000D01*
X70500000Y-87485000D02*
X64500000Y-87485000D01*
X70500000Y-87605000D02*
X64500000Y-87605000D01*
X70500000Y-87725000D02*
X64500000Y-87725000D01*
X70500000Y-87845000D02*
X64500000Y-87845000D01*
X70500000Y-87965000D02*
X64500000Y-87965000D01*
X70500000Y-88085000D02*
X64500000Y-88085000D01*
X64500000Y-87385000D02*
X70500000Y-87385000D01*
X64500000Y-88145000D02*
X64500000Y-87385000D01*
X70500000Y-88145000D02*
X64500000Y-88145000D01*
X70500000Y-89095000D02*
X73160000Y-89095000D01*
X70500000Y-83895000D02*
X70500000Y-89095000D01*
X73160000Y-83895000D02*
X70500000Y-83895000D01*
X73160000Y-89095000D02*
X73160000Y-83895000D01*
D11*
G04 #@! TO.C,SW3*
X154498780Y-64270000D02*
G75*
G03*
X154498780Y-64270000I-13098780J0D01*
G01*
X146401260Y-64270000D02*
G75*
G03*
X146401260Y-64270000I-5001260J0D01*
G01*
X143150060Y-73769600D02*
G75*
G03*
X143150060Y-73769600I-1750060J0D01*
G01*
X144194000Y-64270000D02*
G75*
G03*
X144194000Y-64270000I-2794000J0D01*
G01*
X154735000Y-64270000D02*
G75*
G03*
X154735000Y-64270000I-13335000J0D01*
G01*
G04 #@! TO.C,SW2*
X126498780Y-64270000D02*
G75*
G03*
X126498780Y-64270000I-13098780J0D01*
G01*
X118401260Y-64270000D02*
G75*
G03*
X118401260Y-64270000I-5001260J0D01*
G01*
X115150060Y-73769600D02*
G75*
G03*
X115150060Y-73769600I-1750060J0D01*
G01*
X116194000Y-64270000D02*
G75*
G03*
X116194000Y-64270000I-2794000J0D01*
G01*
X126735000Y-64270000D02*
G75*
G03*
X126735000Y-64270000I-13335000J0D01*
G01*
G04 #@! TO.C,SW1*
X98498780Y-64270000D02*
G75*
G03*
X98498780Y-64270000I-13098780J0D01*
G01*
X90401260Y-64270000D02*
G75*
G03*
X90401260Y-64270000I-5001260J0D01*
G01*
X87150060Y-73769600D02*
G75*
G03*
X87150060Y-73769600I-1750060J0D01*
G01*
X88194000Y-64270000D02*
G75*
G03*
X88194000Y-64270000I-2794000J0D01*
G01*
X98735000Y-64270000D02*
G75*
G03*
X98735000Y-64270000I-13335000J0D01*
G01*
D10*
G04 #@! TO.C,R17*
X67850000Y-80045000D02*
X67850000Y-82785000D01*
X67850000Y-82785000D02*
X74390000Y-82785000D01*
X74390000Y-82785000D02*
X74390000Y-80045000D01*
X74390000Y-80045000D02*
X67850000Y-80045000D01*
X67080000Y-81415000D02*
X67850000Y-81415000D01*
X75160000Y-81415000D02*
X74390000Y-81415000D01*
G04 #@! TO.C,R26*
X97064500Y-80462500D02*
G75*
G03*
X97064500Y-80462500I-1370000J0D01*
G01*
X95694500Y-79092500D02*
X95694500Y-79022500D01*
G04 #@! TO.C,R25*
X91857500Y-80462500D02*
G75*
G03*
X91857500Y-80462500I-1370000J0D01*
G01*
X91857500Y-80462500D02*
X91927500Y-80462500D01*
G04 #@! TO.C,R24*
X86650500Y-80462500D02*
G75*
G03*
X86650500Y-80462500I-1370000J0D01*
G01*
X86650500Y-80462500D02*
X86720500Y-80462500D01*
G04 #@! TO.C,R23*
X81443500Y-80462500D02*
G75*
G03*
X81443500Y-80462500I-1370000J0D01*
G01*
X81443500Y-80462500D02*
X81513500Y-80462500D01*
G04 #@! TO.C,R22*
X73125000Y-55380000D02*
G75*
G03*
X73125000Y-55380000I-1370000J0D01*
G01*
X71755000Y-56750000D02*
X71755000Y-56820000D01*
G04 #@! TO.C,R21*
X72490000Y-71255000D02*
G75*
G03*
X72490000Y-71255000I-1370000J0D01*
G01*
X71120000Y-69885000D02*
X71120000Y-69815000D01*
G04 #@! TO.C,R18*
X73125000Y-52205000D02*
G75*
G03*
X73125000Y-52205000I-1370000J0D01*
G01*
X73125000Y-52205000D02*
X73195000Y-52205000D01*
G04 #@! TO.C,U1*
X119440000Y-86375000D02*
X109160000Y-86375000D01*
X119440000Y-96775000D02*
X119440000Y-86375000D01*
X109160000Y-96775000D02*
X119440000Y-96775000D01*
X109160000Y-86375000D02*
X109160000Y-96775000D01*
X116950000Y-86435000D02*
X115300000Y-86435000D01*
X116950000Y-96715000D02*
X116950000Y-86435000D01*
X111650000Y-96715000D02*
X116950000Y-96715000D01*
X111650000Y-86435000D02*
X111650000Y-96715000D01*
X113300000Y-86435000D02*
X111650000Y-86435000D01*
X115300000Y-86435000D02*
G75*
G02*
X113300000Y-86435000I-1000000J0D01*
G01*
G04 #@! TO.C,R10*
X107315000Y-88935000D02*
X107315000Y-88865000D01*
X108685000Y-90305000D02*
G75*
G03*
X108685000Y-90305000I-1370000J0D01*
G01*
G04 #@! TO.C,C3*
X110620000Y-85944000D02*
X110620000Y-81204000D01*
X118060000Y-85944000D02*
X118060000Y-81204000D01*
X118060000Y-81204000D02*
X110620000Y-81204000D01*
X118060000Y-85944000D02*
X110620000Y-85944000D01*
G04 #@! TO.C,J1*
X143530000Y-78875000D02*
X144800000Y-78875000D01*
X143530000Y-80145000D02*
X143530000Y-78875000D01*
X145842929Y-93225000D02*
X146297071Y-93225000D01*
X145842929Y-92465000D02*
X146297071Y-92465000D01*
X148382929Y-93225000D02*
X148780000Y-93225000D01*
X148382929Y-92465000D02*
X148780000Y-92465000D01*
X157440000Y-93225000D02*
X151440000Y-93225000D01*
X157440000Y-92465000D02*
X157440000Y-93225000D01*
X151440000Y-92465000D02*
X157440000Y-92465000D01*
X148780000Y-91575000D02*
X151440000Y-91575000D01*
X145842929Y-90685000D02*
X146297071Y-90685000D01*
X145842929Y-89925000D02*
X146297071Y-89925000D01*
X148382929Y-90685000D02*
X148780000Y-90685000D01*
X148382929Y-89925000D02*
X148780000Y-89925000D01*
X157440000Y-90685000D02*
X151440000Y-90685000D01*
X157440000Y-89925000D02*
X157440000Y-90685000D01*
X151440000Y-89925000D02*
X157440000Y-89925000D01*
X148780000Y-89035000D02*
X151440000Y-89035000D01*
X145842929Y-88145000D02*
X146297071Y-88145000D01*
X145842929Y-87385000D02*
X146297071Y-87385000D01*
X148382929Y-88145000D02*
X148780000Y-88145000D01*
X148382929Y-87385000D02*
X148780000Y-87385000D01*
X157440000Y-88145000D02*
X151440000Y-88145000D01*
X157440000Y-87385000D02*
X157440000Y-88145000D01*
X151440000Y-87385000D02*
X157440000Y-87385000D01*
X148780000Y-86495000D02*
X151440000Y-86495000D01*
X145842929Y-85605000D02*
X146297071Y-85605000D01*
X145842929Y-84845000D02*
X146297071Y-84845000D01*
X148382929Y-85605000D02*
X148780000Y-85605000D01*
X148382929Y-84845000D02*
X148780000Y-84845000D01*
X157440000Y-85605000D02*
X151440000Y-85605000D01*
X157440000Y-84845000D02*
X157440000Y-85605000D01*
X151440000Y-84845000D02*
X157440000Y-84845000D01*
X148780000Y-83955000D02*
X151440000Y-83955000D01*
X145842929Y-83065000D02*
X146297071Y-83065000D01*
X145842929Y-82305000D02*
X146297071Y-82305000D01*
X148382929Y-83065000D02*
X148780000Y-83065000D01*
X148382929Y-82305000D02*
X148780000Y-82305000D01*
X157440000Y-83065000D02*
X151440000Y-83065000D01*
X157440000Y-82305000D02*
X157440000Y-83065000D01*
X151440000Y-82305000D02*
X157440000Y-82305000D01*
X148780000Y-81415000D02*
X151440000Y-81415000D01*
X145910000Y-80525000D02*
X146297071Y-80525000D01*
X145910000Y-79765000D02*
X146297071Y-79765000D01*
X148382929Y-80525000D02*
X148780000Y-80525000D01*
X148382929Y-79765000D02*
X148780000Y-79765000D01*
X151440000Y-80425000D02*
X157440000Y-80425000D01*
X151440000Y-80305000D02*
X157440000Y-80305000D01*
X151440000Y-80185000D02*
X157440000Y-80185000D01*
X151440000Y-80065000D02*
X157440000Y-80065000D01*
X151440000Y-79945000D02*
X157440000Y-79945000D01*
X151440000Y-79825000D02*
X157440000Y-79825000D01*
X157440000Y-80525000D02*
X151440000Y-80525000D01*
X157440000Y-79765000D02*
X157440000Y-80525000D01*
X151440000Y-79765000D02*
X157440000Y-79765000D01*
X151440000Y-78815000D02*
X148780000Y-78815000D01*
X151440000Y-94175000D02*
X151440000Y-78815000D01*
X148780000Y-94175000D02*
X151440000Y-94175000D01*
X148780000Y-78815000D02*
X148780000Y-94175000D01*
G04 #@! TO.C,R8*
X124460000Y-52740000D02*
X124460000Y-52670000D01*
X125830000Y-54110000D02*
G75*
G03*
X125830000Y-54110000I-1370000J0D01*
G01*
G04 #@! TO.C,R7*
X129440000Y-53157500D02*
X129370000Y-53157500D01*
X132180000Y-53157500D02*
G75*
G03*
X132180000Y-53157500I-1370000J0D01*
G01*
G04 #@! TO.C,R6*
X127508000Y-56931000D02*
X127508000Y-56861000D01*
X128878000Y-58301000D02*
G75*
G03*
X128878000Y-58301000I-1370000J0D01*
G01*
G04 #@! TO.C,R3*
X99795000Y-56015000D02*
X99865000Y-56015000D01*
X99795000Y-56015000D02*
G75*
G03*
X99795000Y-56015000I-1370000J0D01*
G01*
G04 #@! TO.C,R2*
X103405000Y-79510000D02*
X103335000Y-79510000D01*
X106145000Y-79510000D02*
G75*
G03*
X106145000Y-79510000I-1370000J0D01*
G01*
G04 #@! TO.C,C2*
X104015000Y-96570000D02*
X104015000Y-99655000D01*
X104015000Y-91115000D02*
X104015000Y-94200000D01*
X79775000Y-96570000D02*
X79775000Y-99655000D01*
X79775000Y-91115000D02*
X79775000Y-94200000D01*
X79775000Y-99655000D02*
X104015000Y-99655000D01*
X79775000Y-91115000D02*
X104015000Y-91115000D01*
G04 #@! TO.C,C1*
X104015000Y-87680000D02*
X104015000Y-90765000D01*
X104015000Y-82225000D02*
X104015000Y-85310000D01*
X79775000Y-87680000D02*
X79775000Y-90765000D01*
X79775000Y-82225000D02*
X79775000Y-85310000D01*
X79775000Y-90765000D02*
X104015000Y-90765000D01*
X79775000Y-82225000D02*
X104015000Y-82225000D01*
G04 #@! TO.C,C5*
D12*
X127468333Y-99552142D02*
X127420714Y-99599761D01*
X127277857Y-99647380D01*
X127182619Y-99647380D01*
X127039761Y-99599761D01*
X126944523Y-99504523D01*
X126896904Y-99409285D01*
X126849285Y-99218809D01*
X126849285Y-99075952D01*
X126896904Y-98885476D01*
X126944523Y-98790238D01*
X127039761Y-98695000D01*
X127182619Y-98647380D01*
X127277857Y-98647380D01*
X127420714Y-98695000D01*
X127468333Y-98742619D01*
X128373095Y-98647380D02*
X127896904Y-98647380D01*
X127849285Y-99123571D01*
X127896904Y-99075952D01*
X127992142Y-99028333D01*
X128230238Y-99028333D01*
X128325476Y-99075952D01*
X128373095Y-99123571D01*
X128420714Y-99218809D01*
X128420714Y-99456904D01*
X128373095Y-99552142D01*
X128325476Y-99599761D01*
X128230238Y-99647380D01*
X127992142Y-99647380D01*
X127896904Y-99599761D01*
X127849285Y-99552142D01*
G04 #@! TO.C,C4*
X121007142Y-94916666D02*
X121054761Y-94964285D01*
X121102380Y-95107142D01*
X121102380Y-95202380D01*
X121054761Y-95345238D01*
X120959523Y-95440476D01*
X120864285Y-95488095D01*
X120673809Y-95535714D01*
X120530952Y-95535714D01*
X120340476Y-95488095D01*
X120245238Y-95440476D01*
X120150000Y-95345238D01*
X120102380Y-95202380D01*
X120102380Y-95107142D01*
X120150000Y-94964285D01*
X120197619Y-94916666D01*
X120435714Y-94059523D02*
X121102380Y-94059523D01*
X120054761Y-94297619D02*
X120769047Y-94535714D01*
X120769047Y-93916666D01*
G04 #@! TO.C,R1*
X109053333Y-82332380D02*
X108720000Y-81856190D01*
X108481904Y-82332380D02*
X108481904Y-81332380D01*
X108862857Y-81332380D01*
X108958095Y-81380000D01*
X109005714Y-81427619D01*
X109053333Y-81522857D01*
X109053333Y-81665714D01*
X109005714Y-81760952D01*
X108958095Y-81808571D01*
X108862857Y-81856190D01*
X108481904Y-81856190D01*
X110005714Y-82332380D02*
X109434285Y-82332380D01*
X109720000Y-82332380D02*
X109720000Y-81332380D01*
X109624761Y-81475238D01*
X109529523Y-81570476D01*
X109434285Y-81618095D01*
G04 #@! TO.C,R9*
X101433333Y-74247380D02*
X101100000Y-73771190D01*
X100861904Y-74247380D02*
X100861904Y-73247380D01*
X101242857Y-73247380D01*
X101338095Y-73295000D01*
X101385714Y-73342619D01*
X101433333Y-73437857D01*
X101433333Y-73580714D01*
X101385714Y-73675952D01*
X101338095Y-73723571D01*
X101242857Y-73771190D01*
X100861904Y-73771190D01*
X101909523Y-74247380D02*
X102100000Y-74247380D01*
X102195238Y-74199761D01*
X102242857Y-74152142D01*
X102338095Y-74009285D01*
X102385714Y-73818809D01*
X102385714Y-73437857D01*
X102338095Y-73342619D01*
X102290476Y-73295000D01*
X102195238Y-73247380D01*
X102004761Y-73247380D01*
X101909523Y-73295000D01*
X101861904Y-73342619D01*
X101814285Y-73437857D01*
X101814285Y-73675952D01*
X101861904Y-73771190D01*
X101909523Y-73818809D01*
X102004761Y-73866428D01*
X102195238Y-73866428D01*
X102290476Y-73818809D01*
X102338095Y-73771190D01*
X102385714Y-73675952D01*
G04 #@! TO.C,R4*
X99528333Y-52022380D02*
X99195000Y-51546190D01*
X98956904Y-52022380D02*
X98956904Y-51022380D01*
X99337857Y-51022380D01*
X99433095Y-51070000D01*
X99480714Y-51117619D01*
X99528333Y-51212857D01*
X99528333Y-51355714D01*
X99480714Y-51450952D01*
X99433095Y-51498571D01*
X99337857Y-51546190D01*
X98956904Y-51546190D01*
X100385476Y-51355714D02*
X100385476Y-52022380D01*
X100147380Y-50974761D02*
X99909285Y-51689047D01*
X100528333Y-51689047D01*
G04 #@! TO.C,L1*
X120467380Y-84121666D02*
X120467380Y-84597857D01*
X119467380Y-84597857D01*
X120467380Y-83264523D02*
X120467380Y-83835952D01*
X120467380Y-83550238D02*
X119467380Y-83550238D01*
X119610238Y-83645476D01*
X119705476Y-83740714D01*
X119753095Y-83835952D01*
G04 #@! TO.C,R16*
X140835142Y-88852380D02*
X140501809Y-88376190D01*
X140263714Y-88852380D02*
X140263714Y-87852380D01*
X140644666Y-87852380D01*
X140739904Y-87900000D01*
X140787523Y-87947619D01*
X140835142Y-88042857D01*
X140835142Y-88185714D01*
X140787523Y-88280952D01*
X140739904Y-88328571D01*
X140644666Y-88376190D01*
X140263714Y-88376190D01*
X141787523Y-88852380D02*
X141216095Y-88852380D01*
X141501809Y-88852380D02*
X141501809Y-87852380D01*
X141406571Y-87995238D01*
X141311333Y-88090476D01*
X141216095Y-88138095D01*
X142644666Y-87852380D02*
X142454190Y-87852380D01*
X142358952Y-87900000D01*
X142311333Y-87947619D01*
X142216095Y-88090476D01*
X142168476Y-88280952D01*
X142168476Y-88661904D01*
X142216095Y-88757142D01*
X142263714Y-88804761D01*
X142358952Y-88852380D01*
X142549428Y-88852380D01*
X142644666Y-88804761D01*
X142692285Y-88757142D01*
X142739904Y-88661904D01*
X142739904Y-88423809D01*
X142692285Y-88328571D01*
X142644666Y-88280952D01*
X142549428Y-88233333D01*
X142358952Y-88233333D01*
X142263714Y-88280952D01*
X142216095Y-88328571D01*
X142168476Y-88423809D01*
G04 #@! TO.C,R15*
X137787142Y-88852380D02*
X137453809Y-88376190D01*
X137215714Y-88852380D02*
X137215714Y-87852380D01*
X137596666Y-87852380D01*
X137691904Y-87900000D01*
X137739523Y-87947619D01*
X137787142Y-88042857D01*
X137787142Y-88185714D01*
X137739523Y-88280952D01*
X137691904Y-88328571D01*
X137596666Y-88376190D01*
X137215714Y-88376190D01*
X138739523Y-88852380D02*
X138168095Y-88852380D01*
X138453809Y-88852380D02*
X138453809Y-87852380D01*
X138358571Y-87995238D01*
X138263333Y-88090476D01*
X138168095Y-88138095D01*
X139644285Y-87852380D02*
X139168095Y-87852380D01*
X139120476Y-88328571D01*
X139168095Y-88280952D01*
X139263333Y-88233333D01*
X139501428Y-88233333D01*
X139596666Y-88280952D01*
X139644285Y-88328571D01*
X139691904Y-88423809D01*
X139691904Y-88661904D01*
X139644285Y-88757142D01*
X139596666Y-88804761D01*
X139501428Y-88852380D01*
X139263333Y-88852380D01*
X139168095Y-88804761D01*
X139120476Y-88757142D01*
G04 #@! TO.C,R14*
X128643142Y-88852380D02*
X128309809Y-88376190D01*
X128071714Y-88852380D02*
X128071714Y-87852380D01*
X128452666Y-87852380D01*
X128547904Y-87900000D01*
X128595523Y-87947619D01*
X128643142Y-88042857D01*
X128643142Y-88185714D01*
X128595523Y-88280952D01*
X128547904Y-88328571D01*
X128452666Y-88376190D01*
X128071714Y-88376190D01*
X129595523Y-88852380D02*
X129024095Y-88852380D01*
X129309809Y-88852380D02*
X129309809Y-87852380D01*
X129214571Y-87995238D01*
X129119333Y-88090476D01*
X129024095Y-88138095D01*
X130452666Y-88185714D02*
X130452666Y-88852380D01*
X130214571Y-87804761D02*
X129976476Y-88519047D01*
X130595523Y-88519047D01*
G04 #@! TO.C,R13*
X125595142Y-88852380D02*
X125261809Y-88376190D01*
X125023714Y-88852380D02*
X125023714Y-87852380D01*
X125404666Y-87852380D01*
X125499904Y-87900000D01*
X125547523Y-87947619D01*
X125595142Y-88042857D01*
X125595142Y-88185714D01*
X125547523Y-88280952D01*
X125499904Y-88328571D01*
X125404666Y-88376190D01*
X125023714Y-88376190D01*
X126547523Y-88852380D02*
X125976095Y-88852380D01*
X126261809Y-88852380D02*
X126261809Y-87852380D01*
X126166571Y-87995238D01*
X126071333Y-88090476D01*
X125976095Y-88138095D01*
X126880857Y-87852380D02*
X127499904Y-87852380D01*
X127166571Y-88233333D01*
X127309428Y-88233333D01*
X127404666Y-88280952D01*
X127452285Y-88328571D01*
X127499904Y-88423809D01*
X127499904Y-88661904D01*
X127452285Y-88757142D01*
X127404666Y-88804761D01*
X127309428Y-88852380D01*
X127023714Y-88852380D01*
X126928476Y-88804761D01*
X126880857Y-88757142D01*
G04 #@! TO.C,R12*
X131691142Y-88852380D02*
X131357809Y-88376190D01*
X131119714Y-88852380D02*
X131119714Y-87852380D01*
X131500666Y-87852380D01*
X131595904Y-87900000D01*
X131643523Y-87947619D01*
X131691142Y-88042857D01*
X131691142Y-88185714D01*
X131643523Y-88280952D01*
X131595904Y-88328571D01*
X131500666Y-88376190D01*
X131119714Y-88376190D01*
X132643523Y-88852380D02*
X132072095Y-88852380D01*
X132357809Y-88852380D02*
X132357809Y-87852380D01*
X132262571Y-87995238D01*
X132167333Y-88090476D01*
X132072095Y-88138095D01*
X133024476Y-87947619D02*
X133072095Y-87900000D01*
X133167333Y-87852380D01*
X133405428Y-87852380D01*
X133500666Y-87900000D01*
X133548285Y-87947619D01*
X133595904Y-88042857D01*
X133595904Y-88138095D01*
X133548285Y-88280952D01*
X132976857Y-88852380D01*
X133595904Y-88852380D01*
G04 #@! TO.C,R11*
X134739142Y-88852380D02*
X134405809Y-88376190D01*
X134167714Y-88852380D02*
X134167714Y-87852380D01*
X134548666Y-87852380D01*
X134643904Y-87900000D01*
X134691523Y-87947619D01*
X134739142Y-88042857D01*
X134739142Y-88185714D01*
X134691523Y-88280952D01*
X134643904Y-88328571D01*
X134548666Y-88376190D01*
X134167714Y-88376190D01*
X135691523Y-88852380D02*
X135120095Y-88852380D01*
X135405809Y-88852380D02*
X135405809Y-87852380D01*
X135310571Y-87995238D01*
X135215333Y-88090476D01*
X135120095Y-88138095D01*
X136643904Y-88852380D02*
X136072476Y-88852380D01*
X136358190Y-88852380D02*
X136358190Y-87852380D01*
X136262952Y-87995238D01*
X136167714Y-88090476D01*
X136072476Y-88138095D01*
G04 #@! TO.C,R5*
X126198333Y-74247380D02*
X125865000Y-73771190D01*
X125626904Y-74247380D02*
X125626904Y-73247380D01*
X126007857Y-73247380D01*
X126103095Y-73295000D01*
X126150714Y-73342619D01*
X126198333Y-73437857D01*
X126198333Y-73580714D01*
X126150714Y-73675952D01*
X126103095Y-73723571D01*
X126007857Y-73771190D01*
X125626904Y-73771190D01*
X127103095Y-73247380D02*
X126626904Y-73247380D01*
X126579285Y-73723571D01*
X126626904Y-73675952D01*
X126722142Y-73628333D01*
X126960238Y-73628333D01*
X127055476Y-73675952D01*
X127103095Y-73723571D01*
X127150714Y-73818809D01*
X127150714Y-74056904D01*
X127103095Y-74152142D01*
X127055476Y-74199761D01*
X126960238Y-74247380D01*
X126722142Y-74247380D01*
X126626904Y-74199761D01*
X126579285Y-74152142D01*
G04 #@! TO.C,R20*
X73017142Y-75052380D02*
X72683809Y-74576190D01*
X72445714Y-75052380D02*
X72445714Y-74052380D01*
X72826666Y-74052380D01*
X72921904Y-74100000D01*
X72969523Y-74147619D01*
X73017142Y-74242857D01*
X73017142Y-74385714D01*
X72969523Y-74480952D01*
X72921904Y-74528571D01*
X72826666Y-74576190D01*
X72445714Y-74576190D01*
X73398095Y-74147619D02*
X73445714Y-74100000D01*
X73540952Y-74052380D01*
X73779047Y-74052380D01*
X73874285Y-74100000D01*
X73921904Y-74147619D01*
X73969523Y-74242857D01*
X73969523Y-74338095D01*
X73921904Y-74480952D01*
X73350476Y-75052380D01*
X73969523Y-75052380D01*
X74588571Y-74052380D02*
X74683809Y-74052380D01*
X74779047Y-74100000D01*
X74826666Y-74147619D01*
X74874285Y-74242857D01*
X74921904Y-74433333D01*
X74921904Y-74671428D01*
X74874285Y-74861904D01*
X74826666Y-74957142D01*
X74779047Y-75004761D01*
X74683809Y-75052380D01*
X74588571Y-75052380D01*
X74493333Y-75004761D01*
X74445714Y-74957142D01*
X74398095Y-74861904D01*
X74350476Y-74671428D01*
X74350476Y-74433333D01*
X74398095Y-74242857D01*
X74445714Y-74147619D01*
X74493333Y-74100000D01*
X74588571Y-74052380D01*
G04 #@! TO.C,R19*
X74287142Y-94567380D02*
X73953809Y-94091190D01*
X73715714Y-94567380D02*
X73715714Y-93567380D01*
X74096666Y-93567380D01*
X74191904Y-93615000D01*
X74239523Y-93662619D01*
X74287142Y-93757857D01*
X74287142Y-93900714D01*
X74239523Y-93995952D01*
X74191904Y-94043571D01*
X74096666Y-94091190D01*
X73715714Y-94091190D01*
X75239523Y-94567380D02*
X74668095Y-94567380D01*
X74953809Y-94567380D02*
X74953809Y-93567380D01*
X74858571Y-93710238D01*
X74763333Y-93805476D01*
X74668095Y-93853095D01*
X75715714Y-94567380D02*
X75906190Y-94567380D01*
X76001428Y-94519761D01*
X76049047Y-94472142D01*
X76144285Y-94329285D01*
X76191904Y-94138809D01*
X76191904Y-93757857D01*
X76144285Y-93662619D01*
X76096666Y-93615000D01*
X76001428Y-93567380D01*
X75810952Y-93567380D01*
X75715714Y-93615000D01*
X75668095Y-93662619D01*
X75620476Y-93757857D01*
X75620476Y-93995952D01*
X75668095Y-94091190D01*
X75715714Y-94138809D01*
X75810952Y-94186428D01*
X76001428Y-94186428D01*
X76096666Y-94138809D01*
X76144285Y-94091190D01*
X76191904Y-93995952D01*
G04 #@! TO.C,J2*
X76287380Y-86828333D02*
X77001666Y-86828333D01*
X77144523Y-86875952D01*
X77239761Y-86971190D01*
X77287380Y-87114047D01*
X77287380Y-87209285D01*
X76382619Y-86399761D02*
X76335000Y-86352142D01*
X76287380Y-86256904D01*
X76287380Y-86018809D01*
X76335000Y-85923571D01*
X76382619Y-85875952D01*
X76477857Y-85828333D01*
X76573095Y-85828333D01*
X76715952Y-85875952D01*
X77287380Y-86447380D01*
X77287380Y-85828333D01*
G04 #@! TO.C,SW3*
X147891666Y-51974761D02*
X148034523Y-52022380D01*
X148272619Y-52022380D01*
X148367857Y-51974761D01*
X148415476Y-51927142D01*
X148463095Y-51831904D01*
X148463095Y-51736666D01*
X148415476Y-51641428D01*
X148367857Y-51593809D01*
X148272619Y-51546190D01*
X148082142Y-51498571D01*
X147986904Y-51450952D01*
X147939285Y-51403333D01*
X147891666Y-51308095D01*
X147891666Y-51212857D01*
X147939285Y-51117619D01*
X147986904Y-51070000D01*
X148082142Y-51022380D01*
X148320238Y-51022380D01*
X148463095Y-51070000D01*
X148796428Y-51022380D02*
X149034523Y-52022380D01*
X149225000Y-51308095D01*
X149415476Y-52022380D01*
X149653571Y-51022380D01*
X149939285Y-51022380D02*
X150558333Y-51022380D01*
X150225000Y-51403333D01*
X150367857Y-51403333D01*
X150463095Y-51450952D01*
X150510714Y-51498571D01*
X150558333Y-51593809D01*
X150558333Y-51831904D01*
X150510714Y-51927142D01*
X150463095Y-51974761D01*
X150367857Y-52022380D01*
X150082142Y-52022380D01*
X149986904Y-51974761D01*
X149939285Y-51927142D01*
G04 #@! TO.C,SW2*
X104711666Y-51974761D02*
X104854523Y-52022380D01*
X105092619Y-52022380D01*
X105187857Y-51974761D01*
X105235476Y-51927142D01*
X105283095Y-51831904D01*
X105283095Y-51736666D01*
X105235476Y-51641428D01*
X105187857Y-51593809D01*
X105092619Y-51546190D01*
X104902142Y-51498571D01*
X104806904Y-51450952D01*
X104759285Y-51403333D01*
X104711666Y-51308095D01*
X104711666Y-51212857D01*
X104759285Y-51117619D01*
X104806904Y-51070000D01*
X104902142Y-51022380D01*
X105140238Y-51022380D01*
X105283095Y-51070000D01*
X105616428Y-51022380D02*
X105854523Y-52022380D01*
X106045000Y-51308095D01*
X106235476Y-52022380D01*
X106473571Y-51022380D01*
X106806904Y-51117619D02*
X106854523Y-51070000D01*
X106949761Y-51022380D01*
X107187857Y-51022380D01*
X107283095Y-51070000D01*
X107330714Y-51117619D01*
X107378333Y-51212857D01*
X107378333Y-51308095D01*
X107330714Y-51450952D01*
X106759285Y-52022380D01*
X107378333Y-52022380D01*
G04 #@! TO.C,SW1*
X92011666Y-51974761D02*
X92154523Y-52022380D01*
X92392619Y-52022380D01*
X92487857Y-51974761D01*
X92535476Y-51927142D01*
X92583095Y-51831904D01*
X92583095Y-51736666D01*
X92535476Y-51641428D01*
X92487857Y-51593809D01*
X92392619Y-51546190D01*
X92202142Y-51498571D01*
X92106904Y-51450952D01*
X92059285Y-51403333D01*
X92011666Y-51308095D01*
X92011666Y-51212857D01*
X92059285Y-51117619D01*
X92106904Y-51070000D01*
X92202142Y-51022380D01*
X92440238Y-51022380D01*
X92583095Y-51070000D01*
X92916428Y-51022380D02*
X93154523Y-52022380D01*
X93345000Y-51308095D01*
X93535476Y-52022380D01*
X93773571Y-51022380D01*
X94678333Y-52022380D02*
X94106904Y-52022380D01*
X94392619Y-52022380D02*
X94392619Y-51022380D01*
X94297380Y-51165238D01*
X94202142Y-51260476D01*
X94106904Y-51308095D01*
G04 #@! TO.C,R17*
X70477142Y-79497380D02*
X70143809Y-79021190D01*
X69905714Y-79497380D02*
X69905714Y-78497380D01*
X70286666Y-78497380D01*
X70381904Y-78545000D01*
X70429523Y-78592619D01*
X70477142Y-78687857D01*
X70477142Y-78830714D01*
X70429523Y-78925952D01*
X70381904Y-78973571D01*
X70286666Y-79021190D01*
X69905714Y-79021190D01*
X71429523Y-79497380D02*
X70858095Y-79497380D01*
X71143809Y-79497380D02*
X71143809Y-78497380D01*
X71048571Y-78640238D01*
X70953333Y-78735476D01*
X70858095Y-78783095D01*
X71762857Y-78497380D02*
X72429523Y-78497380D01*
X72000952Y-79497380D01*
G04 #@! TO.C,R26*
X95242142Y-76152380D02*
X94908809Y-75676190D01*
X94670714Y-76152380D02*
X94670714Y-75152380D01*
X95051666Y-75152380D01*
X95146904Y-75200000D01*
X95194523Y-75247619D01*
X95242142Y-75342857D01*
X95242142Y-75485714D01*
X95194523Y-75580952D01*
X95146904Y-75628571D01*
X95051666Y-75676190D01*
X94670714Y-75676190D01*
X95623095Y-75247619D02*
X95670714Y-75200000D01*
X95765952Y-75152380D01*
X96004047Y-75152380D01*
X96099285Y-75200000D01*
X96146904Y-75247619D01*
X96194523Y-75342857D01*
X96194523Y-75438095D01*
X96146904Y-75580952D01*
X95575476Y-76152380D01*
X96194523Y-76152380D01*
X97051666Y-75152380D02*
X96861190Y-75152380D01*
X96765952Y-75200000D01*
X96718333Y-75247619D01*
X96623095Y-75390476D01*
X96575476Y-75580952D01*
X96575476Y-75961904D01*
X96623095Y-76057142D01*
X96670714Y-76104761D01*
X96765952Y-76152380D01*
X96956428Y-76152380D01*
X97051666Y-76104761D01*
X97099285Y-76057142D01*
X97146904Y-75961904D01*
X97146904Y-75723809D01*
X97099285Y-75628571D01*
X97051666Y-75580952D01*
X96956428Y-75533333D01*
X96765952Y-75533333D01*
X96670714Y-75580952D01*
X96623095Y-75628571D01*
X96575476Y-75723809D01*
G04 #@! TO.C,R25*
X91114642Y-78544880D02*
X90781309Y-78068690D01*
X90543214Y-78544880D02*
X90543214Y-77544880D01*
X90924166Y-77544880D01*
X91019404Y-77592500D01*
X91067023Y-77640119D01*
X91114642Y-77735357D01*
X91114642Y-77878214D01*
X91067023Y-77973452D01*
X91019404Y-78021071D01*
X90924166Y-78068690D01*
X90543214Y-78068690D01*
X91495595Y-77640119D02*
X91543214Y-77592500D01*
X91638452Y-77544880D01*
X91876547Y-77544880D01*
X91971785Y-77592500D01*
X92019404Y-77640119D01*
X92067023Y-77735357D01*
X92067023Y-77830595D01*
X92019404Y-77973452D01*
X91447976Y-78544880D01*
X92067023Y-78544880D01*
X92971785Y-77544880D02*
X92495595Y-77544880D01*
X92447976Y-78021071D01*
X92495595Y-77973452D01*
X92590833Y-77925833D01*
X92828928Y-77925833D01*
X92924166Y-77973452D01*
X92971785Y-78021071D01*
X93019404Y-78116309D01*
X93019404Y-78354404D01*
X92971785Y-78449642D01*
X92924166Y-78497261D01*
X92828928Y-78544880D01*
X92590833Y-78544880D01*
X92495595Y-78497261D01*
X92447976Y-78449642D01*
G04 #@! TO.C,R24*
X86987142Y-79327380D02*
X86653809Y-78851190D01*
X86415714Y-79327380D02*
X86415714Y-78327380D01*
X86796666Y-78327380D01*
X86891904Y-78375000D01*
X86939523Y-78422619D01*
X86987142Y-78517857D01*
X86987142Y-78660714D01*
X86939523Y-78755952D01*
X86891904Y-78803571D01*
X86796666Y-78851190D01*
X86415714Y-78851190D01*
X87368095Y-78422619D02*
X87415714Y-78375000D01*
X87510952Y-78327380D01*
X87749047Y-78327380D01*
X87844285Y-78375000D01*
X87891904Y-78422619D01*
X87939523Y-78517857D01*
X87939523Y-78613095D01*
X87891904Y-78755952D01*
X87320476Y-79327380D01*
X87939523Y-79327380D01*
X88796666Y-78660714D02*
X88796666Y-79327380D01*
X88558571Y-78279761D02*
X88320476Y-78994047D01*
X88939523Y-78994047D01*
G04 #@! TO.C,R23*
X80700642Y-78692380D02*
X80367309Y-78216190D01*
X80129214Y-78692380D02*
X80129214Y-77692380D01*
X80510166Y-77692380D01*
X80605404Y-77740000D01*
X80653023Y-77787619D01*
X80700642Y-77882857D01*
X80700642Y-78025714D01*
X80653023Y-78120952D01*
X80605404Y-78168571D01*
X80510166Y-78216190D01*
X80129214Y-78216190D01*
X81081595Y-77787619D02*
X81129214Y-77740000D01*
X81224452Y-77692380D01*
X81462547Y-77692380D01*
X81557785Y-77740000D01*
X81605404Y-77787619D01*
X81653023Y-77882857D01*
X81653023Y-77978095D01*
X81605404Y-78120952D01*
X81033976Y-78692380D01*
X81653023Y-78692380D01*
X81986357Y-77692380D02*
X82605404Y-77692380D01*
X82272071Y-78073333D01*
X82414928Y-78073333D01*
X82510166Y-78120952D01*
X82557785Y-78168571D01*
X82605404Y-78263809D01*
X82605404Y-78501904D01*
X82557785Y-78597142D01*
X82510166Y-78644761D01*
X82414928Y-78692380D01*
X82129214Y-78692380D01*
X82033976Y-78644761D01*
X81986357Y-78597142D01*
G04 #@! TO.C,R22*
X71572380Y-61737857D02*
X71096190Y-62071190D01*
X71572380Y-62309285D02*
X70572380Y-62309285D01*
X70572380Y-61928333D01*
X70620000Y-61833095D01*
X70667619Y-61785476D01*
X70762857Y-61737857D01*
X70905714Y-61737857D01*
X71000952Y-61785476D01*
X71048571Y-61833095D01*
X71096190Y-61928333D01*
X71096190Y-62309285D01*
X70667619Y-61356904D02*
X70620000Y-61309285D01*
X70572380Y-61214047D01*
X70572380Y-60975952D01*
X70620000Y-60880714D01*
X70667619Y-60833095D01*
X70762857Y-60785476D01*
X70858095Y-60785476D01*
X71000952Y-60833095D01*
X71572380Y-61404523D01*
X71572380Y-60785476D01*
X70667619Y-60404523D02*
X70620000Y-60356904D01*
X70572380Y-60261666D01*
X70572380Y-60023571D01*
X70620000Y-59928333D01*
X70667619Y-59880714D01*
X70762857Y-59833095D01*
X70858095Y-59833095D01*
X71000952Y-59880714D01*
X71572380Y-60452142D01*
X71572380Y-59833095D01*
G04 #@! TO.C,R21*
X71572380Y-66817857D02*
X71096190Y-67151190D01*
X71572380Y-67389285D02*
X70572380Y-67389285D01*
X70572380Y-67008333D01*
X70620000Y-66913095D01*
X70667619Y-66865476D01*
X70762857Y-66817857D01*
X70905714Y-66817857D01*
X71000952Y-66865476D01*
X71048571Y-66913095D01*
X71096190Y-67008333D01*
X71096190Y-67389285D01*
X70667619Y-66436904D02*
X70620000Y-66389285D01*
X70572380Y-66294047D01*
X70572380Y-66055952D01*
X70620000Y-65960714D01*
X70667619Y-65913095D01*
X70762857Y-65865476D01*
X70858095Y-65865476D01*
X71000952Y-65913095D01*
X71572380Y-66484523D01*
X71572380Y-65865476D01*
X71572380Y-64913095D02*
X71572380Y-65484523D01*
X71572380Y-65198809D02*
X70572380Y-65198809D01*
X70715238Y-65294047D01*
X70810476Y-65389285D01*
X70858095Y-65484523D01*
G04 #@! TO.C,R18*
X76827142Y-52022380D02*
X76493809Y-51546190D01*
X76255714Y-52022380D02*
X76255714Y-51022380D01*
X76636666Y-51022380D01*
X76731904Y-51070000D01*
X76779523Y-51117619D01*
X76827142Y-51212857D01*
X76827142Y-51355714D01*
X76779523Y-51450952D01*
X76731904Y-51498571D01*
X76636666Y-51546190D01*
X76255714Y-51546190D01*
X77779523Y-52022380D02*
X77208095Y-52022380D01*
X77493809Y-52022380D02*
X77493809Y-51022380D01*
X77398571Y-51165238D01*
X77303333Y-51260476D01*
X77208095Y-51308095D01*
X78350952Y-51450952D02*
X78255714Y-51403333D01*
X78208095Y-51355714D01*
X78160476Y-51260476D01*
X78160476Y-51212857D01*
X78208095Y-51117619D01*
X78255714Y-51070000D01*
X78350952Y-51022380D01*
X78541428Y-51022380D01*
X78636666Y-51070000D01*
X78684285Y-51117619D01*
X78731904Y-51212857D01*
X78731904Y-51260476D01*
X78684285Y-51355714D01*
X78636666Y-51403333D01*
X78541428Y-51450952D01*
X78350952Y-51450952D01*
X78255714Y-51498571D01*
X78208095Y-51546190D01*
X78160476Y-51641428D01*
X78160476Y-51831904D01*
X78208095Y-51927142D01*
X78255714Y-51974761D01*
X78350952Y-52022380D01*
X78541428Y-52022380D01*
X78636666Y-51974761D01*
X78684285Y-51927142D01*
X78731904Y-51831904D01*
X78731904Y-51641428D01*
X78684285Y-51546190D01*
X78636666Y-51498571D01*
X78541428Y-51450952D01*
G04 #@! TO.C,U1*
X113538095Y-97377380D02*
X113538095Y-98186904D01*
X113585714Y-98282142D01*
X113633333Y-98329761D01*
X113728571Y-98377380D01*
X113919047Y-98377380D01*
X114014285Y-98329761D01*
X114061904Y-98282142D01*
X114109523Y-98186904D01*
X114109523Y-97377380D01*
X115109523Y-98377380D02*
X114538095Y-98377380D01*
X114823809Y-98377380D02*
X114823809Y-97377380D01*
X114728571Y-97520238D01*
X114633333Y-97615476D01*
X114538095Y-97663095D01*
G04 #@! TO.C,R10*
X106672142Y-86312380D02*
X106338809Y-85836190D01*
X106100714Y-86312380D02*
X106100714Y-85312380D01*
X106481666Y-85312380D01*
X106576904Y-85360000D01*
X106624523Y-85407619D01*
X106672142Y-85502857D01*
X106672142Y-85645714D01*
X106624523Y-85740952D01*
X106576904Y-85788571D01*
X106481666Y-85836190D01*
X106100714Y-85836190D01*
X107624523Y-86312380D02*
X107053095Y-86312380D01*
X107338809Y-86312380D02*
X107338809Y-85312380D01*
X107243571Y-85455238D01*
X107148333Y-85550476D01*
X107053095Y-85598095D01*
X108243571Y-85312380D02*
X108338809Y-85312380D01*
X108434047Y-85360000D01*
X108481666Y-85407619D01*
X108529285Y-85502857D01*
X108576904Y-85693333D01*
X108576904Y-85931428D01*
X108529285Y-86121904D01*
X108481666Y-86217142D01*
X108434047Y-86264761D01*
X108338809Y-86312380D01*
X108243571Y-86312380D01*
X108148333Y-86264761D01*
X108100714Y-86217142D01*
X108053095Y-86121904D01*
X108005476Y-85931428D01*
X108005476Y-85693333D01*
X108053095Y-85502857D01*
X108100714Y-85407619D01*
X108148333Y-85360000D01*
X108243571Y-85312380D01*
G04 #@! TO.C,C3*
X110212142Y-84121666D02*
X110259761Y-84169285D01*
X110307380Y-84312142D01*
X110307380Y-84407380D01*
X110259761Y-84550238D01*
X110164523Y-84645476D01*
X110069285Y-84693095D01*
X109878809Y-84740714D01*
X109735952Y-84740714D01*
X109545476Y-84693095D01*
X109450238Y-84645476D01*
X109355000Y-84550238D01*
X109307380Y-84407380D01*
X109307380Y-84312142D01*
X109355000Y-84169285D01*
X109402619Y-84121666D01*
X109307380Y-83788333D02*
X109307380Y-83169285D01*
X109688333Y-83502619D01*
X109688333Y-83359761D01*
X109735952Y-83264523D01*
X109783571Y-83216904D01*
X109878809Y-83169285D01*
X110116904Y-83169285D01*
X110212142Y-83216904D01*
X110259761Y-83264523D01*
X110307380Y-83359761D01*
X110307380Y-83645476D01*
X110259761Y-83740714D01*
X110212142Y-83788333D01*
G04 #@! TO.C,J1*
X150121666Y-77327380D02*
X150121666Y-78041666D01*
X150074047Y-78184523D01*
X149978809Y-78279761D01*
X149835952Y-78327380D01*
X149740714Y-78327380D01*
X151121666Y-78327380D02*
X150550238Y-78327380D01*
X150835952Y-78327380D02*
X150835952Y-77327380D01*
X150740714Y-77470238D01*
X150645476Y-77565476D01*
X150550238Y-77613095D01*
G04 #@! TO.C,R8*
X122542380Y-52371666D02*
X122066190Y-52705000D01*
X122542380Y-52943095D02*
X121542380Y-52943095D01*
X121542380Y-52562142D01*
X121590000Y-52466904D01*
X121637619Y-52419285D01*
X121732857Y-52371666D01*
X121875714Y-52371666D01*
X121970952Y-52419285D01*
X122018571Y-52466904D01*
X122066190Y-52562142D01*
X122066190Y-52943095D01*
X121970952Y-51800238D02*
X121923333Y-51895476D01*
X121875714Y-51943095D01*
X121780476Y-51990714D01*
X121732857Y-51990714D01*
X121637619Y-51943095D01*
X121590000Y-51895476D01*
X121542380Y-51800238D01*
X121542380Y-51609761D01*
X121590000Y-51514523D01*
X121637619Y-51466904D01*
X121732857Y-51419285D01*
X121780476Y-51419285D01*
X121875714Y-51466904D01*
X121923333Y-51514523D01*
X121970952Y-51609761D01*
X121970952Y-51800238D01*
X122018571Y-51895476D01*
X122066190Y-51943095D01*
X122161428Y-51990714D01*
X122351904Y-51990714D01*
X122447142Y-51943095D01*
X122494761Y-51895476D01*
X122542380Y-51800238D01*
X122542380Y-51609761D01*
X122494761Y-51514523D01*
X122447142Y-51466904D01*
X122351904Y-51419285D01*
X122161428Y-51419285D01*
X122066190Y-51466904D01*
X122018571Y-51514523D01*
X121970952Y-51609761D01*
G04 #@! TO.C,R7*
X133183333Y-52657380D02*
X132850000Y-52181190D01*
X132611904Y-52657380D02*
X132611904Y-51657380D01*
X132992857Y-51657380D01*
X133088095Y-51705000D01*
X133135714Y-51752619D01*
X133183333Y-51847857D01*
X133183333Y-51990714D01*
X133135714Y-52085952D01*
X133088095Y-52133571D01*
X132992857Y-52181190D01*
X132611904Y-52181190D01*
X133516666Y-51657380D02*
X134183333Y-51657380D01*
X133754761Y-52657380D01*
G04 #@! TO.C,R6*
X127960380Y-61071166D02*
X127484190Y-61404500D01*
X127960380Y-61642595D02*
X126960380Y-61642595D01*
X126960380Y-61261642D01*
X127008000Y-61166404D01*
X127055619Y-61118785D01*
X127150857Y-61071166D01*
X127293714Y-61071166D01*
X127388952Y-61118785D01*
X127436571Y-61166404D01*
X127484190Y-61261642D01*
X127484190Y-61642595D01*
X126960380Y-60214023D02*
X126960380Y-60404500D01*
X127008000Y-60499738D01*
X127055619Y-60547357D01*
X127198476Y-60642595D01*
X127388952Y-60690214D01*
X127769904Y-60690214D01*
X127865142Y-60642595D01*
X127912761Y-60594976D01*
X127960380Y-60499738D01*
X127960380Y-60309261D01*
X127912761Y-60214023D01*
X127865142Y-60166404D01*
X127769904Y-60118785D01*
X127531809Y-60118785D01*
X127436571Y-60166404D01*
X127388952Y-60214023D01*
X127341333Y-60309261D01*
X127341333Y-60499738D01*
X127388952Y-60594976D01*
X127436571Y-60642595D01*
X127531809Y-60690214D01*
G04 #@! TO.C,R3*
X99528333Y-59007380D02*
X99195000Y-58531190D01*
X98956904Y-59007380D02*
X98956904Y-58007380D01*
X99337857Y-58007380D01*
X99433095Y-58055000D01*
X99480714Y-58102619D01*
X99528333Y-58197857D01*
X99528333Y-58340714D01*
X99480714Y-58435952D01*
X99433095Y-58483571D01*
X99337857Y-58531190D01*
X98956904Y-58531190D01*
X99861666Y-58007380D02*
X100480714Y-58007380D01*
X100147380Y-58388333D01*
X100290238Y-58388333D01*
X100385476Y-58435952D01*
X100433095Y-58483571D01*
X100480714Y-58578809D01*
X100480714Y-58816904D01*
X100433095Y-58912142D01*
X100385476Y-58959761D01*
X100290238Y-59007380D01*
X100004523Y-59007380D01*
X99909285Y-58959761D01*
X99861666Y-58912142D01*
G04 #@! TO.C,R2*
X100782380Y-79676666D02*
X100306190Y-80010000D01*
X100782380Y-80248095D02*
X99782380Y-80248095D01*
X99782380Y-79867142D01*
X99830000Y-79771904D01*
X99877619Y-79724285D01*
X99972857Y-79676666D01*
X100115714Y-79676666D01*
X100210952Y-79724285D01*
X100258571Y-79771904D01*
X100306190Y-79867142D01*
X100306190Y-80248095D01*
X99877619Y-79295714D02*
X99830000Y-79248095D01*
X99782380Y-79152857D01*
X99782380Y-78914761D01*
X99830000Y-78819523D01*
X99877619Y-78771904D01*
X99972857Y-78724285D01*
X100068095Y-78724285D01*
X100210952Y-78771904D01*
X100782380Y-79343333D01*
X100782380Y-78724285D01*
G04 #@! TO.C,C2*
X106402142Y-98726666D02*
X106449761Y-98774285D01*
X106497380Y-98917142D01*
X106497380Y-99012380D01*
X106449761Y-99155238D01*
X106354523Y-99250476D01*
X106259285Y-99298095D01*
X106068809Y-99345714D01*
X105925952Y-99345714D01*
X105735476Y-99298095D01*
X105640238Y-99250476D01*
X105545000Y-99155238D01*
X105497380Y-99012380D01*
X105497380Y-98917142D01*
X105545000Y-98774285D01*
X105592619Y-98726666D01*
X105592619Y-98345714D02*
X105545000Y-98298095D01*
X105497380Y-98202857D01*
X105497380Y-97964761D01*
X105545000Y-97869523D01*
X105592619Y-97821904D01*
X105687857Y-97774285D01*
X105783095Y-97774285D01*
X105925952Y-97821904D01*
X106497380Y-98393333D01*
X106497380Y-97774285D01*
G04 #@! TO.C,C1*
X106402142Y-83486666D02*
X106449761Y-83534285D01*
X106497380Y-83677142D01*
X106497380Y-83772380D01*
X106449761Y-83915238D01*
X106354523Y-84010476D01*
X106259285Y-84058095D01*
X106068809Y-84105714D01*
X105925952Y-84105714D01*
X105735476Y-84058095D01*
X105640238Y-84010476D01*
X105545000Y-83915238D01*
X105497380Y-83772380D01*
X105497380Y-83677142D01*
X105545000Y-83534285D01*
X105592619Y-83486666D01*
X106497380Y-82534285D02*
X106497380Y-83105714D01*
X106497380Y-82820000D02*
X105497380Y-82820000D01*
X105640238Y-82915238D01*
X105735476Y-83010476D01*
X105783095Y-83105714D01*
G04 #@! TD*
M02*
