EESchema Schematic File Version 4
EELAYER 30 0
EELAYER END
$Descr A4 11693 8268
encoding utf-8
Sheet 1 1
Title ""
Date ""
Rev ""
Comp ""
Comment1 ""
Comment2 ""
Comment3 ""
Comment4 ""
$EndDescr
$Comp
L Connector_Generic:Conn_01x33 J1
U 1 1 60294D85
P 2950 3800
F 0 "J1" H 2868 5617 50  0000 C CNN
F 1 "PinHeader" H 2868 5526 50  0000 C CNN
F 2 "Connector_PinSocket_2.54mm:PinSocket_1x33_P2.54mm_Vertical" H 2950 3800 50  0001 C CNN
F 3 "~" H 2950 3800 50  0001 C CNN
	1    2950 3800
	-1   0    0    -1  
$EndComp
$Comp
L Connector_Generic:Conn_01x33 J2
U 1 1 60295BB2
P 3800 3800
F 0 "J2" H 3880 3842 50  0000 L CNN
F 1 "ISEP edge33" H 3880 3751 50  0000 L CNN
F 2 "Rack_ISEP:ISEP_edgeP33_PCB" H 3800 3800 50  0001 C CNN
F 3 "~" H 3800 3800 50  0001 C CNN
	1    3800 3800
	1    0    0    -1  
$EndComp
Wire Wire Line
	3150 2200 3600 2200
Wire Wire Line
	3150 2300 3600 2300
Wire Wire Line
	3150 2400 3600 2400
Wire Wire Line
	3150 2500 3600 2500
Wire Wire Line
	3150 2600 3600 2600
Wire Wire Line
	3150 2700 3600 2700
Wire Wire Line
	3150 2800 3600 2800
Wire Wire Line
	3150 2900 3600 2900
Wire Wire Line
	3150 3000 3600 3000
Wire Wire Line
	3150 3100 3600 3100
Wire Wire Line
	3150 3200 3600 3200
Wire Wire Line
	3150 3300 3600 3300
Wire Wire Line
	3150 3400 3600 3400
Wire Wire Line
	3150 3500 3600 3500
Wire Wire Line
	3150 3600 3600 3600
Wire Wire Line
	3150 3700 3600 3700
Wire Wire Line
	3150 3900 3600 3900
Wire Wire Line
	3150 4000 3400 4000
Wire Wire Line
	3150 4100 3600 4100
Wire Wire Line
	3150 4200 3600 4200
Wire Wire Line
	3150 4300 3600 4300
Wire Wire Line
	3150 4400 3600 4400
Wire Wire Line
	3150 4500 3600 4500
Wire Wire Line
	3150 4600 3600 4600
Wire Wire Line
	3150 4700 3600 4700
Wire Wire Line
	3150 4800 3600 4800
Wire Wire Line
	3150 4900 3600 4900
Wire Wire Line
	3150 5000 3600 5000
Wire Wire Line
	3150 5100 3600 5100
Wire Wire Line
	3150 5200 3600 5200
Wire Wire Line
	3150 5300 3600 5300
Wire Wire Line
	3150 5400 3600 5400
Wire Wire Line
	3150 3800 3600 3800
Wire Wire Line
	3400 4000 3400 5650
Connection ~ 3400 4000
Wire Wire Line
	3400 4000 3600 4000
$Comp
L power:GND #PWR01
U 1 1 6029A642
P 3400 5650
F 0 "#PWR01" H 3400 5400 50  0001 C CNN
F 1 "GND" H 3405 5477 50  0000 C CNN
F 2 "" H 3400 5650 50  0001 C CNN
F 3 "" H 3400 5650 50  0001 C CNN
	1    3400 5650
	1    0    0    -1  
$EndComp
$Comp
L Mechanical:MountingHole_Pad H2
U 1 1 6029CD9A
P 6050 6850
F 0 "H2" V 6004 7000 50  0000 L CNN
F 1 "MountingHole_Pad" V 6095 7000 50  0000 L CNN
F 2 "MountingHole:MountingHole_2.5mm_Pad" H 6050 6850 50  0001 C CNN
F 3 "~" H 6050 6850 50  0001 C CNN
	1    6050 6850
	0    1    1    0   
$EndComp
$Comp
L Mechanical:MountingHole_Pad H1
U 1 1 6029D229
P 6050 6650
F 0 "H1" V 6004 6800 50  0000 L CNN
F 1 "MountingHole_Pad" V 6095 6800 50  0000 L CNN
F 2 "MountingHole:MountingHole_2.5mm_Pad" H 6050 6650 50  0001 C CNN
F 3 "~" H 6050 6650 50  0001 C CNN
	1    6050 6650
	0    1    1    0   
$EndComp
$Comp
L power:GND #PWR02
U 1 1 6029EF2E
P 5850 7150
F 0 "#PWR02" H 5850 6900 50  0001 C CNN
F 1 "GND" H 5855 6977 50  0000 C CNN
F 2 "" H 5850 7150 50  0001 C CNN
F 3 "" H 5850 7150 50  0001 C CNN
	1    5850 7150
	1    0    0    -1  
$EndComp
Wire Wire Line
	5850 6650 5950 6650
Wire Wire Line
	5850 6850 5950 6850
Connection ~ 5850 6850
Wire Wire Line
	5850 6850 5850 7150
Wire Wire Line
	5850 6650 5850 6850
$EndSCHEMATC
