G04 #@! TF.GenerationSoftware,KiCad,Pcbnew,5.1.9+dfsg1-1*
G04 #@! TF.CreationDate,2021-03-03T10:45:34+01:00*
G04 #@! TF.ProjectId,45008,34353030-382e-46b6-9963-61645f706362,rev?*
G04 #@! TF.SameCoordinates,Original*
G04 #@! TF.FileFunction,Legend,Top*
G04 #@! TF.FilePolarity,Positive*
%FSLAX46Y46*%
G04 Gerber Fmt 4.6, Leading zero omitted, Abs format (unit mm)*
G04 Created by KiCad (PCBNEW 5.1.9+dfsg1-1) date 2021-03-03 10:45:34*
%MOMM*%
%LPD*%
G01*
G04 APERTURE LIST*
%ADD10C,0.200000*%
%ADD11C,0.120000*%
%ADD12C,0.150000*%
%ADD13C,0.250000*%
G04 APERTURE END LIST*
D10*
G04 #@! TO.C,SW1*
X29000000Y-127000000D02*
X48850000Y-127000000D01*
X29000000Y-121000000D02*
X29000000Y-127000000D01*
X48850000Y-121000000D02*
X29000000Y-121000000D01*
X62000000Y-130000000D02*
X48850000Y-130000000D01*
X62000000Y-118000000D02*
X48850000Y-118000000D01*
X62000000Y-118000000D02*
X62000000Y-130000000D01*
X48850000Y-118000000D02*
X48850000Y-122850000D01*
X48850000Y-122850000D02*
X48350000Y-122850000D01*
X48350000Y-122850000D02*
X48350000Y-125150000D01*
X48350000Y-125150000D02*
X48850000Y-125150000D01*
X48850000Y-125150000D02*
X48850000Y-130000000D01*
D11*
G04 #@! TO.C,R16*
X154540000Y-89600000D02*
X154540000Y-88830000D01*
X154540000Y-81520000D02*
X154540000Y-82290000D01*
X155910000Y-88830000D02*
X155910000Y-82290000D01*
X153170000Y-88830000D02*
X155910000Y-88830000D01*
X153170000Y-82290000D02*
X153170000Y-88830000D01*
X155910000Y-82290000D02*
X153170000Y-82290000D01*
G04 #@! TO.C,R15*
X157715000Y-81520000D02*
X157715000Y-82290000D01*
X157715000Y-89600000D02*
X157715000Y-88830000D01*
X156345000Y-82290000D02*
X156345000Y-88830000D01*
X159085000Y-82290000D02*
X156345000Y-82290000D01*
X159085000Y-88830000D02*
X159085000Y-82290000D01*
X156345000Y-88830000D02*
X159085000Y-88830000D01*
G04 #@! TO.C,R14*
X160890000Y-89600000D02*
X160890000Y-88830000D01*
X160890000Y-81520000D02*
X160890000Y-82290000D01*
X162260000Y-88830000D02*
X162260000Y-82290000D01*
X159520000Y-88830000D02*
X162260000Y-88830000D01*
X159520000Y-82290000D02*
X159520000Y-88830000D01*
X162260000Y-82290000D02*
X159520000Y-82290000D01*
G04 #@! TO.C,R13*
X164065000Y-81520000D02*
X164065000Y-82290000D01*
X164065000Y-89600000D02*
X164065000Y-88830000D01*
X162695000Y-82290000D02*
X162695000Y-88830000D01*
X165435000Y-82290000D02*
X162695000Y-82290000D01*
X165435000Y-88830000D02*
X165435000Y-82290000D01*
X162695000Y-88830000D02*
X165435000Y-88830000D01*
G04 #@! TO.C,R1*
X76665000Y-126500000D02*
X75895000Y-126500000D01*
X68585000Y-126500000D02*
X69355000Y-126500000D01*
X75895000Y-125130000D02*
X69355000Y-125130000D01*
X75895000Y-127870000D02*
X75895000Y-125130000D01*
X69355000Y-127870000D02*
X75895000Y-127870000D01*
X69355000Y-125130000D02*
X69355000Y-127870000D01*
G04 #@! TO.C,K4*
X143210000Y-144310000D02*
X141490000Y-144310000D01*
X141490000Y-144310000D02*
X141490000Y-142810000D01*
X162260000Y-144060000D02*
X141740000Y-144060000D01*
X141740000Y-144060000D02*
X141740000Y-133740000D01*
X141740000Y-133740000D02*
X162260000Y-133740000D01*
X162260000Y-133740000D02*
X162260000Y-144060000D01*
X143110000Y-139310000D02*
X143110000Y-140410000D01*
X143110000Y-138610000D02*
X143110000Y-137510000D01*
X143310000Y-139310000D02*
X142910000Y-138610000D01*
X142510000Y-139310000D02*
X143710000Y-139310000D01*
X143710000Y-139310000D02*
X143710000Y-138610000D01*
X143710000Y-138610000D02*
X142510000Y-138610000D01*
X142510000Y-138610000D02*
X142510000Y-139310000D01*
G04 #@! TO.C,K3*
X142510000Y-99240000D02*
X142510000Y-99940000D01*
X143710000Y-99240000D02*
X142510000Y-99240000D01*
X143710000Y-99940000D02*
X143710000Y-99240000D01*
X142510000Y-99940000D02*
X143710000Y-99940000D01*
X143310000Y-99940000D02*
X142910000Y-99240000D01*
X143110000Y-99240000D02*
X143110000Y-98140000D01*
X143110000Y-99940000D02*
X143110000Y-101040000D01*
X162260000Y-94370000D02*
X162260000Y-104690000D01*
X141740000Y-94370000D02*
X162260000Y-94370000D01*
X141740000Y-104690000D02*
X141740000Y-94370000D01*
X162260000Y-104690000D02*
X141740000Y-104690000D01*
X141490000Y-104940000D02*
X141490000Y-103440000D01*
X143210000Y-104940000D02*
X141490000Y-104940000D01*
G04 #@! TO.C,K2*
X143210000Y-133515000D02*
X141490000Y-133515000D01*
X141490000Y-133515000D02*
X141490000Y-132015000D01*
X162260000Y-133265000D02*
X141740000Y-133265000D01*
X141740000Y-133265000D02*
X141740000Y-122945000D01*
X141740000Y-122945000D02*
X162260000Y-122945000D01*
X162260000Y-122945000D02*
X162260000Y-133265000D01*
X143110000Y-128515000D02*
X143110000Y-129615000D01*
X143110000Y-127815000D02*
X143110000Y-126715000D01*
X143310000Y-128515000D02*
X142910000Y-127815000D01*
X142510000Y-128515000D02*
X143710000Y-128515000D01*
X143710000Y-128515000D02*
X143710000Y-127815000D01*
X143710000Y-127815000D02*
X142510000Y-127815000D01*
X142510000Y-127815000D02*
X142510000Y-128515000D01*
G04 #@! TO.C,D2*
X141405000Y-130610000D02*
X138465000Y-130610000D01*
X141405000Y-130850000D02*
X138465000Y-130850000D01*
X141405000Y-130730000D02*
X138465000Y-130730000D01*
X139935000Y-136290000D02*
X139935000Y-135270000D01*
X139935000Y-128810000D02*
X139935000Y-129830000D01*
X141405000Y-135270000D02*
X141405000Y-129830000D01*
X138465000Y-135270000D02*
X141405000Y-135270000D01*
X138465000Y-129830000D02*
X138465000Y-135270000D01*
X141405000Y-129830000D02*
X138465000Y-129830000D01*
G04 #@! TO.C,U2*
X132375000Y-89640000D02*
X132375000Y-87990000D01*
X132375000Y-87990000D02*
X122095000Y-87990000D01*
X122095000Y-87990000D02*
X122095000Y-93290000D01*
X122095000Y-93290000D02*
X132375000Y-93290000D01*
X132375000Y-93290000D02*
X132375000Y-91640000D01*
X132435000Y-85500000D02*
X122035000Y-85500000D01*
X122035000Y-85500000D02*
X122035000Y-95780000D01*
X122035000Y-95780000D02*
X132435000Y-95780000D01*
X132435000Y-95780000D02*
X132435000Y-85500000D01*
X132375000Y-91640000D02*
G75*
G02*
X132375000Y-89640000I0J1000000D01*
G01*
G04 #@! TO.C,U1*
X112750000Y-81790000D02*
X112750000Y-71550000D01*
X96860000Y-81790000D02*
X96860000Y-71550000D01*
X96860000Y-81790000D02*
X112750000Y-81790000D01*
X96860000Y-71550000D02*
X112750000Y-71550000D01*
X112750000Y-79210000D02*
X115290000Y-79210000D01*
X112750000Y-76670000D02*
X115290000Y-76670000D01*
X112750000Y-74130000D02*
X115290000Y-74130000D01*
G04 #@! TO.C,T1*
X129835000Y-101070000D02*
X129835000Y-99420000D01*
X129835000Y-99420000D02*
X122095000Y-99420000D01*
X122095000Y-99420000D02*
X122095000Y-104720000D01*
X122095000Y-104720000D02*
X129835000Y-104720000D01*
X129835000Y-104720000D02*
X129835000Y-103070000D01*
X129895000Y-96930000D02*
X122035000Y-96930000D01*
X122035000Y-96930000D02*
X122035000Y-107210000D01*
X122035000Y-107210000D02*
X129895000Y-107210000D01*
X129895000Y-107210000D02*
X129895000Y-96930000D01*
X129835000Y-103070000D02*
G75*
G02*
X129835000Y-101070000I0J1000000D01*
G01*
G04 #@! TO.C,R8*
X139935000Y-86600000D02*
X139935000Y-87370000D01*
X139935000Y-94680000D02*
X139935000Y-93910000D01*
X138565000Y-87370000D02*
X138565000Y-93910000D01*
X141305000Y-87370000D02*
X138565000Y-87370000D01*
X141305000Y-93910000D02*
X141305000Y-87370000D01*
X138565000Y-93910000D02*
X141305000Y-93910000D01*
G04 #@! TO.C,R7*
X113900000Y-96760000D02*
X113900000Y-97530000D01*
X113900000Y-104840000D02*
X113900000Y-104070000D01*
X112530000Y-97530000D02*
X112530000Y-104070000D01*
X115270000Y-97530000D02*
X112530000Y-97530000D01*
X115270000Y-104070000D02*
X115270000Y-97530000D01*
X112530000Y-104070000D02*
X115270000Y-104070000D01*
G04 #@! TO.C,R6*
X121750000Y-83655000D02*
X120980000Y-83655000D01*
X113670000Y-83655000D02*
X114440000Y-83655000D01*
X120980000Y-82285000D02*
X114440000Y-82285000D01*
X120980000Y-85025000D02*
X120980000Y-82285000D01*
X114440000Y-85025000D02*
X120980000Y-85025000D01*
X114440000Y-82285000D02*
X114440000Y-85025000D01*
G04 #@! TO.C,R5*
X125965000Y-74535000D02*
X125965000Y-75305000D01*
X125965000Y-82615000D02*
X125965000Y-81845000D01*
X124595000Y-75305000D02*
X124595000Y-81845000D01*
X127335000Y-75305000D02*
X124595000Y-75305000D01*
X127335000Y-81845000D02*
X127335000Y-75305000D01*
X124595000Y-81845000D02*
X127335000Y-81845000D01*
G04 #@! TO.C,R4*
X129140000Y-74535000D02*
X129140000Y-75305000D01*
X129140000Y-82615000D02*
X129140000Y-81845000D01*
X127770000Y-75305000D02*
X127770000Y-81845000D01*
X130510000Y-75305000D02*
X127770000Y-75305000D01*
X130510000Y-81845000D02*
X130510000Y-75305000D01*
X127770000Y-81845000D02*
X130510000Y-81845000D01*
G04 #@! TO.C,R3*
X154945000Y-59525000D02*
X155715000Y-59525000D01*
X163025000Y-59525000D02*
X162255000Y-59525000D01*
X155715000Y-60895000D02*
X162255000Y-60895000D01*
X155715000Y-58155000D02*
X155715000Y-60895000D01*
X162255000Y-58155000D02*
X155715000Y-58155000D01*
X162255000Y-60895000D02*
X162255000Y-58155000D01*
G04 #@! TO.C,R12*
X151770000Y-76035000D02*
X152540000Y-76035000D01*
X159850000Y-76035000D02*
X159080000Y-76035000D01*
X152540000Y-77405000D02*
X159080000Y-77405000D01*
X152540000Y-74665000D02*
X152540000Y-77405000D01*
X159080000Y-74665000D02*
X152540000Y-74665000D01*
X159080000Y-77405000D02*
X159080000Y-74665000D01*
G04 #@! TO.C,R11*
X164065000Y-74995000D02*
X164065000Y-74225000D01*
X164065000Y-66915000D02*
X164065000Y-67685000D01*
X165435000Y-74225000D02*
X165435000Y-67685000D01*
X162695000Y-74225000D02*
X165435000Y-74225000D01*
X162695000Y-67685000D02*
X162695000Y-74225000D01*
X165435000Y-67685000D02*
X162695000Y-67685000D01*
G04 #@! TO.C,R10*
X147555000Y-74995000D02*
X147555000Y-74225000D01*
X147555000Y-66915000D02*
X147555000Y-67685000D01*
X148925000Y-74225000D02*
X148925000Y-67685000D01*
X146185000Y-74225000D02*
X148925000Y-74225000D01*
X146185000Y-67685000D02*
X146185000Y-74225000D01*
X148925000Y-67685000D02*
X146185000Y-67685000D01*
G04 #@! TO.C,R9*
X154945000Y-62700000D02*
X155715000Y-62700000D01*
X163025000Y-62700000D02*
X162255000Y-62700000D01*
X155715000Y-64070000D02*
X162255000Y-64070000D01*
X155715000Y-61330000D02*
X155715000Y-64070000D01*
X162255000Y-61330000D02*
X155715000Y-61330000D01*
X162255000Y-64070000D02*
X162255000Y-61330000D01*
G04 #@! TO.C,R2*
X97620000Y-98260000D02*
X96850000Y-98260000D01*
X89540000Y-98260000D02*
X90310000Y-98260000D01*
X96850000Y-96890000D02*
X90310000Y-96890000D01*
X96850000Y-99630000D02*
X96850000Y-96890000D01*
X90310000Y-99630000D02*
X96850000Y-99630000D01*
X90310000Y-96890000D02*
X90310000Y-99630000D01*
G04 #@! TO.C,K1*
X132350000Y-117020000D02*
X132350000Y-117720000D01*
X133550000Y-117020000D02*
X132350000Y-117020000D01*
X133550000Y-117720000D02*
X133550000Y-117020000D01*
X132350000Y-117720000D02*
X133550000Y-117720000D01*
X133150000Y-117720000D02*
X132750000Y-117020000D01*
X132950000Y-117020000D02*
X132950000Y-115920000D01*
X132950000Y-117720000D02*
X132950000Y-118820000D01*
X152100000Y-112150000D02*
X152100000Y-122470000D01*
X131580000Y-112150000D02*
X152100000Y-112150000D01*
X131580000Y-122470000D02*
X131580000Y-112150000D01*
X152100000Y-122470000D02*
X131580000Y-122470000D01*
X131330000Y-122720000D02*
X131330000Y-121220000D01*
X133050000Y-122720000D02*
X131330000Y-122720000D01*
G04 #@! TO.C,D1*
X115445000Y-88715000D02*
X112355000Y-88715000D01*
X116400000Y-91275000D02*
G75*
G03*
X116400000Y-91275000I-2500000J0D01*
G01*
X113900462Y-94265000D02*
G75*
G02*
X112355170Y-88715000I-462J2990000D01*
G01*
X113899538Y-94265000D02*
G75*
G03*
X115444830Y-88715000I462J2990000D01*
G01*
D10*
G04 #@! TO.C,C6*
X119345000Y-103300000D02*
X120345000Y-103300000D01*
X119845000Y-103800000D02*
X119845000Y-102800000D01*
X116345000Y-103300000D02*
X117345000Y-103300000D01*
X116845000Y-103800000D02*
X116845000Y-102800000D01*
X119795000Y-104400000D02*
X120795000Y-103400000D01*
X115895000Y-103400000D02*
X116895000Y-104400000D01*
X120795000Y-97200000D02*
X120795000Y-103400000D01*
X115895000Y-103400000D02*
X115895000Y-97200000D01*
X116895000Y-104400000D02*
X119795000Y-104400000D01*
X115895000Y-97200000D02*
X120795000Y-97200000D01*
D11*
G04 #@! TO.C,C5*
X144165000Y-87345000D02*
X144480000Y-87345000D01*
X141740000Y-87345000D02*
X142055000Y-87345000D01*
X144165000Y-92585000D02*
X144480000Y-92585000D01*
X141740000Y-92585000D02*
X142055000Y-92585000D01*
X144480000Y-92585000D02*
X144480000Y-87345000D01*
X141740000Y-92585000D02*
X141740000Y-87345000D01*
G04 #@! TO.C,C4*
X123255000Y-81620000D02*
X118515000Y-81620000D01*
X123255000Y-74180000D02*
X118515000Y-74180000D01*
X118515000Y-74180000D02*
X118515000Y-81620000D01*
X123255000Y-74180000D02*
X123255000Y-81620000D01*
G04 #@! TO.C,C3*
X153440000Y-65370000D02*
X158180000Y-65370000D01*
X153440000Y-72810000D02*
X158180000Y-72810000D01*
X158180000Y-72810000D02*
X158180000Y-65370000D01*
X153440000Y-72810000D02*
X153440000Y-65370000D01*
G04 #@! TO.C,C2*
X133120000Y-86960000D02*
X137860000Y-86960000D01*
X133120000Y-94400000D02*
X137860000Y-94400000D01*
X137860000Y-94400000D02*
X137860000Y-86960000D01*
X133120000Y-94400000D02*
X133120000Y-86960000D01*
G04 #@! TO.C,C1*
X102485000Y-65875000D02*
X103425000Y-65875000D01*
X129605000Y-65875000D02*
X128665000Y-65875000D01*
X125065000Y-60755000D02*
X103425000Y-60755000D01*
X125965000Y-61655000D02*
X125065000Y-60755000D01*
X126865000Y-60755000D02*
X125965000Y-61655000D01*
X128665000Y-60755000D02*
X126865000Y-60755000D01*
X125065000Y-70995000D02*
X103425000Y-70995000D01*
X125965000Y-70095000D02*
X125065000Y-70995000D01*
X126865000Y-70995000D02*
X125965000Y-70095000D01*
X128665000Y-70995000D02*
X126865000Y-70995000D01*
X103425000Y-70995000D02*
X103425000Y-60755000D01*
X128665000Y-70995000D02*
X128665000Y-60755000D01*
X129865000Y-69375000D02*
X129865000Y-67575000D01*
X130765000Y-68475000D02*
X128965000Y-68475000D01*
G04 #@! TO.C,P1*
X174285000Y-57560000D02*
X171625000Y-57560000D01*
X174285000Y-138900000D02*
X174285000Y-57560000D01*
X171625000Y-138900000D02*
X171625000Y-57560000D01*
X174285000Y-138900000D02*
X171625000Y-138900000D01*
X174285000Y-140170000D02*
X174285000Y-141500000D01*
X174285000Y-141500000D02*
X172955000Y-141500000D01*
G04 #@! TO.C,SW1*
D12*
X63904761Y-125333333D02*
X63952380Y-125190476D01*
X63952380Y-124952380D01*
X63904761Y-124857142D01*
X63857142Y-124809523D01*
X63761904Y-124761904D01*
X63666666Y-124761904D01*
X63571428Y-124809523D01*
X63523809Y-124857142D01*
X63476190Y-124952380D01*
X63428571Y-125142857D01*
X63380952Y-125238095D01*
X63333333Y-125285714D01*
X63238095Y-125333333D01*
X63142857Y-125333333D01*
X63047619Y-125285714D01*
X63000000Y-125238095D01*
X62952380Y-125142857D01*
X62952380Y-124904761D01*
X63000000Y-124761904D01*
X62952380Y-124428571D02*
X63952380Y-124190476D01*
X63238095Y-124000000D01*
X63952380Y-123809523D01*
X62952380Y-123571428D01*
X63952380Y-122666666D02*
X63952380Y-123238095D01*
X63952380Y-122952380D02*
X62952380Y-122952380D01*
X63095238Y-123047619D01*
X63190476Y-123142857D01*
X63238095Y-123238095D01*
G04 #@! TO.C,R16*
X153897142Y-92997380D02*
X153563809Y-92521190D01*
X153325714Y-92997380D02*
X153325714Y-91997380D01*
X153706666Y-91997380D01*
X153801904Y-92045000D01*
X153849523Y-92092619D01*
X153897142Y-92187857D01*
X153897142Y-92330714D01*
X153849523Y-92425952D01*
X153801904Y-92473571D01*
X153706666Y-92521190D01*
X153325714Y-92521190D01*
X154849523Y-92997380D02*
X154278095Y-92997380D01*
X154563809Y-92997380D02*
X154563809Y-91997380D01*
X154468571Y-92140238D01*
X154373333Y-92235476D01*
X154278095Y-92283095D01*
X155706666Y-91997380D02*
X155516190Y-91997380D01*
X155420952Y-92045000D01*
X155373333Y-92092619D01*
X155278095Y-92235476D01*
X155230476Y-92425952D01*
X155230476Y-92806904D01*
X155278095Y-92902142D01*
X155325714Y-92949761D01*
X155420952Y-92997380D01*
X155611428Y-92997380D01*
X155706666Y-92949761D01*
X155754285Y-92902142D01*
X155801904Y-92806904D01*
X155801904Y-92568809D01*
X155754285Y-92473571D01*
X155706666Y-92425952D01*
X155611428Y-92378333D01*
X155420952Y-92378333D01*
X155325714Y-92425952D01*
X155278095Y-92473571D01*
X155230476Y-92568809D01*
G04 #@! TO.C,R15*
X157072142Y-92997380D02*
X156738809Y-92521190D01*
X156500714Y-92997380D02*
X156500714Y-91997380D01*
X156881666Y-91997380D01*
X156976904Y-92045000D01*
X157024523Y-92092619D01*
X157072142Y-92187857D01*
X157072142Y-92330714D01*
X157024523Y-92425952D01*
X156976904Y-92473571D01*
X156881666Y-92521190D01*
X156500714Y-92521190D01*
X158024523Y-92997380D02*
X157453095Y-92997380D01*
X157738809Y-92997380D02*
X157738809Y-91997380D01*
X157643571Y-92140238D01*
X157548333Y-92235476D01*
X157453095Y-92283095D01*
X158929285Y-91997380D02*
X158453095Y-91997380D01*
X158405476Y-92473571D01*
X158453095Y-92425952D01*
X158548333Y-92378333D01*
X158786428Y-92378333D01*
X158881666Y-92425952D01*
X158929285Y-92473571D01*
X158976904Y-92568809D01*
X158976904Y-92806904D01*
X158929285Y-92902142D01*
X158881666Y-92949761D01*
X158786428Y-92997380D01*
X158548333Y-92997380D01*
X158453095Y-92949761D01*
X158405476Y-92902142D01*
G04 #@! TO.C,R14*
X160247142Y-92997380D02*
X159913809Y-92521190D01*
X159675714Y-92997380D02*
X159675714Y-91997380D01*
X160056666Y-91997380D01*
X160151904Y-92045000D01*
X160199523Y-92092619D01*
X160247142Y-92187857D01*
X160247142Y-92330714D01*
X160199523Y-92425952D01*
X160151904Y-92473571D01*
X160056666Y-92521190D01*
X159675714Y-92521190D01*
X161199523Y-92997380D02*
X160628095Y-92997380D01*
X160913809Y-92997380D02*
X160913809Y-91997380D01*
X160818571Y-92140238D01*
X160723333Y-92235476D01*
X160628095Y-92283095D01*
X162056666Y-92330714D02*
X162056666Y-92997380D01*
X161818571Y-91949761D02*
X161580476Y-92664047D01*
X162199523Y-92664047D01*
G04 #@! TO.C,R13*
X163422142Y-92997380D02*
X163088809Y-92521190D01*
X162850714Y-92997380D02*
X162850714Y-91997380D01*
X163231666Y-91997380D01*
X163326904Y-92045000D01*
X163374523Y-92092619D01*
X163422142Y-92187857D01*
X163422142Y-92330714D01*
X163374523Y-92425952D01*
X163326904Y-92473571D01*
X163231666Y-92521190D01*
X162850714Y-92521190D01*
X164374523Y-92997380D02*
X163803095Y-92997380D01*
X164088809Y-92997380D02*
X164088809Y-91997380D01*
X163993571Y-92140238D01*
X163898333Y-92235476D01*
X163803095Y-92283095D01*
X164707857Y-91997380D02*
X165326904Y-91997380D01*
X164993571Y-92378333D01*
X165136428Y-92378333D01*
X165231666Y-92425952D01*
X165279285Y-92473571D01*
X165326904Y-92568809D01*
X165326904Y-92806904D01*
X165279285Y-92902142D01*
X165231666Y-92949761D01*
X165136428Y-92997380D01*
X164850714Y-92997380D01*
X164755476Y-92949761D01*
X164707857Y-92902142D01*
G04 #@! TO.C,R1*
X72458333Y-124582380D02*
X72125000Y-124106190D01*
X71886904Y-124582380D02*
X71886904Y-123582380D01*
X72267857Y-123582380D01*
X72363095Y-123630000D01*
X72410714Y-123677619D01*
X72458333Y-123772857D01*
X72458333Y-123915714D01*
X72410714Y-124010952D01*
X72363095Y-124058571D01*
X72267857Y-124106190D01*
X71886904Y-124106190D01*
X73410714Y-124582380D02*
X72839285Y-124582380D01*
X73125000Y-124582380D02*
X73125000Y-123582380D01*
X73029761Y-123725238D01*
X72934523Y-123820476D01*
X72839285Y-123868095D01*
G04 #@! TO.C,K4*
X141022380Y-143448095D02*
X140022380Y-143448095D01*
X141022380Y-142876666D02*
X140450952Y-143305238D01*
X140022380Y-142876666D02*
X140593809Y-143448095D01*
X140355714Y-142019523D02*
X141022380Y-142019523D01*
X139974761Y-142257619D02*
X140689047Y-142495714D01*
X140689047Y-141876666D01*
G04 #@! TO.C,K3*
X149991904Y-93892380D02*
X149991904Y-92892380D01*
X150563333Y-93892380D02*
X150134761Y-93320952D01*
X150563333Y-92892380D02*
X149991904Y-93463809D01*
X150896666Y-92892380D02*
X151515714Y-92892380D01*
X151182380Y-93273333D01*
X151325238Y-93273333D01*
X151420476Y-93320952D01*
X151468095Y-93368571D01*
X151515714Y-93463809D01*
X151515714Y-93701904D01*
X151468095Y-93797142D01*
X151420476Y-93844761D01*
X151325238Y-93892380D01*
X151039523Y-93892380D01*
X150944285Y-93844761D01*
X150896666Y-93797142D01*
G04 #@! TO.C,K2*
X141022380Y-125033095D02*
X140022380Y-125033095D01*
X141022380Y-124461666D02*
X140450952Y-124890238D01*
X140022380Y-124461666D02*
X140593809Y-125033095D01*
X140117619Y-124080714D02*
X140070000Y-124033095D01*
X140022380Y-123937857D01*
X140022380Y-123699761D01*
X140070000Y-123604523D01*
X140117619Y-123556904D01*
X140212857Y-123509285D01*
X140308095Y-123509285D01*
X140450952Y-123556904D01*
X141022380Y-124128333D01*
X141022380Y-123509285D01*
G04 #@! TO.C,D2*
X142857380Y-133288095D02*
X141857380Y-133288095D01*
X141857380Y-133050000D01*
X141905000Y-132907142D01*
X142000238Y-132811904D01*
X142095476Y-132764285D01*
X142285952Y-132716666D01*
X142428809Y-132716666D01*
X142619285Y-132764285D01*
X142714523Y-132811904D01*
X142809761Y-132907142D01*
X142857380Y-133050000D01*
X142857380Y-133288095D01*
X141952619Y-132335714D02*
X141905000Y-132288095D01*
X141857380Y-132192857D01*
X141857380Y-131954761D01*
X141905000Y-131859523D01*
X141952619Y-131811904D01*
X142047857Y-131764285D01*
X142143095Y-131764285D01*
X142285952Y-131811904D01*
X142857380Y-132383333D01*
X142857380Y-131764285D01*
X138482380Y-127731904D02*
X137482380Y-127731904D01*
X138482380Y-127160476D02*
X137910952Y-127589047D01*
X137482380Y-127160476D02*
X138053809Y-127731904D01*
G04 #@! TO.C,U2*
X120337380Y-91401904D02*
X121146904Y-91401904D01*
X121242142Y-91354285D01*
X121289761Y-91306666D01*
X121337380Y-91211428D01*
X121337380Y-91020952D01*
X121289761Y-90925714D01*
X121242142Y-90878095D01*
X121146904Y-90830476D01*
X120337380Y-90830476D01*
X120432619Y-90401904D02*
X120385000Y-90354285D01*
X120337380Y-90259047D01*
X120337380Y-90020952D01*
X120385000Y-89925714D01*
X120432619Y-89878095D01*
X120527857Y-89830476D01*
X120623095Y-89830476D01*
X120765952Y-89878095D01*
X121337380Y-90449523D01*
X121337380Y-89830476D01*
G04 #@! TO.C,U1*
X102343095Y-82472380D02*
X102343095Y-83281904D01*
X102390714Y-83377142D01*
X102438333Y-83424761D01*
X102533571Y-83472380D01*
X102724047Y-83472380D01*
X102819285Y-83424761D01*
X102866904Y-83377142D01*
X102914523Y-83281904D01*
X102914523Y-82472380D01*
X103914523Y-83472380D02*
X103343095Y-83472380D01*
X103628809Y-83472380D02*
X103628809Y-82472380D01*
X103533571Y-82615238D01*
X103438333Y-82710476D01*
X103343095Y-82758095D01*
G04 #@! TO.C,T1*
X130287380Y-102831904D02*
X130287380Y-102260476D01*
X131287380Y-102546190D02*
X130287380Y-102546190D01*
X131287380Y-101403333D02*
X131287380Y-101974761D01*
X131287380Y-101689047D02*
X130287380Y-101689047D01*
X130430238Y-101784285D01*
X130525476Y-101879523D01*
X130573095Y-101974761D01*
G04 #@! TO.C,R8*
X139768333Y-84107380D02*
X139435000Y-83631190D01*
X139196904Y-84107380D02*
X139196904Y-83107380D01*
X139577857Y-83107380D01*
X139673095Y-83155000D01*
X139720714Y-83202619D01*
X139768333Y-83297857D01*
X139768333Y-83440714D01*
X139720714Y-83535952D01*
X139673095Y-83583571D01*
X139577857Y-83631190D01*
X139196904Y-83631190D01*
X140339761Y-83535952D02*
X140244523Y-83488333D01*
X140196904Y-83440714D01*
X140149285Y-83345476D01*
X140149285Y-83297857D01*
X140196904Y-83202619D01*
X140244523Y-83155000D01*
X140339761Y-83107380D01*
X140530238Y-83107380D01*
X140625476Y-83155000D01*
X140673095Y-83202619D01*
X140720714Y-83297857D01*
X140720714Y-83345476D01*
X140673095Y-83440714D01*
X140625476Y-83488333D01*
X140530238Y-83535952D01*
X140339761Y-83535952D01*
X140244523Y-83583571D01*
X140196904Y-83631190D01*
X140149285Y-83726428D01*
X140149285Y-83916904D01*
X140196904Y-84012142D01*
X140244523Y-84059761D01*
X140339761Y-84107380D01*
X140530238Y-84107380D01*
X140625476Y-84059761D01*
X140673095Y-84012142D01*
X140720714Y-83916904D01*
X140720714Y-83726428D01*
X140673095Y-83631190D01*
X140625476Y-83583571D01*
X140530238Y-83535952D01*
G04 #@! TO.C,R7*
X111982380Y-100966666D02*
X111506190Y-101300000D01*
X111982380Y-101538095D02*
X110982380Y-101538095D01*
X110982380Y-101157142D01*
X111030000Y-101061904D01*
X111077619Y-101014285D01*
X111172857Y-100966666D01*
X111315714Y-100966666D01*
X111410952Y-101014285D01*
X111458571Y-101061904D01*
X111506190Y-101157142D01*
X111506190Y-101538095D01*
X110982380Y-100633333D02*
X110982380Y-99966666D01*
X111982380Y-100395238D01*
G04 #@! TO.C,R6*
X117543333Y-86647380D02*
X117210000Y-86171190D01*
X116971904Y-86647380D02*
X116971904Y-85647380D01*
X117352857Y-85647380D01*
X117448095Y-85695000D01*
X117495714Y-85742619D01*
X117543333Y-85837857D01*
X117543333Y-85980714D01*
X117495714Y-86075952D01*
X117448095Y-86123571D01*
X117352857Y-86171190D01*
X116971904Y-86171190D01*
X118400476Y-85647380D02*
X118210000Y-85647380D01*
X118114761Y-85695000D01*
X118067142Y-85742619D01*
X117971904Y-85885476D01*
X117924285Y-86075952D01*
X117924285Y-86456904D01*
X117971904Y-86552142D01*
X118019523Y-86599761D01*
X118114761Y-86647380D01*
X118305238Y-86647380D01*
X118400476Y-86599761D01*
X118448095Y-86552142D01*
X118495714Y-86456904D01*
X118495714Y-86218809D01*
X118448095Y-86123571D01*
X118400476Y-86075952D01*
X118305238Y-86028333D01*
X118114761Y-86028333D01*
X118019523Y-86075952D01*
X117971904Y-86123571D01*
X117924285Y-86218809D01*
G04 #@! TO.C,R5*
X126433333Y-72042380D02*
X126100000Y-71566190D01*
X125861904Y-72042380D02*
X125861904Y-71042380D01*
X126242857Y-71042380D01*
X126338095Y-71090000D01*
X126385714Y-71137619D01*
X126433333Y-71232857D01*
X126433333Y-71375714D01*
X126385714Y-71470952D01*
X126338095Y-71518571D01*
X126242857Y-71566190D01*
X125861904Y-71566190D01*
X127338095Y-71042380D02*
X126861904Y-71042380D01*
X126814285Y-71518571D01*
X126861904Y-71470952D01*
X126957142Y-71423333D01*
X127195238Y-71423333D01*
X127290476Y-71470952D01*
X127338095Y-71518571D01*
X127385714Y-71613809D01*
X127385714Y-71851904D01*
X127338095Y-71947142D01*
X127290476Y-71994761D01*
X127195238Y-72042380D01*
X126957142Y-72042380D01*
X126861904Y-71994761D01*
X126814285Y-71947142D01*
G04 #@! TO.C,R4*
X132132380Y-78741666D02*
X131656190Y-79075000D01*
X132132380Y-79313095D02*
X131132380Y-79313095D01*
X131132380Y-78932142D01*
X131180000Y-78836904D01*
X131227619Y-78789285D01*
X131322857Y-78741666D01*
X131465714Y-78741666D01*
X131560952Y-78789285D01*
X131608571Y-78836904D01*
X131656190Y-78932142D01*
X131656190Y-79313095D01*
X131465714Y-77884523D02*
X132132380Y-77884523D01*
X131084761Y-78122619D02*
X131799047Y-78360714D01*
X131799047Y-77741666D01*
G04 #@! TO.C,R3*
X158818333Y-57437380D02*
X158485000Y-56961190D01*
X158246904Y-57437380D02*
X158246904Y-56437380D01*
X158627857Y-56437380D01*
X158723095Y-56485000D01*
X158770714Y-56532619D01*
X158818333Y-56627857D01*
X158818333Y-56770714D01*
X158770714Y-56865952D01*
X158723095Y-56913571D01*
X158627857Y-56961190D01*
X158246904Y-56961190D01*
X159151666Y-56437380D02*
X159770714Y-56437380D01*
X159437380Y-56818333D01*
X159580238Y-56818333D01*
X159675476Y-56865952D01*
X159723095Y-56913571D01*
X159770714Y-57008809D01*
X159770714Y-57246904D01*
X159723095Y-57342142D01*
X159675476Y-57389761D01*
X159580238Y-57437380D01*
X159294523Y-57437380D01*
X159199285Y-57389761D01*
X159151666Y-57342142D01*
G04 #@! TO.C,R12*
X155167142Y-78857380D02*
X154833809Y-78381190D01*
X154595714Y-78857380D02*
X154595714Y-77857380D01*
X154976666Y-77857380D01*
X155071904Y-77905000D01*
X155119523Y-77952619D01*
X155167142Y-78047857D01*
X155167142Y-78190714D01*
X155119523Y-78285952D01*
X155071904Y-78333571D01*
X154976666Y-78381190D01*
X154595714Y-78381190D01*
X156119523Y-78857380D02*
X155548095Y-78857380D01*
X155833809Y-78857380D02*
X155833809Y-77857380D01*
X155738571Y-78000238D01*
X155643333Y-78095476D01*
X155548095Y-78143095D01*
X156500476Y-77952619D02*
X156548095Y-77905000D01*
X156643333Y-77857380D01*
X156881428Y-77857380D01*
X156976666Y-77905000D01*
X157024285Y-77952619D01*
X157071904Y-78047857D01*
X157071904Y-78143095D01*
X157024285Y-78285952D01*
X156452857Y-78857380D01*
X157071904Y-78857380D01*
G04 #@! TO.C,R11*
X161977380Y-71597857D02*
X161501190Y-71931190D01*
X161977380Y-72169285D02*
X160977380Y-72169285D01*
X160977380Y-71788333D01*
X161025000Y-71693095D01*
X161072619Y-71645476D01*
X161167857Y-71597857D01*
X161310714Y-71597857D01*
X161405952Y-71645476D01*
X161453571Y-71693095D01*
X161501190Y-71788333D01*
X161501190Y-72169285D01*
X161977380Y-70645476D02*
X161977380Y-71216904D01*
X161977380Y-70931190D02*
X160977380Y-70931190D01*
X161120238Y-71026428D01*
X161215476Y-71121666D01*
X161263095Y-71216904D01*
X161977380Y-69693095D02*
X161977380Y-70264523D01*
X161977380Y-69978809D02*
X160977380Y-69978809D01*
X161120238Y-70074047D01*
X161215476Y-70169285D01*
X161263095Y-70264523D01*
G04 #@! TO.C,R10*
X150377380Y-71597857D02*
X149901190Y-71931190D01*
X150377380Y-72169285D02*
X149377380Y-72169285D01*
X149377380Y-71788333D01*
X149425000Y-71693095D01*
X149472619Y-71645476D01*
X149567857Y-71597857D01*
X149710714Y-71597857D01*
X149805952Y-71645476D01*
X149853571Y-71693095D01*
X149901190Y-71788333D01*
X149901190Y-72169285D01*
X150377380Y-70645476D02*
X150377380Y-71216904D01*
X150377380Y-70931190D02*
X149377380Y-70931190D01*
X149520238Y-71026428D01*
X149615476Y-71121666D01*
X149663095Y-71216904D01*
X149377380Y-70026428D02*
X149377380Y-69931190D01*
X149425000Y-69835952D01*
X149472619Y-69788333D01*
X149567857Y-69740714D01*
X149758333Y-69693095D01*
X149996428Y-69693095D01*
X150186904Y-69740714D01*
X150282142Y-69788333D01*
X150329761Y-69835952D01*
X150377380Y-69931190D01*
X150377380Y-70026428D01*
X150329761Y-70121666D01*
X150282142Y-70169285D01*
X150186904Y-70216904D01*
X149996428Y-70264523D01*
X149758333Y-70264523D01*
X149567857Y-70216904D01*
X149472619Y-70169285D01*
X149425000Y-70121666D01*
X149377380Y-70026428D01*
G04 #@! TO.C,R9*
X159453333Y-65522380D02*
X159120000Y-65046190D01*
X158881904Y-65522380D02*
X158881904Y-64522380D01*
X159262857Y-64522380D01*
X159358095Y-64570000D01*
X159405714Y-64617619D01*
X159453333Y-64712857D01*
X159453333Y-64855714D01*
X159405714Y-64950952D01*
X159358095Y-64998571D01*
X159262857Y-65046190D01*
X158881904Y-65046190D01*
X159929523Y-65522380D02*
X160120000Y-65522380D01*
X160215238Y-65474761D01*
X160262857Y-65427142D01*
X160358095Y-65284285D01*
X160405714Y-65093809D01*
X160405714Y-64712857D01*
X160358095Y-64617619D01*
X160310476Y-64570000D01*
X160215238Y-64522380D01*
X160024761Y-64522380D01*
X159929523Y-64570000D01*
X159881904Y-64617619D01*
X159834285Y-64712857D01*
X159834285Y-64950952D01*
X159881904Y-65046190D01*
X159929523Y-65093809D01*
X160024761Y-65141428D01*
X160215238Y-65141428D01*
X160310476Y-65093809D01*
X160358095Y-65046190D01*
X160405714Y-64950952D01*
G04 #@! TO.C,R2*
X93413333Y-96342380D02*
X93080000Y-95866190D01*
X92841904Y-96342380D02*
X92841904Y-95342380D01*
X93222857Y-95342380D01*
X93318095Y-95390000D01*
X93365714Y-95437619D01*
X93413333Y-95532857D01*
X93413333Y-95675714D01*
X93365714Y-95770952D01*
X93318095Y-95818571D01*
X93222857Y-95866190D01*
X92841904Y-95866190D01*
X93794285Y-95437619D02*
X93841904Y-95390000D01*
X93937142Y-95342380D01*
X94175238Y-95342380D01*
X94270476Y-95390000D01*
X94318095Y-95437619D01*
X94365714Y-95532857D01*
X94365714Y-95628095D01*
X94318095Y-95770952D01*
X93746666Y-96342380D01*
X94365714Y-96342380D01*
G04 #@! TO.C,K1*
X141511904Y-111672380D02*
X141511904Y-110672380D01*
X142083333Y-111672380D02*
X141654761Y-111100952D01*
X142083333Y-110672380D02*
X141511904Y-111243809D01*
X143035714Y-111672380D02*
X142464285Y-111672380D01*
X142750000Y-111672380D02*
X142750000Y-110672380D01*
X142654761Y-110815238D01*
X142559523Y-110910476D01*
X142464285Y-110958095D01*
G04 #@! TO.C,D1*
X118312380Y-92013095D02*
X117312380Y-92013095D01*
X117312380Y-91775000D01*
X117360000Y-91632142D01*
X117455238Y-91536904D01*
X117550476Y-91489285D01*
X117740952Y-91441666D01*
X117883809Y-91441666D01*
X118074285Y-91489285D01*
X118169523Y-91536904D01*
X118264761Y-91632142D01*
X118312380Y-91775000D01*
X118312380Y-92013095D01*
X118312380Y-90489285D02*
X118312380Y-91060714D01*
X118312380Y-90775000D02*
X117312380Y-90775000D01*
X117455238Y-90870238D01*
X117550476Y-90965476D01*
X117598095Y-91060714D01*
G04 #@! TO.C,C6*
X116908333Y-96712142D02*
X116860714Y-96759761D01*
X116717857Y-96807380D01*
X116622619Y-96807380D01*
X116479761Y-96759761D01*
X116384523Y-96664523D01*
X116336904Y-96569285D01*
X116289285Y-96378809D01*
X116289285Y-96235952D01*
X116336904Y-96045476D01*
X116384523Y-95950238D01*
X116479761Y-95855000D01*
X116622619Y-95807380D01*
X116717857Y-95807380D01*
X116860714Y-95855000D01*
X116908333Y-95902619D01*
X117765476Y-95807380D02*
X117575000Y-95807380D01*
X117479761Y-95855000D01*
X117432142Y-95902619D01*
X117336904Y-96045476D01*
X117289285Y-96235952D01*
X117289285Y-96616904D01*
X117336904Y-96712142D01*
X117384523Y-96759761D01*
X117479761Y-96807380D01*
X117670238Y-96807380D01*
X117765476Y-96759761D01*
X117813095Y-96712142D01*
X117860714Y-96616904D01*
X117860714Y-96378809D01*
X117813095Y-96283571D01*
X117765476Y-96235952D01*
X117670238Y-96188333D01*
X117479761Y-96188333D01*
X117384523Y-96235952D01*
X117336904Y-96283571D01*
X117289285Y-96378809D01*
G04 #@! TO.C,C5*
X146007142Y-90131666D02*
X146054761Y-90179285D01*
X146102380Y-90322142D01*
X146102380Y-90417380D01*
X146054761Y-90560238D01*
X145959523Y-90655476D01*
X145864285Y-90703095D01*
X145673809Y-90750714D01*
X145530952Y-90750714D01*
X145340476Y-90703095D01*
X145245238Y-90655476D01*
X145150000Y-90560238D01*
X145102380Y-90417380D01*
X145102380Y-90322142D01*
X145150000Y-90179285D01*
X145197619Y-90131666D01*
X145102380Y-89226904D02*
X145102380Y-89703095D01*
X145578571Y-89750714D01*
X145530952Y-89703095D01*
X145483333Y-89607857D01*
X145483333Y-89369761D01*
X145530952Y-89274523D01*
X145578571Y-89226904D01*
X145673809Y-89179285D01*
X145911904Y-89179285D01*
X146007142Y-89226904D01*
X146054761Y-89274523D01*
X146102380Y-89369761D01*
X146102380Y-89607857D01*
X146054761Y-89703095D01*
X146007142Y-89750714D01*
G04 #@! TO.C,C4*
X120718333Y-73852142D02*
X120670714Y-73899761D01*
X120527857Y-73947380D01*
X120432619Y-73947380D01*
X120289761Y-73899761D01*
X120194523Y-73804523D01*
X120146904Y-73709285D01*
X120099285Y-73518809D01*
X120099285Y-73375952D01*
X120146904Y-73185476D01*
X120194523Y-73090238D01*
X120289761Y-72995000D01*
X120432619Y-72947380D01*
X120527857Y-72947380D01*
X120670714Y-72995000D01*
X120718333Y-73042619D01*
X121575476Y-73280714D02*
X121575476Y-73947380D01*
X121337380Y-72899761D02*
X121099285Y-73614047D01*
X121718333Y-73614047D01*
G04 #@! TO.C,C3*
X152667142Y-69256666D02*
X152714761Y-69304285D01*
X152762380Y-69447142D01*
X152762380Y-69542380D01*
X152714761Y-69685238D01*
X152619523Y-69780476D01*
X152524285Y-69828095D01*
X152333809Y-69875714D01*
X152190952Y-69875714D01*
X152000476Y-69828095D01*
X151905238Y-69780476D01*
X151810000Y-69685238D01*
X151762380Y-69542380D01*
X151762380Y-69447142D01*
X151810000Y-69304285D01*
X151857619Y-69256666D01*
X151762380Y-68923333D02*
X151762380Y-68304285D01*
X152143333Y-68637619D01*
X152143333Y-68494761D01*
X152190952Y-68399523D01*
X152238571Y-68351904D01*
X152333809Y-68304285D01*
X152571904Y-68304285D01*
X152667142Y-68351904D01*
X152714761Y-68399523D01*
X152762380Y-68494761D01*
X152762380Y-68780476D01*
X152714761Y-68875714D01*
X152667142Y-68923333D01*
G04 #@! TO.C,C2*
X135323333Y-86552142D02*
X135275714Y-86599761D01*
X135132857Y-86647380D01*
X135037619Y-86647380D01*
X134894761Y-86599761D01*
X134799523Y-86504523D01*
X134751904Y-86409285D01*
X134704285Y-86218809D01*
X134704285Y-86075952D01*
X134751904Y-85885476D01*
X134799523Y-85790238D01*
X134894761Y-85695000D01*
X135037619Y-85647380D01*
X135132857Y-85647380D01*
X135275714Y-85695000D01*
X135323333Y-85742619D01*
X135704285Y-85742619D02*
X135751904Y-85695000D01*
X135847142Y-85647380D01*
X136085238Y-85647380D01*
X136180476Y-85695000D01*
X136228095Y-85742619D01*
X136275714Y-85837857D01*
X136275714Y-85933095D01*
X136228095Y-86075952D01*
X135656666Y-86647380D01*
X136275714Y-86647380D01*
G04 #@! TO.C,C1*
X130243333Y-63057142D02*
X130195714Y-63104761D01*
X130052857Y-63152380D01*
X129957619Y-63152380D01*
X129814761Y-63104761D01*
X129719523Y-63009523D01*
X129671904Y-62914285D01*
X129624285Y-62723809D01*
X129624285Y-62580952D01*
X129671904Y-62390476D01*
X129719523Y-62295238D01*
X129814761Y-62200000D01*
X129957619Y-62152380D01*
X130052857Y-62152380D01*
X130195714Y-62200000D01*
X130243333Y-62247619D01*
X131195714Y-63152380D02*
X130624285Y-63152380D01*
X130910000Y-63152380D02*
X130910000Y-62152380D01*
X130814761Y-62295238D01*
X130719523Y-62390476D01*
X130624285Y-62438095D01*
G04 #@! TO.C,P1*
X172216904Y-142952380D02*
X172216904Y-141952380D01*
X172597857Y-141952380D01*
X172693095Y-142000000D01*
X172740714Y-142047619D01*
X172788333Y-142142857D01*
X172788333Y-142285714D01*
X172740714Y-142380952D01*
X172693095Y-142428571D01*
X172597857Y-142476190D01*
X172216904Y-142476190D01*
X173740714Y-142952380D02*
X173169285Y-142952380D01*
X173455000Y-142952380D02*
X173455000Y-141952380D01*
X173359761Y-142095238D01*
X173264523Y-142190476D01*
X173169285Y-142238095D01*
G04 #@! TO.C,N1*
D13*
X178780952Y-137185714D02*
X178857142Y-137100000D01*
X179009523Y-137014285D01*
X179390476Y-137014285D01*
X179542857Y-137100000D01*
X179619047Y-137185714D01*
X179695238Y-137357142D01*
X179695238Y-137528571D01*
X179619047Y-137785714D01*
X178704761Y-138814285D01*
X179695238Y-138814285D01*
X181142857Y-137014285D02*
X180380952Y-137014285D01*
X180304761Y-137871428D01*
X180380952Y-137785714D01*
X180533333Y-137700000D01*
X180914285Y-137700000D01*
X181066666Y-137785714D01*
X181142857Y-137871428D01*
X181219047Y-138042857D01*
X181219047Y-138471428D01*
X181142857Y-138642857D01*
X181066666Y-138728571D01*
X180914285Y-138814285D01*
X180533333Y-138814285D01*
X180380952Y-138728571D01*
X180304761Y-138642857D01*
X178780952Y-61814285D02*
X178780952Y-60014285D01*
X179695238Y-61814285D01*
X179695238Y-60014285D01*
X181295238Y-61814285D02*
X180380952Y-61814285D01*
X180838095Y-61814285D02*
X180838095Y-60014285D01*
X180685714Y-60271428D01*
X180533333Y-60442857D01*
X180380952Y-60528571D01*
G04 #@! TD*
M02*
