G04 #@! TF.GenerationSoftware,KiCad,Pcbnew,5.1.9+dfsg1-1*
G04 #@! TF.CreationDate,2021-02-08T12:04:47+01:00*
G04 #@! TF.ProjectId,PowerMeter,506f7765-724d-4657-9465-722e6b696361,rev?*
G04 #@! TF.SameCoordinates,Original*
G04 #@! TF.FileFunction,Legend,Top*
G04 #@! TF.FilePolarity,Positive*
%FSLAX46Y46*%
G04 Gerber Fmt 4.6, Leading zero omitted, Abs format (unit mm)*
G04 Created by KiCad (PCBNEW 5.1.9+dfsg1-1) date 2021-02-08 12:04:47*
%MOMM*%
%LPD*%
G01*
G04 APERTURE LIST*
%ADD10C,0.120000*%
%ADD11C,0.200000*%
%ADD12C,0.250000*%
G04 APERTURE END LIST*
D10*
G04 #@! TO.C,D2*
X201040000Y-91650000D02*
X203280000Y-91650000D01*
X203280000Y-91650000D02*
X203280000Y-87410000D01*
X203280000Y-87410000D02*
X201040000Y-87410000D01*
X201040000Y-87410000D02*
X201040000Y-91650000D01*
X202160000Y-92300000D02*
X202160000Y-91650000D01*
X202160000Y-86760000D02*
X202160000Y-87410000D01*
X201040000Y-90930000D02*
X203280000Y-90930000D01*
X201040000Y-90810000D02*
X203280000Y-90810000D01*
X201040000Y-91050000D02*
X203280000Y-91050000D01*
G04 #@! TO.C,D1*
X203280000Y-77250000D02*
X201040000Y-77250000D01*
X201040000Y-77250000D02*
X201040000Y-81490000D01*
X201040000Y-81490000D02*
X203280000Y-81490000D01*
X203280000Y-81490000D02*
X203280000Y-77250000D01*
X202160000Y-76600000D02*
X202160000Y-77250000D01*
X202160000Y-82140000D02*
X202160000Y-81490000D01*
X203280000Y-77970000D02*
X201040000Y-77970000D01*
X203280000Y-78090000D02*
X201040000Y-78090000D01*
X203280000Y-77850000D02*
X201040000Y-77850000D01*
G04 #@! TO.C,C10*
X128670000Y-74420000D02*
X133410000Y-74420000D01*
X128670000Y-81860000D02*
X133410000Y-81860000D01*
X133410000Y-81860000D02*
X133410000Y-74420000D01*
X128670000Y-81860000D02*
X128670000Y-74420000D01*
G04 #@! TO.C,C9*
X176590000Y-76700000D02*
X171850000Y-76700000D01*
X176590000Y-69260000D02*
X171850000Y-69260000D01*
X171850000Y-69260000D02*
X171850000Y-76700000D01*
X176590000Y-69260000D02*
X176590000Y-76700000D01*
G04 #@! TO.C,C8*
X106780000Y-111290000D02*
X106780000Y-116030000D01*
X99340000Y-111290000D02*
X99340000Y-116030000D01*
X99340000Y-116030000D02*
X106780000Y-116030000D01*
X99340000Y-111290000D02*
X106780000Y-111290000D01*
G04 #@! TO.C,R1*
X197080000Y-80345000D02*
X197080000Y-77035000D01*
X197080000Y-67185000D02*
X197080000Y-70495000D01*
X198450000Y-77035000D02*
X198450000Y-70495000D01*
X195710000Y-77035000D02*
X198450000Y-77035000D01*
X195710000Y-70495000D02*
X195710000Y-77035000D01*
X198450000Y-70495000D02*
X195710000Y-70495000D01*
D11*
G04 #@! TO.C,J4*
X214710000Y-100500000D02*
X213210000Y-100500000D01*
X221210000Y-105500000D02*
X221210000Y-100500000D01*
X214710000Y-115500000D02*
X213210000Y-115500000D01*
X221210000Y-110500000D02*
X221210000Y-115500000D01*
X216710000Y-100500000D02*
X221210000Y-100500000D01*
X213210000Y-115500000D02*
X213210000Y-100500000D01*
X221210000Y-115500000D02*
X216710000Y-115500000D01*
G04 #@! TO.C,J5*
X214710000Y-117500000D02*
X213210000Y-117500000D01*
X221210000Y-122500000D02*
X221210000Y-117500000D01*
X214710000Y-132500000D02*
X213210000Y-132500000D01*
X221210000Y-127500000D02*
X221210000Y-132500000D01*
X216710000Y-117500000D02*
X221210000Y-117500000D01*
X213210000Y-132500000D02*
X213210000Y-117500000D01*
X221210000Y-132500000D02*
X216710000Y-132500000D01*
D10*
G04 #@! TO.C,U2*
X139810000Y-50100000D02*
X139810000Y-60380000D01*
X150210000Y-50100000D02*
X139810000Y-50100000D01*
X150210000Y-60380000D02*
X150210000Y-50100000D01*
X139810000Y-60380000D02*
X150210000Y-60380000D01*
X139870000Y-52590000D02*
X139870000Y-54240000D01*
X150150000Y-52590000D02*
X139870000Y-52590000D01*
X150150000Y-57890000D02*
X150150000Y-52590000D01*
X139870000Y-57890000D02*
X150150000Y-57890000D01*
X139870000Y-56240000D02*
X139870000Y-57890000D01*
X139870000Y-54240000D02*
G75*
G02*
X139870000Y-56240000I0J-1000000D01*
G01*
G04 #@! TO.C,RV2*
X152830000Y-50245000D02*
X152830000Y-51004000D01*
X153404000Y-51764000D02*
X151820000Y-51764000D01*
X153840000Y-50245000D02*
X151820000Y-50245000D01*
X151820000Y-50245000D02*
X151820000Y-51764000D01*
X153840000Y-50245000D02*
X153840000Y-51724000D01*
X153404000Y-58715000D02*
X151440000Y-58715000D01*
X156180000Y-58715000D02*
X154394000Y-58715000D01*
X153404000Y-51765000D02*
X151440000Y-51765000D01*
X156180000Y-51765000D02*
X154394000Y-51765000D01*
X151440000Y-51765000D02*
X151440000Y-58715000D01*
X156180000Y-51765000D02*
X156180000Y-58715000D01*
G04 #@! TO.C,RV1*
X118540000Y-50245000D02*
X118540000Y-51004000D01*
X119114000Y-51764000D02*
X117530000Y-51764000D01*
X119550000Y-50245000D02*
X117530000Y-50245000D01*
X117530000Y-50245000D02*
X117530000Y-51764000D01*
X119550000Y-50245000D02*
X119550000Y-51724000D01*
X119114000Y-58715000D02*
X117150000Y-58715000D01*
X121890000Y-58715000D02*
X120104000Y-58715000D01*
X119114000Y-51765000D02*
X117150000Y-51765000D01*
X121890000Y-51765000D02*
X120104000Y-51765000D01*
X117150000Y-51765000D02*
X117150000Y-58715000D01*
X121890000Y-51765000D02*
X121890000Y-58715000D01*
G04 #@! TO.C,L5*
X162760000Y-79370000D02*
X164270000Y-79370000D01*
X175520000Y-79370000D02*
X174010000Y-79370000D01*
X164270000Y-81490000D02*
X174010000Y-81490000D01*
X164270000Y-77250000D02*
X164270000Y-81490000D01*
X174010000Y-77250000D02*
X164270000Y-77250000D01*
X174010000Y-81490000D02*
X174010000Y-77250000D01*
G04 #@! TO.C,L3*
X110720000Y-83210000D02*
X110720000Y-81700000D01*
X110720000Y-70450000D02*
X110720000Y-71960000D01*
X112840000Y-81700000D02*
X112840000Y-71960000D01*
X108600000Y-81700000D02*
X112840000Y-81700000D01*
X108600000Y-71960000D02*
X108600000Y-81700000D01*
X112840000Y-71960000D02*
X108600000Y-71960000D01*
G04 #@! TO.C,L2*
X91670000Y-70450000D02*
X91670000Y-71960000D01*
X91670000Y-83210000D02*
X91670000Y-81700000D01*
X89550000Y-71960000D02*
X89550000Y-81700000D01*
X93790000Y-71960000D02*
X89550000Y-71960000D01*
X93790000Y-81700000D02*
X93790000Y-71960000D01*
X89550000Y-81700000D02*
X93790000Y-81700000D01*
G04 #@! TO.C,L1*
X119610000Y-106010000D02*
X119610000Y-107520000D01*
X119610000Y-118770000D02*
X119610000Y-117260000D01*
X117490000Y-107520000D02*
X117490000Y-117260000D01*
X121730000Y-107520000D02*
X117490000Y-107520000D01*
X121730000Y-117260000D02*
X121730000Y-107520000D01*
X117490000Y-117260000D02*
X121730000Y-117260000D01*
G04 #@! TO.C,L4*
X180570000Y-79400000D02*
X180570000Y-77890000D01*
X180570000Y-66640000D02*
X180570000Y-68150000D01*
X182690000Y-77890000D02*
X182690000Y-68150000D01*
X178450000Y-77890000D02*
X182690000Y-77890000D01*
X178450000Y-68150000D02*
X178450000Y-77890000D01*
X182690000Y-68150000D02*
X178450000Y-68150000D01*
G04 #@! TO.C,U1*
X169200000Y-58930000D02*
X158920000Y-58930000D01*
X169200000Y-69330000D02*
X169200000Y-58930000D01*
X158920000Y-69330000D02*
X169200000Y-69330000D01*
X158920000Y-58930000D02*
X158920000Y-69330000D01*
X166710000Y-58990000D02*
X165060000Y-58990000D01*
X166710000Y-69270000D02*
X166710000Y-58990000D01*
X161410000Y-69270000D02*
X166710000Y-69270000D01*
X161410000Y-58990000D02*
X161410000Y-69270000D01*
X163060000Y-58990000D02*
X161410000Y-58990000D01*
X165060000Y-58990000D02*
G75*
G02*
X163060000Y-58990000I-1000000J0D01*
G01*
G04 #@! TO.C,R6*
X132540000Y-55240000D02*
X131770000Y-55240000D01*
X124460000Y-55240000D02*
X125230000Y-55240000D01*
X131770000Y-53870000D02*
X125230000Y-53870000D01*
X131770000Y-56610000D02*
X131770000Y-53870000D01*
X125230000Y-56610000D02*
X131770000Y-56610000D01*
X125230000Y-53870000D02*
X125230000Y-56610000D01*
G04 #@! TO.C,R5*
X137390000Y-60550000D02*
X137390000Y-59780000D01*
X137390000Y-52470000D02*
X137390000Y-53240000D01*
X138760000Y-59780000D02*
X138760000Y-53240000D01*
X136020000Y-59780000D02*
X138760000Y-59780000D01*
X136020000Y-53240000D02*
X136020000Y-59780000D01*
X138760000Y-53240000D02*
X136020000Y-53240000D01*
G04 #@! TO.C,R4*
X127000000Y-66670000D02*
X127770000Y-66670000D01*
X135080000Y-66670000D02*
X134310000Y-66670000D01*
X127770000Y-68040000D02*
X134310000Y-68040000D01*
X127770000Y-65300000D02*
X127770000Y-68040000D01*
X134310000Y-65300000D02*
X127770000Y-65300000D01*
X134310000Y-68040000D02*
X134310000Y-65300000D01*
G04 #@! TO.C,R3*
X164290000Y-73020000D02*
X163520000Y-73020000D01*
X156210000Y-73020000D02*
X156980000Y-73020000D01*
X163520000Y-71650000D02*
X156980000Y-71650000D01*
X163520000Y-74390000D02*
X163520000Y-71650000D01*
X156980000Y-74390000D02*
X163520000Y-74390000D01*
X156980000Y-71650000D02*
X156980000Y-74390000D01*
G04 #@! TO.C,R2*
X182070000Y-61590000D02*
X181300000Y-61590000D01*
X173990000Y-61590000D02*
X174760000Y-61590000D01*
X181300000Y-60220000D02*
X174760000Y-60220000D01*
X181300000Y-62960000D02*
X181300000Y-60220000D01*
X174760000Y-62960000D02*
X181300000Y-62960000D01*
X174760000Y-60220000D02*
X174760000Y-62960000D01*
G04 #@! TO.C,Q3*
X144065552Y-61635501D02*
X144977719Y-62547669D01*
X145055501Y-60645552D02*
X144065552Y-61635501D01*
X145967669Y-61557719D02*
X145055501Y-60645552D01*
X144977850Y-62547456D02*
G75*
G03*
X145967669Y-61557719I2572150J-1582544D01*
G01*
G04 #@! TO.C,Q2*
X136445552Y-69255501D02*
X137357719Y-70167669D01*
X137435501Y-68265552D02*
X136445552Y-69255501D01*
X138347669Y-69177719D02*
X137435501Y-68265552D01*
X137357850Y-70167456D02*
G75*
G03*
X138347669Y-69177719I2572150J-1582544D01*
G01*
G04 #@! TO.C,Q1*
X144065552Y-69255501D02*
X144977719Y-70167669D01*
X145055501Y-68265552D02*
X144065552Y-69255501D01*
X145967669Y-69177719D02*
X145055501Y-68265552D01*
X144977850Y-70167456D02*
G75*
G03*
X145967669Y-69177719I2572150J-1582544D01*
G01*
G04 #@! TO.C,J3*
X123730000Y-78310000D02*
X123730000Y-77060000D01*
X122480000Y-78310000D02*
X123730000Y-78310000D01*
X116580000Y-72810000D02*
X119630000Y-72810000D01*
X116580000Y-75760000D02*
X116580000Y-72810000D01*
X115830000Y-75760000D02*
X116580000Y-75760000D01*
X122680000Y-72810000D02*
X119630000Y-72810000D01*
X122680000Y-75760000D02*
X122680000Y-72810000D01*
X123430000Y-75760000D02*
X122680000Y-75760000D01*
X115830000Y-78010000D02*
X117630000Y-78010000D01*
X115830000Y-77260000D02*
X115830000Y-78010000D01*
X117630000Y-77260000D02*
X115830000Y-77260000D01*
X117630000Y-78010000D02*
X117630000Y-77260000D01*
X121630000Y-78010000D02*
X123430000Y-78010000D01*
X121630000Y-77260000D02*
X121630000Y-78010000D01*
X123430000Y-77260000D02*
X121630000Y-77260000D01*
X123430000Y-78010000D02*
X123430000Y-77260000D01*
X119130000Y-78010000D02*
X120130000Y-78010000D01*
X119130000Y-77260000D02*
X119130000Y-78010000D01*
X120130000Y-77260000D02*
X119130000Y-77260000D01*
X120130000Y-78010000D02*
X120130000Y-77260000D01*
X115820000Y-78020000D02*
X123440000Y-78020000D01*
X115820000Y-72050000D02*
X115820000Y-78020000D01*
X123440000Y-72050000D02*
X115820000Y-72050000D01*
X123440000Y-78020000D02*
X123440000Y-72050000D01*
G04 #@! TO.C,J2*
X191810000Y-77515000D02*
X193140000Y-77515000D01*
X193140000Y-77515000D02*
X193140000Y-78845000D01*
X190540000Y-77515000D02*
X190540000Y-80115000D01*
X190540000Y-80115000D02*
X193140000Y-80115000D01*
X193140000Y-80115000D02*
X193140000Y-92875000D01*
X187940000Y-92875000D02*
X193140000Y-92875000D01*
X187940000Y-77515000D02*
X187940000Y-92875000D01*
X187940000Y-77515000D02*
X190540000Y-77515000D01*
G04 #@! TO.C,C7*
X160380000Y-57610000D02*
X160380000Y-52870000D01*
X167820000Y-57610000D02*
X167820000Y-52870000D01*
X167820000Y-52870000D02*
X160380000Y-52870000D01*
X167820000Y-57610000D02*
X160380000Y-57610000D01*
G04 #@! TO.C,C6*
X127360000Y-63960000D02*
X127360000Y-59220000D01*
X134800000Y-63960000D02*
X134800000Y-59220000D01*
X134800000Y-59220000D02*
X127360000Y-59220000D01*
X134800000Y-63960000D02*
X127360000Y-63960000D01*
G04 #@! TO.C,C5*
X175280000Y-84450000D02*
X174140000Y-84450000D01*
X162760000Y-84450000D02*
X163900000Y-84450000D01*
X166900000Y-86820000D02*
X174140000Y-86820000D01*
X166150000Y-86070000D02*
X166900000Y-86820000D01*
X165400000Y-86820000D02*
X166150000Y-86070000D01*
X163900000Y-86820000D02*
X165400000Y-86820000D01*
X166900000Y-82080000D02*
X174140000Y-82080000D01*
X166150000Y-82830000D02*
X166900000Y-82080000D01*
X165400000Y-82080000D02*
X166150000Y-82830000D01*
X163900000Y-82080000D02*
X165400000Y-82080000D01*
X174140000Y-82080000D02*
X174140000Y-86820000D01*
X163900000Y-82080000D02*
X163900000Y-86820000D01*
X162900000Y-81500000D02*
X162900000Y-83000000D01*
X162150000Y-82250000D02*
X163650000Y-82250000D01*
G04 #@! TO.C,C4*
X162760000Y-89530000D02*
X163900000Y-89530000D01*
X175280000Y-89530000D02*
X174140000Y-89530000D01*
X171140000Y-87160000D02*
X163900000Y-87160000D01*
X171890000Y-87910000D02*
X171140000Y-87160000D01*
X172640000Y-87160000D02*
X171890000Y-87910000D01*
X174140000Y-87160000D02*
X172640000Y-87160000D01*
X171140000Y-91900000D02*
X163900000Y-91900000D01*
X171890000Y-91150000D02*
X171140000Y-91900000D01*
X172640000Y-91900000D02*
X171890000Y-91150000D01*
X174140000Y-91900000D02*
X172640000Y-91900000D01*
X163900000Y-91900000D02*
X163900000Y-87160000D01*
X174140000Y-91900000D02*
X174140000Y-87160000D01*
X175140000Y-92480000D02*
X175140000Y-90980000D01*
X175890000Y-91730000D02*
X174390000Y-91730000D01*
G04 #@! TO.C,C3*
X104370000Y-70450000D02*
X104370000Y-71590000D01*
X104370000Y-82970000D02*
X104370000Y-81830000D01*
X106740000Y-78830000D02*
X106740000Y-71590000D01*
X105990000Y-79580000D02*
X106740000Y-78830000D01*
X106740000Y-80330000D02*
X105990000Y-79580000D01*
X106740000Y-81830000D02*
X106740000Y-80330000D01*
X102000000Y-78830000D02*
X102000000Y-71590000D01*
X102750000Y-79580000D02*
X102000000Y-78830000D01*
X102000000Y-80330000D02*
X102750000Y-79580000D01*
X102000000Y-81830000D02*
X102000000Y-80330000D01*
X102000000Y-71590000D02*
X106740000Y-71590000D01*
X102000000Y-81830000D02*
X106740000Y-81830000D01*
X101420000Y-82830000D02*
X102920000Y-82830000D01*
X102170000Y-83580000D02*
X102170000Y-82080000D01*
G04 #@! TO.C,C2*
X98020000Y-82970000D02*
X98020000Y-81830000D01*
X98020000Y-70450000D02*
X98020000Y-71590000D01*
X95650000Y-74590000D02*
X95650000Y-81830000D01*
X96400000Y-73840000D02*
X95650000Y-74590000D01*
X95650000Y-73090000D02*
X96400000Y-73840000D01*
X95650000Y-71590000D02*
X95650000Y-73090000D01*
X100390000Y-74590000D02*
X100390000Y-81830000D01*
X99640000Y-73840000D02*
X100390000Y-74590000D01*
X100390000Y-73090000D02*
X99640000Y-73840000D01*
X100390000Y-71590000D02*
X100390000Y-73090000D01*
X100390000Y-81830000D02*
X95650000Y-81830000D01*
X100390000Y-71590000D02*
X95650000Y-71590000D01*
X100970000Y-70590000D02*
X99470000Y-70590000D01*
X100220000Y-69840000D02*
X100220000Y-71340000D01*
G04 #@! TO.C,C1*
X105430000Y-104770000D02*
X104790000Y-104770000D01*
X92910000Y-104770000D02*
X93550000Y-104770000D01*
X96550000Y-108890000D02*
X104790000Y-108890000D01*
X95800000Y-108140000D02*
X96550000Y-108890000D01*
X95050000Y-108890000D02*
X95800000Y-108140000D01*
X93550000Y-108890000D02*
X95050000Y-108890000D01*
X96550000Y-100650000D02*
X104790000Y-100650000D01*
X95800000Y-101400000D02*
X96550000Y-100650000D01*
X95050000Y-100650000D02*
X95800000Y-101400000D01*
X93550000Y-100650000D02*
X95050000Y-100650000D01*
X104790000Y-100650000D02*
X104790000Y-108890000D01*
X93550000Y-100650000D02*
X93550000Y-108890000D01*
X92550000Y-101820000D02*
X92550000Y-103320000D01*
X91800000Y-102570000D02*
X93300000Y-102570000D01*
G04 #@! TO.C,PS1*
X89525000Y-98180000D02*
X111595000Y-98180000D01*
X111595000Y-98180000D02*
X111595000Y-88760000D01*
X111595000Y-88760000D02*
X89525000Y-88760000D01*
X89525000Y-88760000D02*
X89525000Y-98180000D01*
X89225000Y-97230000D02*
X89225000Y-98480000D01*
X89225000Y-98480000D02*
X90475000Y-98480000D01*
G04 #@! TO.C,F1*
X91930000Y-119020000D02*
X91930000Y-121820000D01*
X91930000Y-125820000D02*
X91930000Y-128620000D01*
X114530000Y-125820000D02*
X114530000Y-128620000D01*
X114530000Y-128620000D02*
X91930000Y-128620000D01*
X114530000Y-119020000D02*
X91930000Y-119020000D01*
X114530000Y-119020000D02*
X114530000Y-121820000D01*
G04 #@! TO.C,J1*
X75250000Y-72930000D02*
X76580000Y-72930000D01*
X75250000Y-74260000D02*
X75250000Y-72930000D01*
X75250000Y-75530000D02*
X77910000Y-75530000D01*
X77910000Y-75530000D02*
X77910000Y-100990000D01*
X75250000Y-75530000D02*
X75250000Y-100990000D01*
X75250000Y-100990000D02*
X77910000Y-100990000D01*
G04 #@! TO.C,D2*
D12*
X205741309Y-90710952D02*
X204141309Y-90710952D01*
X204141309Y-90330000D01*
X204217500Y-90101428D01*
X204369880Y-89949047D01*
X204522261Y-89872857D01*
X204827023Y-89796666D01*
X205055595Y-89796666D01*
X205360357Y-89872857D01*
X205512738Y-89949047D01*
X205665119Y-90101428D01*
X205741309Y-90330000D01*
X205741309Y-90710952D01*
X204293690Y-89187142D02*
X204217500Y-89110952D01*
X204141309Y-88958571D01*
X204141309Y-88577619D01*
X204217500Y-88425238D01*
X204293690Y-88349047D01*
X204446071Y-88272857D01*
X204598452Y-88272857D01*
X204827023Y-88349047D01*
X205741309Y-89263333D01*
X205741309Y-88272857D01*
G04 #@! TO.C,D1*
X205741309Y-80550952D02*
X204141309Y-80550952D01*
X204141309Y-80170000D01*
X204217500Y-79941428D01*
X204369880Y-79789047D01*
X204522261Y-79712857D01*
X204827023Y-79636666D01*
X205055595Y-79636666D01*
X205360357Y-79712857D01*
X205512738Y-79789047D01*
X205665119Y-79941428D01*
X205741309Y-80170000D01*
X205741309Y-80550952D01*
X205741309Y-78112857D02*
X205741309Y-79027142D01*
X205741309Y-78570000D02*
X204141309Y-78570000D01*
X204369880Y-78722380D01*
X204522261Y-78874761D01*
X204598452Y-79027142D01*
G04 #@! TO.C,C10*
X127801428Y-79128571D02*
X127877619Y-79204761D01*
X127953809Y-79433333D01*
X127953809Y-79585714D01*
X127877619Y-79814285D01*
X127725238Y-79966666D01*
X127572857Y-80042857D01*
X127268095Y-80119047D01*
X127039523Y-80119047D01*
X126734761Y-80042857D01*
X126582380Y-79966666D01*
X126430000Y-79814285D01*
X126353809Y-79585714D01*
X126353809Y-79433333D01*
X126430000Y-79204761D01*
X126506190Y-79128571D01*
X127953809Y-77604761D02*
X127953809Y-78519047D01*
X127953809Y-78061904D02*
X126353809Y-78061904D01*
X126582380Y-78214285D01*
X126734761Y-78366666D01*
X126810952Y-78519047D01*
X126353809Y-76614285D02*
X126353809Y-76461904D01*
X126430000Y-76309523D01*
X126506190Y-76233333D01*
X126658571Y-76157142D01*
X126963333Y-76080952D01*
X127344285Y-76080952D01*
X127649047Y-76157142D01*
X127801428Y-76233333D01*
X127877619Y-76309523D01*
X127953809Y-76461904D01*
X127953809Y-76614285D01*
X127877619Y-76766666D01*
X127801428Y-76842857D01*
X127649047Y-76919047D01*
X127344285Y-76995238D01*
X126963333Y-76995238D01*
X126658571Y-76919047D01*
X126506190Y-76842857D01*
X126430000Y-76766666D01*
X126353809Y-76614285D01*
G04 #@! TO.C,C9*
X173953333Y-68511428D02*
X173877142Y-68587619D01*
X173648571Y-68663809D01*
X173496190Y-68663809D01*
X173267619Y-68587619D01*
X173115238Y-68435238D01*
X173039047Y-68282857D01*
X172962857Y-67978095D01*
X172962857Y-67749523D01*
X173039047Y-67444761D01*
X173115238Y-67292380D01*
X173267619Y-67140000D01*
X173496190Y-67063809D01*
X173648571Y-67063809D01*
X173877142Y-67140000D01*
X173953333Y-67216190D01*
X174715238Y-68663809D02*
X175020000Y-68663809D01*
X175172380Y-68587619D01*
X175248571Y-68511428D01*
X175400952Y-68282857D01*
X175477142Y-67978095D01*
X175477142Y-67368571D01*
X175400952Y-67216190D01*
X175324761Y-67140000D01*
X175172380Y-67063809D01*
X174867619Y-67063809D01*
X174715238Y-67140000D01*
X174639047Y-67216190D01*
X174562857Y-67368571D01*
X174562857Y-67749523D01*
X174639047Y-67901904D01*
X174715238Y-67978095D01*
X174867619Y-68054285D01*
X175172380Y-68054285D01*
X175324761Y-67978095D01*
X175400952Y-67901904D01*
X175477142Y-67749523D01*
G04 #@! TO.C,C8*
X98591428Y-113926666D02*
X98667619Y-114002857D01*
X98743809Y-114231428D01*
X98743809Y-114383809D01*
X98667619Y-114612380D01*
X98515238Y-114764761D01*
X98362857Y-114840952D01*
X98058095Y-114917142D01*
X97829523Y-114917142D01*
X97524761Y-114840952D01*
X97372380Y-114764761D01*
X97220000Y-114612380D01*
X97143809Y-114383809D01*
X97143809Y-114231428D01*
X97220000Y-114002857D01*
X97296190Y-113926666D01*
X97829523Y-113012380D02*
X97753333Y-113164761D01*
X97677142Y-113240952D01*
X97524761Y-113317142D01*
X97448571Y-113317142D01*
X97296190Y-113240952D01*
X97220000Y-113164761D01*
X97143809Y-113012380D01*
X97143809Y-112707619D01*
X97220000Y-112555238D01*
X97296190Y-112479047D01*
X97448571Y-112402857D01*
X97524761Y-112402857D01*
X97677142Y-112479047D01*
X97753333Y-112555238D01*
X97829523Y-112707619D01*
X97829523Y-113012380D01*
X97905714Y-113164761D01*
X97981904Y-113240952D01*
X98134285Y-113317142D01*
X98439047Y-113317142D01*
X98591428Y-113240952D01*
X98667619Y-113164761D01*
X98743809Y-113012380D01*
X98743809Y-112707619D01*
X98667619Y-112555238D01*
X98591428Y-112479047D01*
X98439047Y-112402857D01*
X98134285Y-112402857D01*
X97981904Y-112479047D01*
X97905714Y-112555238D01*
X97829523Y-112707619D01*
G04 #@! TO.C,R1*
X200851809Y-74031666D02*
X200089904Y-74565000D01*
X200851809Y-74945952D02*
X199251809Y-74945952D01*
X199251809Y-74336428D01*
X199328000Y-74184047D01*
X199404190Y-74107857D01*
X199556571Y-74031666D01*
X199785142Y-74031666D01*
X199937523Y-74107857D01*
X200013714Y-74184047D01*
X200089904Y-74336428D01*
X200089904Y-74945952D01*
X200851809Y-72507857D02*
X200851809Y-73422142D01*
X200851809Y-72965000D02*
X199251809Y-72965000D01*
X199480380Y-73117380D01*
X199632761Y-73269761D01*
X199708952Y-73422142D01*
G04 #@! TO.C,J4*
X210808809Y-108533333D02*
X211951666Y-108533333D01*
X212180238Y-108609523D01*
X212332619Y-108761904D01*
X212408809Y-108990476D01*
X212408809Y-109142857D01*
X211342142Y-107085714D02*
X212408809Y-107085714D01*
X210732619Y-107466666D02*
X211875476Y-107847619D01*
X211875476Y-106857142D01*
G04 #@! TO.C,J5*
X210808809Y-125533333D02*
X211951666Y-125533333D01*
X212180238Y-125609523D01*
X212332619Y-125761904D01*
X212408809Y-125990476D01*
X212408809Y-126142857D01*
X210808809Y-124009523D02*
X210808809Y-124771428D01*
X211570714Y-124847619D01*
X211494523Y-124771428D01*
X211418333Y-124619047D01*
X211418333Y-124238095D01*
X211494523Y-124085714D01*
X211570714Y-124009523D01*
X211723095Y-123933333D01*
X212104047Y-123933333D01*
X212256428Y-124009523D01*
X212332619Y-124085714D01*
X212408809Y-124238095D01*
X212408809Y-124619047D01*
X212332619Y-124771428D01*
X212256428Y-124847619D01*
G04 #@! TO.C,U2*
X143790952Y-48013809D02*
X143790952Y-49309047D01*
X143867142Y-49461428D01*
X143943333Y-49537619D01*
X144095714Y-49613809D01*
X144400476Y-49613809D01*
X144552857Y-49537619D01*
X144629047Y-49461428D01*
X144705238Y-49309047D01*
X144705238Y-48013809D01*
X145390952Y-48166190D02*
X145467142Y-48090000D01*
X145619523Y-48013809D01*
X146000476Y-48013809D01*
X146152857Y-48090000D01*
X146229047Y-48166190D01*
X146305238Y-48318571D01*
X146305238Y-48470952D01*
X146229047Y-48699523D01*
X145314761Y-49613809D01*
X146305238Y-49613809D01*
G04 #@! TO.C,RV2*
X158433809Y-55432380D02*
X157671904Y-55965714D01*
X158433809Y-56346666D02*
X156833809Y-56346666D01*
X156833809Y-55737142D01*
X156910000Y-55584761D01*
X156986190Y-55508571D01*
X157138571Y-55432380D01*
X157367142Y-55432380D01*
X157519523Y-55508571D01*
X157595714Y-55584761D01*
X157671904Y-55737142D01*
X157671904Y-56346666D01*
X156833809Y-54975238D02*
X158433809Y-54441904D01*
X156833809Y-53908571D01*
X156986190Y-53451428D02*
X156910000Y-53375238D01*
X156833809Y-53222857D01*
X156833809Y-52841904D01*
X156910000Y-52689523D01*
X156986190Y-52613333D01*
X157138571Y-52537142D01*
X157290952Y-52537142D01*
X157519523Y-52613333D01*
X158433809Y-53527619D01*
X158433809Y-52537142D01*
G04 #@! TO.C,RV1*
X116523809Y-54922380D02*
X115761904Y-55455714D01*
X116523809Y-55836666D02*
X114923809Y-55836666D01*
X114923809Y-55227142D01*
X115000000Y-55074761D01*
X115076190Y-54998571D01*
X115228571Y-54922380D01*
X115457142Y-54922380D01*
X115609523Y-54998571D01*
X115685714Y-55074761D01*
X115761904Y-55227142D01*
X115761904Y-55836666D01*
X114923809Y-54465238D02*
X116523809Y-53931904D01*
X114923809Y-53398571D01*
X116523809Y-52027142D02*
X116523809Y-52941428D01*
X116523809Y-52484285D02*
X114923809Y-52484285D01*
X115152380Y-52636666D01*
X115304761Y-52789047D01*
X115380952Y-52941428D01*
G04 #@! TO.C,L5*
X157443333Y-80093809D02*
X156681428Y-80093809D01*
X156681428Y-78493809D01*
X158738571Y-78493809D02*
X157976666Y-78493809D01*
X157900476Y-79255714D01*
X157976666Y-79179523D01*
X158129047Y-79103333D01*
X158510000Y-79103333D01*
X158662380Y-79179523D01*
X158738571Y-79255714D01*
X158814761Y-79408095D01*
X158814761Y-79789047D01*
X158738571Y-79941428D01*
X158662380Y-80017619D01*
X158510000Y-80093809D01*
X158129047Y-80093809D01*
X157976666Y-80017619D01*
X157900476Y-79941428D01*
G04 #@! TO.C,L3*
X111443809Y-66301666D02*
X111443809Y-67063571D01*
X109843809Y-67063571D01*
X109843809Y-65920714D02*
X109843809Y-64930238D01*
X110453333Y-65463571D01*
X110453333Y-65235000D01*
X110529523Y-65082619D01*
X110605714Y-65006428D01*
X110758095Y-64930238D01*
X111139047Y-64930238D01*
X111291428Y-65006428D01*
X111367619Y-65082619D01*
X111443809Y-65235000D01*
X111443809Y-65692142D01*
X111367619Y-65844523D01*
X111291428Y-65920714D01*
G04 #@! TO.C,L2*
X92393809Y-66301666D02*
X92393809Y-67063571D01*
X90793809Y-67063571D01*
X90946190Y-65844523D02*
X90870000Y-65768333D01*
X90793809Y-65615952D01*
X90793809Y-65235000D01*
X90870000Y-65082619D01*
X90946190Y-65006428D01*
X91098571Y-64930238D01*
X91250952Y-64930238D01*
X91479523Y-65006428D01*
X92393809Y-65920714D01*
X92393809Y-64930238D01*
G04 #@! TO.C,L1*
X116523809Y-112656666D02*
X116523809Y-113418571D01*
X114923809Y-113418571D01*
X116523809Y-111285238D02*
X116523809Y-112199523D01*
X116523809Y-111742380D02*
X114923809Y-111742380D01*
X115152380Y-111894761D01*
X115304761Y-112047142D01*
X115380952Y-112199523D01*
G04 #@! TO.C,L4*
X185103809Y-73286666D02*
X185103809Y-74048571D01*
X183503809Y-74048571D01*
X184037142Y-72067619D02*
X185103809Y-72067619D01*
X183427619Y-72448571D02*
X184570476Y-72829523D01*
X184570476Y-71839047D01*
G04 #@! TO.C,U1*
X156833809Y-65349047D02*
X158129047Y-65349047D01*
X158281428Y-65272857D01*
X158357619Y-65196666D01*
X158433809Y-65044285D01*
X158433809Y-64739523D01*
X158357619Y-64587142D01*
X158281428Y-64510952D01*
X158129047Y-64434761D01*
X156833809Y-64434761D01*
X158433809Y-62834761D02*
X158433809Y-63749047D01*
X158433809Y-63291904D02*
X156833809Y-63291904D01*
X157062380Y-63444285D01*
X157214761Y-63596666D01*
X157290952Y-63749047D01*
G04 #@! TO.C,R6*
X128233333Y-53423809D02*
X127700000Y-52661904D01*
X127319047Y-53423809D02*
X127319047Y-51823809D01*
X127928571Y-51823809D01*
X128080952Y-51900000D01*
X128157142Y-51976190D01*
X128233333Y-52128571D01*
X128233333Y-52357142D01*
X128157142Y-52509523D01*
X128080952Y-52585714D01*
X127928571Y-52661904D01*
X127319047Y-52661904D01*
X129604761Y-51823809D02*
X129300000Y-51823809D01*
X129147619Y-51900000D01*
X129071428Y-51976190D01*
X128919047Y-52204761D01*
X128842857Y-52509523D01*
X128842857Y-53119047D01*
X128919047Y-53271428D01*
X128995238Y-53347619D01*
X129147619Y-53423809D01*
X129452380Y-53423809D01*
X129604761Y-53347619D01*
X129680952Y-53271428D01*
X129757142Y-53119047D01*
X129757142Y-52738095D01*
X129680952Y-52585714D01*
X129604761Y-52509523D01*
X129452380Y-52433333D01*
X129147619Y-52433333D01*
X128995238Y-52509523D01*
X128919047Y-52585714D01*
X128842857Y-52738095D01*
G04 #@! TO.C,R5*
X138113809Y-56776666D02*
X137351904Y-57310000D01*
X138113809Y-57690952D02*
X136513809Y-57690952D01*
X136513809Y-57081428D01*
X136590000Y-56929047D01*
X136666190Y-56852857D01*
X136818571Y-56776666D01*
X137047142Y-56776666D01*
X137199523Y-56852857D01*
X137275714Y-56929047D01*
X137351904Y-57081428D01*
X137351904Y-57690952D01*
X136513809Y-55329047D02*
X136513809Y-56090952D01*
X137275714Y-56167142D01*
X137199523Y-56090952D01*
X137123333Y-55938571D01*
X137123333Y-55557619D01*
X137199523Y-55405238D01*
X137275714Y-55329047D01*
X137428095Y-55252857D01*
X137809047Y-55252857D01*
X137961428Y-55329047D01*
X138037619Y-55405238D01*
X138113809Y-55557619D01*
X138113809Y-55938571D01*
X138037619Y-56090952D01*
X137961428Y-56167142D01*
G04 #@! TO.C,R4*
X130773333Y-70568809D02*
X130240000Y-69806904D01*
X129859047Y-70568809D02*
X129859047Y-68968809D01*
X130468571Y-68968809D01*
X130620952Y-69045000D01*
X130697142Y-69121190D01*
X130773333Y-69273571D01*
X130773333Y-69502142D01*
X130697142Y-69654523D01*
X130620952Y-69730714D01*
X130468571Y-69806904D01*
X129859047Y-69806904D01*
X132144761Y-69502142D02*
X132144761Y-70568809D01*
X131763809Y-68892619D02*
X131382857Y-70035476D01*
X132373333Y-70035476D01*
G04 #@! TO.C,R3*
X159983333Y-76918809D02*
X159450000Y-76156904D01*
X159069047Y-76918809D02*
X159069047Y-75318809D01*
X159678571Y-75318809D01*
X159830952Y-75395000D01*
X159907142Y-75471190D01*
X159983333Y-75623571D01*
X159983333Y-75852142D01*
X159907142Y-76004523D01*
X159830952Y-76080714D01*
X159678571Y-76156904D01*
X159069047Y-76156904D01*
X160516666Y-75318809D02*
X161507142Y-75318809D01*
X160973809Y-75928333D01*
X161202380Y-75928333D01*
X161354761Y-76004523D01*
X161430952Y-76080714D01*
X161507142Y-76233095D01*
X161507142Y-76614047D01*
X161430952Y-76766428D01*
X161354761Y-76842619D01*
X161202380Y-76918809D01*
X160745238Y-76918809D01*
X160592857Y-76842619D01*
X160516666Y-76766428D01*
G04 #@! TO.C,R2*
X177763333Y-59773809D02*
X177230000Y-59011904D01*
X176849047Y-59773809D02*
X176849047Y-58173809D01*
X177458571Y-58173809D01*
X177610952Y-58250000D01*
X177687142Y-58326190D01*
X177763333Y-58478571D01*
X177763333Y-58707142D01*
X177687142Y-58859523D01*
X177610952Y-58935714D01*
X177458571Y-59011904D01*
X176849047Y-59011904D01*
X178372857Y-58326190D02*
X178449047Y-58250000D01*
X178601428Y-58173809D01*
X178982380Y-58173809D01*
X179134761Y-58250000D01*
X179210952Y-58326190D01*
X179287142Y-58478571D01*
X179287142Y-58630952D01*
X179210952Y-58859523D01*
X178296666Y-59773809D01*
X179287142Y-59773809D01*
G04 #@! TO.C,Q3*
X142317619Y-65006190D02*
X142165238Y-64930000D01*
X142012857Y-64777619D01*
X141784285Y-64549047D01*
X141631904Y-64472857D01*
X141479523Y-64472857D01*
X141555714Y-64853809D02*
X141403333Y-64777619D01*
X141250952Y-64625238D01*
X141174761Y-64320476D01*
X141174761Y-63787142D01*
X141250952Y-63482380D01*
X141403333Y-63330000D01*
X141555714Y-63253809D01*
X141860476Y-63253809D01*
X142012857Y-63330000D01*
X142165238Y-63482380D01*
X142241428Y-63787142D01*
X142241428Y-64320476D01*
X142165238Y-64625238D01*
X142012857Y-64777619D01*
X141860476Y-64853809D01*
X141555714Y-64853809D01*
X142774761Y-63253809D02*
X143765238Y-63253809D01*
X143231904Y-63863333D01*
X143460476Y-63863333D01*
X143612857Y-63939523D01*
X143689047Y-64015714D01*
X143765238Y-64168095D01*
X143765238Y-64549047D01*
X143689047Y-64701428D01*
X143612857Y-64777619D01*
X143460476Y-64853809D01*
X143003333Y-64853809D01*
X142850952Y-64777619D01*
X142774761Y-64701428D01*
G04 #@! TO.C,Q2*
X139777619Y-77071190D02*
X139625238Y-76995000D01*
X139472857Y-76842619D01*
X139244285Y-76614047D01*
X139091904Y-76537857D01*
X138939523Y-76537857D01*
X139015714Y-76918809D02*
X138863333Y-76842619D01*
X138710952Y-76690238D01*
X138634761Y-76385476D01*
X138634761Y-75852142D01*
X138710952Y-75547380D01*
X138863333Y-75395000D01*
X139015714Y-75318809D01*
X139320476Y-75318809D01*
X139472857Y-75395000D01*
X139625238Y-75547380D01*
X139701428Y-75852142D01*
X139701428Y-76385476D01*
X139625238Y-76690238D01*
X139472857Y-76842619D01*
X139320476Y-76918809D01*
X139015714Y-76918809D01*
X140310952Y-75471190D02*
X140387142Y-75395000D01*
X140539523Y-75318809D01*
X140920476Y-75318809D01*
X141072857Y-75395000D01*
X141149047Y-75471190D01*
X141225238Y-75623571D01*
X141225238Y-75775952D01*
X141149047Y-76004523D01*
X140234761Y-76918809D01*
X141225238Y-76918809D01*
G04 #@! TO.C,Q1*
X147397619Y-77071190D02*
X147245238Y-76995000D01*
X147092857Y-76842619D01*
X146864285Y-76614047D01*
X146711904Y-76537857D01*
X146559523Y-76537857D01*
X146635714Y-76918809D02*
X146483333Y-76842619D01*
X146330952Y-76690238D01*
X146254761Y-76385476D01*
X146254761Y-75852142D01*
X146330952Y-75547380D01*
X146483333Y-75395000D01*
X146635714Y-75318809D01*
X146940476Y-75318809D01*
X147092857Y-75395000D01*
X147245238Y-75547380D01*
X147321428Y-75852142D01*
X147321428Y-76385476D01*
X147245238Y-76690238D01*
X147092857Y-76842619D01*
X146940476Y-76918809D01*
X146635714Y-76918809D01*
X148845238Y-76918809D02*
X147930952Y-76918809D01*
X148388095Y-76918809D02*
X148388095Y-75318809D01*
X148235714Y-75547380D01*
X148083333Y-75699761D01*
X147930952Y-75775952D01*
G04 #@! TO.C,J3*
X119076666Y-79128809D02*
X119076666Y-80271666D01*
X119000476Y-80500238D01*
X118848095Y-80652619D01*
X118619523Y-80728809D01*
X118467142Y-80728809D01*
X119686190Y-79128809D02*
X120676666Y-79128809D01*
X120143333Y-79738333D01*
X120371904Y-79738333D01*
X120524285Y-79814523D01*
X120600476Y-79890714D01*
X120676666Y-80043095D01*
X120676666Y-80424047D01*
X120600476Y-80576428D01*
X120524285Y-80652619D01*
X120371904Y-80728809D01*
X119914761Y-80728809D01*
X119762380Y-80652619D01*
X119686190Y-80576428D01*
G04 #@! TO.C,J2*
X190006666Y-93733809D02*
X190006666Y-94876666D01*
X189930476Y-95105238D01*
X189778095Y-95257619D01*
X189549523Y-95333809D01*
X189397142Y-95333809D01*
X190692380Y-93886190D02*
X190768571Y-93810000D01*
X190920952Y-93733809D01*
X191301904Y-93733809D01*
X191454285Y-93810000D01*
X191530476Y-93886190D01*
X191606666Y-94038571D01*
X191606666Y-94190952D01*
X191530476Y-94419523D01*
X190616190Y-95333809D01*
X191606666Y-95333809D01*
G04 #@! TO.C,C7*
X163793333Y-52001428D02*
X163717142Y-52077619D01*
X163488571Y-52153809D01*
X163336190Y-52153809D01*
X163107619Y-52077619D01*
X162955238Y-51925238D01*
X162879047Y-51772857D01*
X162802857Y-51468095D01*
X162802857Y-51239523D01*
X162879047Y-50934761D01*
X162955238Y-50782380D01*
X163107619Y-50630000D01*
X163336190Y-50553809D01*
X163488571Y-50553809D01*
X163717142Y-50630000D01*
X163793333Y-50706190D01*
X164326666Y-50553809D02*
X165393333Y-50553809D01*
X164707619Y-52153809D01*
G04 #@! TO.C,C6*
X126531428Y-61856666D02*
X126607619Y-61932857D01*
X126683809Y-62161428D01*
X126683809Y-62313809D01*
X126607619Y-62542380D01*
X126455238Y-62694761D01*
X126302857Y-62770952D01*
X125998095Y-62847142D01*
X125769523Y-62847142D01*
X125464761Y-62770952D01*
X125312380Y-62694761D01*
X125160000Y-62542380D01*
X125083809Y-62313809D01*
X125083809Y-62161428D01*
X125160000Y-61932857D01*
X125236190Y-61856666D01*
X125083809Y-60485238D02*
X125083809Y-60790000D01*
X125160000Y-60942380D01*
X125236190Y-61018571D01*
X125464761Y-61170952D01*
X125769523Y-61247142D01*
X126379047Y-61247142D01*
X126531428Y-61170952D01*
X126607619Y-61094761D01*
X126683809Y-60942380D01*
X126683809Y-60637619D01*
X126607619Y-60485238D01*
X126531428Y-60409047D01*
X126379047Y-60332857D01*
X125998095Y-60332857D01*
X125845714Y-60409047D01*
X125769523Y-60485238D01*
X125693333Y-60637619D01*
X125693333Y-60942380D01*
X125769523Y-61094761D01*
X125845714Y-61170952D01*
X125998095Y-61247142D01*
G04 #@! TO.C,C5*
X157443333Y-85021428D02*
X157367142Y-85097619D01*
X157138571Y-85173809D01*
X156986190Y-85173809D01*
X156757619Y-85097619D01*
X156605238Y-84945238D01*
X156529047Y-84792857D01*
X156452857Y-84488095D01*
X156452857Y-84259523D01*
X156529047Y-83954761D01*
X156605238Y-83802380D01*
X156757619Y-83650000D01*
X156986190Y-83573809D01*
X157138571Y-83573809D01*
X157367142Y-83650000D01*
X157443333Y-83726190D01*
X158890952Y-83573809D02*
X158129047Y-83573809D01*
X158052857Y-84335714D01*
X158129047Y-84259523D01*
X158281428Y-84183333D01*
X158662380Y-84183333D01*
X158814761Y-84259523D01*
X158890952Y-84335714D01*
X158967142Y-84488095D01*
X158967142Y-84869047D01*
X158890952Y-85021428D01*
X158814761Y-85097619D01*
X158662380Y-85173809D01*
X158281428Y-85173809D01*
X158129047Y-85097619D01*
X158052857Y-85021428D01*
G04 #@! TO.C,C4*
X157443333Y-90101428D02*
X157367142Y-90177619D01*
X157138571Y-90253809D01*
X156986190Y-90253809D01*
X156757619Y-90177619D01*
X156605238Y-90025238D01*
X156529047Y-89872857D01*
X156452857Y-89568095D01*
X156452857Y-89339523D01*
X156529047Y-89034761D01*
X156605238Y-88882380D01*
X156757619Y-88730000D01*
X156986190Y-88653809D01*
X157138571Y-88653809D01*
X157367142Y-88730000D01*
X157443333Y-88806190D01*
X158814761Y-89187142D02*
X158814761Y-90253809D01*
X158433809Y-88577619D02*
X158052857Y-89720476D01*
X159043333Y-89720476D01*
G04 #@! TO.C,C3*
X104941428Y-66301666D02*
X105017619Y-66377857D01*
X105093809Y-66606428D01*
X105093809Y-66758809D01*
X105017619Y-66987380D01*
X104865238Y-67139761D01*
X104712857Y-67215952D01*
X104408095Y-67292142D01*
X104179523Y-67292142D01*
X103874761Y-67215952D01*
X103722380Y-67139761D01*
X103570000Y-66987380D01*
X103493809Y-66758809D01*
X103493809Y-66606428D01*
X103570000Y-66377857D01*
X103646190Y-66301666D01*
X103493809Y-65768333D02*
X103493809Y-64777857D01*
X104103333Y-65311190D01*
X104103333Y-65082619D01*
X104179523Y-64930238D01*
X104255714Y-64854047D01*
X104408095Y-64777857D01*
X104789047Y-64777857D01*
X104941428Y-64854047D01*
X105017619Y-64930238D01*
X105093809Y-65082619D01*
X105093809Y-65539761D01*
X105017619Y-65692142D01*
X104941428Y-65768333D01*
G04 #@! TO.C,C2*
X98591428Y-66301666D02*
X98667619Y-66377857D01*
X98743809Y-66606428D01*
X98743809Y-66758809D01*
X98667619Y-66987380D01*
X98515238Y-67139761D01*
X98362857Y-67215952D01*
X98058095Y-67292142D01*
X97829523Y-67292142D01*
X97524761Y-67215952D01*
X97372380Y-67139761D01*
X97220000Y-66987380D01*
X97143809Y-66758809D01*
X97143809Y-66606428D01*
X97220000Y-66377857D01*
X97296190Y-66301666D01*
X97296190Y-65692142D02*
X97220000Y-65615952D01*
X97143809Y-65463571D01*
X97143809Y-65082619D01*
X97220000Y-64930238D01*
X97296190Y-64854047D01*
X97448571Y-64777857D01*
X97600952Y-64777857D01*
X97829523Y-64854047D01*
X98743809Y-65768333D01*
X98743809Y-64777857D01*
G04 #@! TO.C,C1*
X90768333Y-108516428D02*
X90692142Y-108592619D01*
X90463571Y-108668809D01*
X90311190Y-108668809D01*
X90082619Y-108592619D01*
X89930238Y-108440238D01*
X89854047Y-108287857D01*
X89777857Y-107983095D01*
X89777857Y-107754523D01*
X89854047Y-107449761D01*
X89930238Y-107297380D01*
X90082619Y-107145000D01*
X90311190Y-107068809D01*
X90463571Y-107068809D01*
X90692142Y-107145000D01*
X90768333Y-107221190D01*
X92292142Y-108668809D02*
X91377857Y-108668809D01*
X91835000Y-108668809D02*
X91835000Y-107068809D01*
X91682619Y-107297380D01*
X91530238Y-107449761D01*
X91377857Y-107525952D01*
G04 #@! TO.C,PS1*
X88583809Y-95412857D02*
X86983809Y-95412857D01*
X86983809Y-94803333D01*
X87060000Y-94650952D01*
X87136190Y-94574761D01*
X87288571Y-94498571D01*
X87517142Y-94498571D01*
X87669523Y-94574761D01*
X87745714Y-94650952D01*
X87821904Y-94803333D01*
X87821904Y-95412857D01*
X88507619Y-93889047D02*
X88583809Y-93660476D01*
X88583809Y-93279523D01*
X88507619Y-93127142D01*
X88431428Y-93050952D01*
X88279047Y-92974761D01*
X88126666Y-92974761D01*
X87974285Y-93050952D01*
X87898095Y-93127142D01*
X87821904Y-93279523D01*
X87745714Y-93584285D01*
X87669523Y-93736666D01*
X87593333Y-93812857D01*
X87440952Y-93889047D01*
X87288571Y-93889047D01*
X87136190Y-93812857D01*
X87060000Y-93736666D01*
X86983809Y-93584285D01*
X86983809Y-93203333D01*
X87060000Y-92974761D01*
X88583809Y-91450952D02*
X88583809Y-92365238D01*
X88583809Y-91908095D02*
X86983809Y-91908095D01*
X87212380Y-92060476D01*
X87364761Y-92212857D01*
X87440952Y-92365238D01*
G04 #@! TO.C,F1*
X102746666Y-130055714D02*
X102213333Y-130055714D01*
X102213333Y-130893809D02*
X102213333Y-129293809D01*
X102975238Y-129293809D01*
X104422857Y-130893809D02*
X103508571Y-130893809D01*
X103965714Y-130893809D02*
X103965714Y-129293809D01*
X103813333Y-129522380D01*
X103660952Y-129674761D01*
X103508571Y-129750952D01*
G04 #@! TO.C,J1*
X83123809Y-74533333D02*
X84266666Y-74533333D01*
X84495238Y-74609523D01*
X84647619Y-74761904D01*
X84723809Y-74990476D01*
X84723809Y-75142857D01*
X84723809Y-72933333D02*
X84723809Y-73847619D01*
X84723809Y-73390476D02*
X83123809Y-73390476D01*
X83352380Y-73542857D01*
X83504761Y-73695238D01*
X83580952Y-73847619D01*
G04 #@! TD*
M02*
