G04 #@! TF.GenerationSoftware,KiCad,Pcbnew,5.1.9+dfsg1-1*
G04 #@! TF.CreationDate,2021-02-08T11:18:43+01:00*
G04 #@! TF.ProjectId,Oscillator,4f736369-6c6c-4617-946f-722e6b696361,rev?*
G04 #@! TF.SameCoordinates,Original*
G04 #@! TF.FileFunction,Copper,L2,Bot*
G04 #@! TF.FilePolarity,Positive*
%FSLAX46Y46*%
G04 Gerber Fmt 4.6, Leading zero omitted, Abs format (unit mm)*
G04 Created by KiCad (PCBNEW 5.1.9+dfsg1-1) date 2021-02-08 11:18:43*
%MOMM*%
%LPD*%
G01*
G04 APERTURE LIST*
G04 #@! TA.AperFunction,NonConductor*
%ADD10C,0.250000*%
G04 #@! TD*
G04 #@! TA.AperFunction,ComponentPad*
%ADD11C,3.600000*%
G04 #@! TD*
G04 #@! TA.AperFunction,ComponentPad*
%ADD12O,1.700000X1.700000*%
G04 #@! TD*
G04 #@! TA.AperFunction,ComponentPad*
%ADD13R,1.700000X1.700000*%
G04 #@! TD*
G04 #@! TA.AperFunction,ComponentPad*
%ADD14C,3.500000*%
G04 #@! TD*
G04 #@! TA.AperFunction,ConnectorPad*
%ADD15R,6.000000X1.000000*%
G04 #@! TD*
G04 #@! TA.AperFunction,ComponentPad*
%ADD16C,1.600000*%
G04 #@! TD*
G04 #@! TA.AperFunction,ComponentPad*
%ADD17C,1.500000*%
G04 #@! TD*
G04 #@! TA.AperFunction,ComponentPad*
%ADD18O,1.600000X1.600000*%
G04 #@! TD*
G04 #@! TA.AperFunction,ComponentPad*
%ADD19R,1.600000X1.600000*%
G04 #@! TD*
G04 #@! TA.AperFunction,ComponentPad*
%ADD20C,1.440000*%
G04 #@! TD*
G04 #@! TA.AperFunction,ComponentPad*
%ADD21O,2.400000X2.400000*%
G04 #@! TD*
G04 #@! TA.AperFunction,ComponentPad*
%ADD22C,2.400000*%
G04 #@! TD*
G04 #@! TA.AperFunction,ComponentPad*
%ADD23O,2.000000X2.000000*%
G04 #@! TD*
G04 #@! TA.AperFunction,ComponentPad*
%ADD24R,2.000000X2.000000*%
G04 #@! TD*
G04 #@! TA.AperFunction,ComponentPad*
%ADD25C,2.300000*%
G04 #@! TD*
G04 #@! TA.AperFunction,Conductor*
%ADD26C,1.000000*%
G04 #@! TD*
G04 APERTURE END LIST*
D10*
X49443738Y-87006214D02*
X49367547Y-86920500D01*
X49215166Y-86834785D01*
X48834214Y-86834785D01*
X48681833Y-86920500D01*
X48605642Y-87006214D01*
X48529452Y-87177642D01*
X48529452Y-87349071D01*
X48605642Y-87606214D01*
X49519928Y-88634785D01*
X48529452Y-88634785D01*
X47538976Y-86834785D02*
X47386595Y-86834785D01*
X47234214Y-86920500D01*
X47158023Y-87006214D01*
X47081833Y-87177642D01*
X47005642Y-87520500D01*
X47005642Y-87949071D01*
X47081833Y-88291928D01*
X47158023Y-88463357D01*
X47234214Y-88549071D01*
X47386595Y-88634785D01*
X47538976Y-88634785D01*
X47691357Y-88549071D01*
X47767547Y-88463357D01*
X47843738Y-88291928D01*
X47919928Y-87949071D01*
X47919928Y-87520500D01*
X47843738Y-87177642D01*
X47767547Y-87006214D01*
X47691357Y-86920500D01*
X47538976Y-86834785D01*
X46396119Y-87006214D02*
X46319928Y-86920500D01*
X46167547Y-86834785D01*
X45786595Y-86834785D01*
X45634214Y-86920500D01*
X45558023Y-87006214D01*
X45481833Y-87177642D01*
X45481833Y-87349071D01*
X45558023Y-87606214D01*
X46472309Y-88634785D01*
X45481833Y-88634785D01*
X44491357Y-86834785D02*
X44338976Y-86834785D01*
X44186595Y-86920500D01*
X44110404Y-87006214D01*
X44034214Y-87177642D01*
X43958023Y-87520500D01*
X43958023Y-87949071D01*
X44034214Y-88291928D01*
X44110404Y-88463357D01*
X44186595Y-88549071D01*
X44338976Y-88634785D01*
X44491357Y-88634785D01*
X44643738Y-88549071D01*
X44719928Y-88463357D01*
X44796119Y-88291928D01*
X44872309Y-87949071D01*
X44872309Y-87520500D01*
X44796119Y-87177642D01*
X44719928Y-87006214D01*
X44643738Y-86920500D01*
X44491357Y-86834785D01*
X48834214Y-84516928D02*
X49367547Y-84516928D01*
X49367547Y-85459785D02*
X49367547Y-83659785D01*
X48605642Y-83659785D01*
X47996119Y-85459785D02*
X47996119Y-83659785D01*
X47615166Y-83659785D01*
X47386595Y-83745500D01*
X47234214Y-83916928D01*
X47158023Y-84088357D01*
X47081833Y-84431214D01*
X47081833Y-84688357D01*
X47158023Y-85031214D01*
X47234214Y-85202642D01*
X47386595Y-85374071D01*
X47615166Y-85459785D01*
X47996119Y-85459785D01*
X46396119Y-85459785D02*
X46396119Y-83659785D01*
X45862785Y-84945500D01*
X45329452Y-83659785D01*
X45329452Y-85459785D01*
X43119928Y-85459785D02*
X43272309Y-85374071D01*
X43348500Y-85288357D01*
X43424690Y-85116928D01*
X43424690Y-84602642D01*
X43348500Y-84431214D01*
X43272309Y-84345500D01*
X43119928Y-84259785D01*
X42891357Y-84259785D01*
X42738976Y-84345500D01*
X42662785Y-84431214D01*
X42586595Y-84602642D01*
X42586595Y-85116928D01*
X42662785Y-85288357D01*
X42738976Y-85374071D01*
X42891357Y-85459785D01*
X43119928Y-85459785D01*
X41977071Y-85374071D02*
X41824690Y-85459785D01*
X41519928Y-85459785D01*
X41367547Y-85374071D01*
X41291357Y-85202642D01*
X41291357Y-85116928D01*
X41367547Y-84945500D01*
X41519928Y-84859785D01*
X41748500Y-84859785D01*
X41900880Y-84774071D01*
X41977071Y-84602642D01*
X41977071Y-84516928D01*
X41900880Y-84345500D01*
X41748500Y-84259785D01*
X41519928Y-84259785D01*
X41367547Y-84345500D01*
X39919928Y-85374071D02*
X40072309Y-85459785D01*
X40377071Y-85459785D01*
X40529452Y-85374071D01*
X40605642Y-85288357D01*
X40681833Y-85116928D01*
X40681833Y-84602642D01*
X40605642Y-84431214D01*
X40529452Y-84345500D01*
X40377071Y-84259785D01*
X40072309Y-84259785D01*
X39919928Y-84345500D01*
X39234214Y-85459785D02*
X39234214Y-84259785D01*
X39234214Y-83659785D02*
X39310404Y-83745500D01*
X39234214Y-83831214D01*
X39158023Y-83745500D01*
X39234214Y-83659785D01*
X39234214Y-83831214D01*
X38243738Y-85459785D02*
X38396119Y-85374071D01*
X38472309Y-85202642D01*
X38472309Y-83659785D01*
X37405642Y-85459785D02*
X37558023Y-85374071D01*
X37634214Y-85202642D01*
X37634214Y-83659785D01*
X36110404Y-85459785D02*
X36110404Y-84516928D01*
X36186595Y-84345500D01*
X36338976Y-84259785D01*
X36643738Y-84259785D01*
X36796119Y-84345500D01*
X36110404Y-85374071D02*
X36262785Y-85459785D01*
X36643738Y-85459785D01*
X36796119Y-85374071D01*
X36872309Y-85202642D01*
X36872309Y-85031214D01*
X36796119Y-84859785D01*
X36643738Y-84774071D01*
X36262785Y-84774071D01*
X36110404Y-84688357D01*
X35577071Y-84259785D02*
X34967547Y-84259785D01*
X35348500Y-83659785D02*
X35348500Y-85202642D01*
X35272309Y-85374071D01*
X35119928Y-85459785D01*
X34967547Y-85459785D01*
X34205642Y-85459785D02*
X34358023Y-85374071D01*
X34434214Y-85288357D01*
X34510404Y-85116928D01*
X34510404Y-84602642D01*
X34434214Y-84431214D01*
X34358023Y-84345500D01*
X34205642Y-84259785D01*
X33977071Y-84259785D01*
X33824690Y-84345500D01*
X33748500Y-84431214D01*
X33672309Y-84602642D01*
X33672309Y-85116928D01*
X33748500Y-85288357D01*
X33824690Y-85374071D01*
X33977071Y-85459785D01*
X34205642Y-85459785D01*
X32986595Y-85459785D02*
X32986595Y-84259785D01*
X32986595Y-84602642D02*
X32910404Y-84431214D01*
X32834214Y-84345500D01*
X32681833Y-84259785D01*
X32529452Y-84259785D01*
X48641000Y-90995500D02*
X49276000Y-90995500D01*
X47371000Y-90995500D02*
X48006000Y-90995500D01*
X46101000Y-90995500D02*
X46736000Y-90995500D01*
X46101000Y-90360500D02*
X49276000Y-90360500D01*
D11*
G04 #@! TO.P,H5,1*
G04 #@! TO.N,+24V*
X171550000Y-142700000D03*
X166450000Y-142700000D03*
G04 #@! TD*
G04 #@! TO.P,H4,1*
G04 #@! TO.N,+24V*
X166450000Y-56300000D03*
X171550000Y-56300000D03*
G04 #@! TD*
G04 #@! TO.P,H3,1*
G04 #@! TO.N,+24V*
X54450000Y-56300000D03*
X59550000Y-56300000D03*
G04 #@! TD*
G04 #@! TO.P,H2,1*
G04 #@! TO.N,+24V*
X59550000Y-142700000D03*
X54450000Y-142700000D03*
G04 #@! TD*
D12*
G04 #@! TO.P,J1,2*
G04 #@! TO.N,/out_B*
X59730000Y-96465000D03*
D13*
G04 #@! TO.P,J1,1*
G04 #@! TO.N,/out_A*
X59730000Y-93925000D03*
G04 #@! TD*
D14*
G04 #@! TO.P,JPC2,1*
G04 #@! TO.N,/Sine Shaper/sq_in*
X127000000Y-93980000D03*
G04 #@! TD*
G04 #@! TO.P,JPC1,1*
G04 #@! TO.N,/Oscillator/filt_ck*
X127000000Y-109220000D03*
G04 #@! TD*
G04 #@! TO.P,JPB2,1*
G04 #@! TO.N,Net-(JPB2-Pad1)*
X132080000Y-93980000D03*
G04 #@! TD*
G04 #@! TO.P,JPB1,1*
G04 #@! TO.N,Net-(JPB1-Pad1)*
X127000000Y-104140000D03*
G04 #@! TD*
G04 #@! TO.P,JPA2,1*
G04 #@! TO.N,Net-(JPA2-Pad1)*
X127000000Y-88900000D03*
G04 #@! TD*
G04 #@! TO.P,JPA1,1*
G04 #@! TO.N,Net-(JPA1-Pad1)*
X132080000Y-109220000D03*
G04 #@! TD*
D15*
G04 #@! TO.P,J2,1*
G04 #@! TO.N,Net-(J2-Pad1)*
X180500000Y-69020000D03*
G04 #@! TO.P,J2,14*
G04 #@! TO.N,-24V*
X180500000Y-102040000D03*
G04 #@! TO.P,J2,15*
G04 #@! TO.N,Net-(J2-Pad15)*
X180500000Y-104580000D03*
G04 #@! TO.P,J2,16*
G04 #@! TO.N,Net-(J2-Pad16)*
X180500000Y-107120000D03*
G04 #@! TO.P,J2,17*
G04 #@! TO.N,Net-(J2-Pad17)*
X180500000Y-109660000D03*
G04 #@! TO.P,J2,18*
G04 #@! TO.N,Net-(J2-Pad18)*
X180500000Y-112200000D03*
G04 #@! TO.P,J2,19*
G04 #@! TO.N,Net-(J2-Pad19)*
X180500000Y-114740000D03*
G04 #@! TO.P,J2,20*
G04 #@! TO.N,Net-(J2-Pad20)*
X180500000Y-117280000D03*
G04 #@! TO.P,J2,21*
G04 #@! TO.N,Net-(J2-Pad21)*
X180500000Y-119820000D03*
G04 #@! TO.P,J2,22*
G04 #@! TO.N,Net-(J2-Pad22)*
X180500000Y-122360000D03*
G04 #@! TO.P,J2,23*
G04 #@! TO.N,Net-(J2-Pad23)*
X180500000Y-124900000D03*
G04 #@! TO.P,J2,24*
G04 #@! TO.N,Net-(J2-Pad24)*
X180500000Y-127440000D03*
G04 #@! TO.P,J2,25*
G04 #@! TO.N,Net-(J2-Pad25)*
X180500000Y-129980000D03*
G04 #@! TO.P,J2,2*
G04 #@! TO.N,/out_A*
X180500000Y-71560000D03*
G04 #@! TO.P,J2,3*
X180500000Y-74100000D03*
G04 #@! TO.P,J2,4*
G04 #@! TO.N,Net-(J2-Pad4)*
X180500000Y-76640000D03*
G04 #@! TO.P,J2,5*
G04 #@! TO.N,/out_B*
X180500000Y-79180000D03*
G04 #@! TO.P,J2,6*
X180500000Y-81720000D03*
G04 #@! TO.P,J2,7*
G04 #@! TO.N,Net-(J2-Pad7)*
X180500000Y-84260000D03*
G04 #@! TO.P,J2,8*
G04 #@! TO.N,Net-(J2-Pad8)*
X180500000Y-86800000D03*
G04 #@! TO.P,J2,9*
G04 #@! TO.N,Net-(J2-Pad9)*
X180500000Y-89340000D03*
G04 #@! TO.P,J2,10*
G04 #@! TO.N,Net-(J2-Pad10)*
X180500000Y-91880000D03*
G04 #@! TO.P,J2,11*
G04 #@! TO.N,Net-(J2-Pad11)*
X180500000Y-94420000D03*
G04 #@! TO.P,J2,12*
G04 #@! TO.N,+24V*
X180500000Y-96960000D03*
G04 #@! TO.P,J2,13*
G04 #@! TO.N,Net-(J2-Pad13)*
X180500000Y-99500000D03*
G04 #@! TD*
D11*
G04 #@! TO.P,H1,1*
G04 #@! TO.N,+24V*
X28700000Y-97000000D03*
X28700000Y-107000000D03*
X33700000Y-102000000D03*
G04 #@! TD*
D16*
G04 #@! TO.P,C11,2*
G04 #@! TO.N,GNDA*
X147955000Y-132000000D03*
G04 #@! TO.P,C11,1*
G04 #@! TO.N,Net-(C11-Pad1)*
X147955000Y-127000000D03*
G04 #@! TD*
G04 #@! TO.P,C10,2*
G04 #@! TO.N,GNDA*
X146685000Y-135255000D03*
G04 #@! TO.P,C10,1*
G04 #@! TO.N,Net-(C10-Pad1)*
X141685000Y-135255000D03*
G04 #@! TD*
G04 #@! TO.P,C9,2*
G04 #@! TO.N,Net-(C9-Pad2)*
X123270000Y-126365000D03*
G04 #@! TO.P,C9,1*
G04 #@! TO.N,/Amplifier/sin_in*
X128270000Y-126365000D03*
G04 #@! TD*
G04 #@! TO.P,C6,2*
G04 #@! TO.N,Net-(C6-Pad2)*
X156210000Y-99695000D03*
G04 #@! TO.P,C6,1*
G04 #@! TO.N,+24V*
X161210000Y-99695000D03*
G04 #@! TD*
G04 #@! TO.P,C5,2*
G04 #@! TO.N,Net-(C4-Pad1)*
X156210000Y-102870000D03*
G04 #@! TO.P,C5,1*
G04 #@! TO.N,+24V*
X161210000Y-102870000D03*
G04 #@! TD*
D17*
G04 #@! TO.P,Y1,2*
G04 #@! TO.N,Net-(C4-Pad1)*
X151765000Y-106680000D03*
G04 #@! TO.P,Y1,1*
G04 #@! TO.N,Net-(C6-Pad2)*
X151765000Y-101800000D03*
G04 #@! TD*
D18*
G04 #@! TO.P,U3,8*
G04 #@! TO.N,Net-(U3-Pad8)*
X132080000Y-69215000D03*
G04 #@! TO.P,U3,4*
G04 #@! TO.N,VEE*
X124460000Y-76835000D03*
G04 #@! TO.P,U3,7*
G04 #@! TO.N,+24V*
X132080000Y-71755000D03*
G04 #@! TO.P,U3,3*
G04 #@! TO.N,Net-(C13-Pad1)*
X124460000Y-74295000D03*
G04 #@! TO.P,U3,6*
G04 #@! TO.N,Net-(R12-Pad2)*
X132080000Y-74295000D03*
G04 #@! TO.P,U3,2*
G04 #@! TO.N,Net-(R13-Pad1)*
X124460000Y-71755000D03*
G04 #@! TO.P,U3,5*
G04 #@! TO.N,Net-(U3-Pad5)*
X132080000Y-76835000D03*
D19*
G04 #@! TO.P,U3,1*
G04 #@! TO.N,Net-(U3-Pad1)*
X124460000Y-69215000D03*
G04 #@! TD*
G04 #@! TO.P,U2,1*
G04 #@! TO.N,/Oscillator/filt_ck*
X133985000Y-124460000D03*
D18*
G04 #@! TO.P,U2,5*
G04 #@! TO.N,Net-(R5-Pad2)*
X141605000Y-132080000D03*
G04 #@! TO.P,U2,2*
G04 #@! TO.N,-5V*
X133985000Y-127000000D03*
G04 #@! TO.P,U2,6*
G04 #@! TO.N,GNDA*
X141605000Y-129540000D03*
G04 #@! TO.P,U2,3*
G04 #@! TO.N,/Amplifier/sin_in*
X133985000Y-129540000D03*
G04 #@! TO.P,U2,7*
G04 #@! TO.N,+24V*
X141605000Y-127000000D03*
G04 #@! TO.P,U2,4*
G04 #@! TO.N,Net-(C9-Pad2)*
X133985000Y-132080000D03*
G04 #@! TO.P,U2,8*
G04 #@! TO.N,Net-(C11-Pad1)*
X141605000Y-124460000D03*
G04 #@! TD*
G04 #@! TO.P,U1,16*
G04 #@! TO.N,+24V*
X144145000Y-93980000D03*
G04 #@! TO.P,U1,8*
G04 #@! TO.N,-5V*
X136525000Y-111760000D03*
G04 #@! TO.P,U1,15*
G04 #@! TO.N,Net-(JPA2-Pad1)*
X144145000Y-96520000D03*
G04 #@! TO.P,U1,7*
G04 #@! TO.N,Net-(JPA1-Pad1)*
X136525000Y-109220000D03*
G04 #@! TO.P,U1,14*
G04 #@! TO.N,Net-(U1-Pad14)*
X144145000Y-99060000D03*
G04 #@! TO.P,U1,6*
G04 #@! TO.N,Net-(U1-Pad6)*
X136525000Y-106680000D03*
G04 #@! TO.P,U1,13*
G04 #@! TO.N,Net-(U1-Pad13)*
X144145000Y-101600000D03*
G04 #@! TO.P,U1,5*
G04 #@! TO.N,Net-(U1-Pad5)*
X136525000Y-104140000D03*
G04 #@! TO.P,U1,12*
G04 #@! TO.N,-5V*
X144145000Y-104140000D03*
G04 #@! TO.P,U1,4*
G04 #@! TO.N,Net-(JPB1-Pad1)*
X136525000Y-101600000D03*
G04 #@! TO.P,U1,11*
G04 #@! TO.N,Net-(C4-Pad1)*
X144145000Y-106680000D03*
G04 #@! TO.P,U1,3*
G04 #@! TO.N,Net-(U1-Pad3)*
X136525000Y-99060000D03*
G04 #@! TO.P,U1,10*
G04 #@! TO.N,Net-(R2-Pad2)*
X144145000Y-109220000D03*
G04 #@! TO.P,U1,2*
G04 #@! TO.N,Net-(U1-Pad2)*
X136525000Y-96520000D03*
G04 #@! TO.P,U1,9*
G04 #@! TO.N,Net-(U1-Pad9)*
X144145000Y-111760000D03*
D19*
G04 #@! TO.P,U1,1*
G04 #@! TO.N,Net-(JPB2-Pad1)*
X136525000Y-93980000D03*
G04 #@! TD*
D11*
G04 #@! TO.P,TR1,0*
G04 #@! TO.N,+24V*
X156210000Y-61230000D03*
X156210000Y-75930000D03*
D16*
G04 #@! TO.P,TR1,3*
G04 #@! TO.N,Net-(C14-Pad1)*
X150114000Y-71120000D03*
G04 #@! TO.P,TR1,4*
G04 #@! TO.N,/out_B*
X162306000Y-71120000D03*
G04 #@! TO.P,TR1,2*
G04 #@! TO.N,Net-(TR1-Pad2)*
X150114000Y-68580000D03*
G04 #@! TO.P,TR1,5*
G04 #@! TO.N,Net-(TR1-Pad5)*
X162306000Y-68580000D03*
G04 #@! TO.P,TR1,1*
G04 #@! TO.N,+24V*
X150114000Y-66040000D03*
G04 #@! TO.P,TR1,6*
G04 #@! TO.N,/out_A*
X162306000Y-66040000D03*
G04 #@! TD*
D20*
G04 #@! TO.P,RV1,3*
G04 #@! TO.N,Net-(C15-Pad1)*
X113030000Y-84455000D03*
G04 #@! TO.P,RV1,2*
X115570000Y-84455000D03*
G04 #@! TO.P,RV1,1*
G04 #@! TO.N,Net-(R13-Pad2)*
X118110000Y-84455000D03*
G04 #@! TD*
D18*
G04 #@! TO.P,R14,2*
G04 #@! TO.N,Net-(R13-Pad1)*
X123190000Y-62865000D03*
D16*
G04 #@! TO.P,R14,1*
G04 #@! TO.N,Net-(C14-Pad2)*
X133350000Y-62865000D03*
G04 #@! TD*
D18*
G04 #@! TO.P,R13,2*
G04 #@! TO.N,Net-(R13-Pad2)*
X118110000Y-80010000D03*
D16*
G04 #@! TO.P,R13,1*
G04 #@! TO.N,Net-(R13-Pad1)*
X118110000Y-69850000D03*
G04 #@! TD*
D18*
G04 #@! TO.P,R12,2*
G04 #@! TO.N,Net-(R12-Pad2)*
X136525000Y-73025000D03*
D16*
G04 #@! TO.P,R12,1*
G04 #@! TO.N,Net-(C14-Pad2)*
X136525000Y-62865000D03*
G04 #@! TD*
D18*
G04 #@! TO.P,R11,2*
G04 #@! TO.N,Net-(C13-Pad1)*
X133350000Y-80010000D03*
D16*
G04 #@! TO.P,R11,1*
G04 #@! TO.N,VEE*
X123190000Y-80010000D03*
G04 #@! TD*
D18*
G04 #@! TO.P,R10,2*
G04 #@! TO.N,+24V*
X133350000Y-66040000D03*
D16*
G04 #@! TO.P,R10,1*
G04 #@! TO.N,Net-(C13-Pad1)*
X123190000Y-66040000D03*
G04 #@! TD*
D21*
G04 #@! TO.P,R9,2*
G04 #@! TO.N,-24V*
X120015000Y-97155000D03*
D22*
G04 #@! TO.P,R9,1*
G04 #@! TO.N,VEE*
X104775000Y-97155000D03*
G04 #@! TD*
D18*
G04 #@! TO.P,R8,2*
G04 #@! TO.N,Net-(C11-Pad1)*
X151130000Y-124460000D03*
D16*
G04 #@! TO.P,R8,1*
G04 #@! TO.N,GNDA*
X151130000Y-134620000D03*
G04 #@! TD*
D18*
G04 #@! TO.P,R7,2*
G04 #@! TO.N,/Sine Shaper/sq_in*
X131445000Y-118110000D03*
D16*
G04 #@! TO.P,R7,1*
G04 #@! TO.N,Net-(C11-Pad1)*
X141605000Y-118110000D03*
G04 #@! TD*
D18*
G04 #@! TO.P,R6,2*
G04 #@! TO.N,Net-(C10-Pad1)*
X120650000Y-132715000D03*
D16*
G04 #@! TO.P,R6,1*
G04 #@! TO.N,Net-(C9-Pad2)*
X130810000Y-132715000D03*
G04 #@! TD*
D18*
G04 #@! TO.P,R5,2*
G04 #@! TO.N,Net-(R5-Pad2)*
X142875000Y-138430000D03*
D16*
G04 #@! TO.P,R5,1*
G04 #@! TO.N,Net-(C10-Pad1)*
X132715000Y-138430000D03*
G04 #@! TD*
D18*
G04 #@! TO.P,R4,2*
G04 #@! TO.N,Net-(C10-Pad1)*
X120650000Y-129540000D03*
D16*
G04 #@! TO.P,R4,1*
G04 #@! TO.N,/Amplifier/sin_in*
X130810000Y-129540000D03*
G04 #@! TD*
D18*
G04 #@! TO.P,R3,2*
G04 #@! TO.N,Net-(C6-Pad2)*
X147320000Y-99060000D03*
D16*
G04 #@! TO.P,R3,1*
G04 #@! TO.N,Net-(R2-Pad2)*
X147320000Y-109220000D03*
G04 #@! TD*
D18*
G04 #@! TO.P,R2,2*
G04 #@! TO.N,Net-(R2-Pad2)*
X147320000Y-114300000D03*
D16*
G04 #@! TO.P,R2,1*
G04 #@! TO.N,Net-(C4-Pad1)*
X157480000Y-114300000D03*
G04 #@! TD*
D21*
G04 #@! TO.P,R1,2*
G04 #@! TO.N,-24V*
X120015000Y-109220000D03*
D22*
G04 #@! TO.P,R1,1*
G04 #@! TO.N,-5V*
X104775000Y-109220000D03*
G04 #@! TD*
D12*
G04 #@! TO.P,J3,11*
G04 #@! TO.N,+24V*
X172420000Y-109660000D03*
G04 #@! TO.P,J3,10*
G04 #@! TO.N,Net-(J3-Pad10)*
X172420000Y-107120000D03*
G04 #@! TO.P,J3,9*
G04 #@! TO.N,Net-(J3-Pad9)*
X172420000Y-104580000D03*
G04 #@! TO.P,J3,8*
G04 #@! TO.N,Net-(J3-Pad8)*
X172420000Y-102040000D03*
G04 #@! TO.P,J3,7*
G04 #@! TO.N,Net-(J3-Pad7)*
X172420000Y-99500000D03*
G04 #@! TO.P,J3,6*
G04 #@! TO.N,-24V*
X172420000Y-96960000D03*
G04 #@! TO.P,J3,5*
G04 #@! TO.N,Net-(J3-Pad5)*
X172420000Y-94420000D03*
G04 #@! TO.P,J3,4*
G04 #@! TO.N,Net-(J3-Pad4)*
X172420000Y-91880000D03*
G04 #@! TO.P,J3,3*
G04 #@! TO.N,Net-(J3-Pad3)*
X172420000Y-89340000D03*
G04 #@! TO.P,J3,2*
G04 #@! TO.N,Net-(J3-Pad2)*
X172420000Y-86800000D03*
D13*
G04 #@! TO.P,J3,1*
G04 #@! TO.N,Net-(J3-Pad1)*
X172420000Y-84260000D03*
G04 #@! TD*
D18*
G04 #@! TO.P,D2,2*
G04 #@! TO.N,-5V*
X115570000Y-124460000D03*
D19*
G04 #@! TO.P,D2,1*
G04 #@! TO.N,GNDA*
X115570000Y-134620000D03*
G04 #@! TD*
D18*
G04 #@! TO.P,D1,2*
G04 #@! TO.N,GNDA*
X156845000Y-134620000D03*
D19*
G04 #@! TO.P,D1,1*
G04 #@! TO.N,+24V*
X156845000Y-124460000D03*
G04 #@! TD*
D16*
G04 #@! TO.P,C15,2*
G04 #@! TO.N,/Amplifier/sin_in*
X128270000Y-121285000D03*
G04 #@! TO.P,C15,1*
G04 #@! TO.N,Net-(C15-Pad1)*
X123270000Y-121285000D03*
G04 #@! TD*
D23*
G04 #@! TO.P,C14,2*
G04 #@! TO.N,Net-(C14-Pad2)*
X143000000Y-62865000D03*
D24*
G04 #@! TO.P,C14,1*
G04 #@! TO.N,Net-(C14-Pad1)*
X143000000Y-77865000D03*
G04 #@! TD*
D16*
G04 #@! TO.P,C13,2*
G04 #@! TO.N,+24V*
X118110000Y-61040000D03*
G04 #@! TO.P,C13,1*
G04 #@! TO.N,Net-(C13-Pad1)*
X118110000Y-66040000D03*
G04 #@! TD*
D23*
G04 #@! TO.P,C12,2*
G04 #@! TO.N,VEE*
X107950000Y-76835000D03*
D24*
G04 #@! TO.P,C12,1*
G04 #@! TO.N,+24V*
X107950000Y-61835000D03*
G04 #@! TD*
D16*
G04 #@! TO.P,C8,2*
G04 #@! TO.N,-5V*
X135255000Y-121285000D03*
G04 #@! TO.P,C8,1*
G04 #@! TO.N,GNDA*
X140255000Y-121285000D03*
G04 #@! TD*
G04 #@! TO.P,C7,2*
G04 #@! TO.N,GNDA*
X144780000Y-132000000D03*
G04 #@! TO.P,C7,1*
G04 #@! TO.N,+24V*
X144780000Y-127000000D03*
G04 #@! TD*
D25*
G04 #@! TO.P,C4,1*
G04 #@! TO.N,Net-(C4-Pad1)*
X157480000Y-109855000D03*
G04 #@! TO.P,C4,2*
G04 #@! TO.N,+24V*
X161072100Y-113447100D03*
X161072100Y-106262900D03*
G04 #@! TD*
D16*
G04 #@! TO.P,C3,2*
G04 #@! TO.N,-5V*
X139145000Y-90805000D03*
G04 #@! TO.P,C3,1*
G04 #@! TO.N,+24V*
X144145000Y-90805000D03*
G04 #@! TD*
D23*
G04 #@! TO.P,C2,2*
G04 #@! TO.N,-5V*
X107950000Y-119620000D03*
D24*
G04 #@! TO.P,C2,1*
G04 #@! TO.N,GNDA*
X107950000Y-134620000D03*
G04 #@! TD*
D23*
G04 #@! TO.P,C1,2*
G04 #@! TO.N,GNDA*
X164465000Y-138190000D03*
D24*
G04 #@! TO.P,C1,1*
G04 #@! TO.N,+24V*
X164465000Y-123190000D03*
G04 #@! TD*
D26*
G04 #@! TO.N,GNDA*
X151130000Y-134620000D02*
X151130000Y-133350000D01*
X149780000Y-132000000D02*
X147955000Y-132000000D01*
X151130000Y-133350000D02*
X149780000Y-132000000D01*
X141605000Y-129540000D02*
X143510000Y-129540000D01*
X144780000Y-130810000D02*
X144780000Y-132000000D01*
X143510000Y-129540000D02*
X144780000Y-130810000D01*
X151130000Y-134620000D02*
X156845000Y-134620000D01*
X107950000Y-134620000D02*
X115570000Y-134620000D01*
X154305000Y-140970000D02*
X156845000Y-138430000D01*
X156845000Y-138430000D02*
X156845000Y-134620000D01*
X117475000Y-134620000D02*
X123825000Y-140970000D01*
X123825000Y-140970000D02*
X154305000Y-140970000D01*
X115570000Y-134620000D02*
X117475000Y-134620000D01*
X140255000Y-122635000D02*
X140255000Y-121285000D01*
X139065000Y-123825000D02*
X140255000Y-122635000D01*
X140335000Y-129540000D02*
X139065000Y-128270000D01*
X139065000Y-128270000D02*
X139065000Y-123825000D01*
X141605000Y-129540000D02*
X140335000Y-129540000D01*
X146685000Y-135255000D02*
X146685000Y-132080000D01*
X146685000Y-132080000D02*
X146605000Y-132000000D01*
X146605000Y-132000000D02*
X144780000Y-132000000D01*
X147955000Y-132000000D02*
X146605000Y-132000000D01*
X160895000Y-134620000D02*
X156845000Y-134620000D01*
X164465000Y-138190000D02*
X160895000Y-134620000D01*
G04 #@! TO.N,+24V*
X171550000Y-56300000D02*
X166450000Y-56300000D01*
X59550000Y-56300000D02*
X54450000Y-56300000D01*
X28700000Y-97000000D02*
X33700000Y-102000000D01*
X28700000Y-107000000D02*
X33700000Y-102000000D01*
X144145000Y-93980000D02*
X144145000Y-90805000D01*
X162777900Y-113447100D02*
X161072100Y-113447100D01*
X163830000Y-112395000D02*
X162777900Y-113447100D01*
X162777900Y-106262900D02*
X163830000Y-107315000D01*
X163830000Y-107315000D02*
X163830000Y-112395000D01*
X161072100Y-106262900D02*
X162777900Y-106262900D01*
X141605000Y-127000000D02*
X144780000Y-127000000D01*
X151765000Y-129540000D02*
X156845000Y-124460000D01*
X147320000Y-129540000D02*
X151765000Y-129540000D01*
X144780000Y-127000000D02*
X147320000Y-129540000D01*
X164465000Y-115134200D02*
X162777900Y-113447100D01*
X164465000Y-123190000D02*
X164465000Y-115134200D01*
X28700000Y-81790000D02*
X28700000Y-97000000D01*
X54190000Y-56300000D02*
X28700000Y-81790000D01*
X54450000Y-56300000D02*
X54190000Y-56300000D01*
X132080000Y-71755000D02*
X130175000Y-71755000D01*
X129120000Y-70700000D02*
X130175000Y-71755000D01*
X133350000Y-66040000D02*
X129120000Y-66040000D01*
X161210000Y-97710000D02*
X161210000Y-99695000D01*
X160020000Y-96520000D02*
X161210000Y-97710000D01*
X149225000Y-96520000D02*
X160020000Y-96520000D01*
X146685000Y-93980000D02*
X149225000Y-96520000D01*
X144145000Y-93980000D02*
X146685000Y-93980000D01*
X161210000Y-99695000D02*
X161210000Y-102870000D01*
X161210000Y-106125000D02*
X161210000Y-102870000D01*
X161072100Y-106262900D02*
X161210000Y-106125000D01*
X54435000Y-142700000D02*
X59550000Y-142700000D01*
X28700000Y-116965000D02*
X54435000Y-142700000D01*
X28700000Y-107000000D02*
X28700000Y-116965000D01*
X59550000Y-142700000D02*
X166450000Y-142700000D01*
X169085000Y-142700000D02*
X171550000Y-142700000D01*
X166450000Y-142700000D02*
X169085000Y-142700000D01*
X164465000Y-127635000D02*
X164465000Y-123190000D01*
X168910000Y-142525000D02*
X168910000Y-132080000D01*
X168910000Y-132080000D02*
X164465000Y-127635000D01*
X169085000Y-142700000D02*
X168910000Y-142525000D01*
X158115000Y-123190000D02*
X156845000Y-124460000D01*
X164465000Y-123190000D02*
X158115000Y-123190000D01*
X151245370Y-66040000D02*
X156210000Y-71004630D01*
X156210000Y-71004630D02*
X156210000Y-75930000D01*
X150114000Y-66040000D02*
X151245370Y-66040000D01*
X161140000Y-56300000D02*
X166450000Y-56300000D01*
X156210000Y-61230000D02*
X161140000Y-56300000D01*
X129120000Y-62085000D02*
X130410000Y-60795000D01*
X129120000Y-62085000D02*
X129120000Y-70700000D01*
X149135002Y-66040000D02*
X150114000Y-66040000D01*
X143890002Y-60795000D02*
X149135002Y-66040000D01*
X130410000Y-60795000D02*
X143890002Y-60795000D01*
X115415000Y-61040000D02*
X114620000Y-61835000D01*
X114620000Y-61835000D02*
X107950000Y-61835000D01*
X118110000Y-61040000D02*
X115415000Y-61040000D01*
X129120000Y-62065000D02*
X129120000Y-62085000D01*
X128095000Y-61040000D02*
X129120000Y-62065000D01*
X118110000Y-61040000D02*
X128095000Y-61040000D01*
X33700000Y-102000000D02*
X82855000Y-102000000D01*
X82855000Y-102000000D02*
X90405000Y-94450000D01*
X90405000Y-94450000D02*
X90405000Y-69685000D01*
X98255000Y-61835000D02*
X107950000Y-61835000D01*
X90405000Y-69685000D02*
X98255000Y-61835000D01*
X176335000Y-96960000D02*
X180500000Y-96960000D01*
X175260000Y-95885000D02*
X176335000Y-96960000D01*
X175260000Y-83599998D02*
X175260000Y-95885000D01*
X173410002Y-81750000D02*
X175260000Y-83599998D01*
X157950000Y-81750000D02*
X173410002Y-81750000D01*
X156210000Y-80010000D02*
X157950000Y-81750000D01*
X156210000Y-75930000D02*
X156210000Y-80010000D01*
X168910000Y-123190000D02*
X164465000Y-123190000D01*
X172420000Y-119680000D02*
X168910000Y-123190000D01*
X172420000Y-109660000D02*
X172420000Y-119680000D01*
G04 #@! TO.N,-5V*
X140335000Y-104140000D02*
X144145000Y-104140000D01*
X138430000Y-111760000D02*
X140335000Y-109855000D01*
X140335000Y-109855000D02*
X140335000Y-104140000D01*
X136525000Y-111760000D02*
X138430000Y-111760000D01*
X140335000Y-97790000D02*
X140335000Y-104140000D01*
X139145000Y-96600000D02*
X140335000Y-97790000D01*
X139145000Y-90805000D02*
X139145000Y-96600000D01*
X136054999Y-122084999D02*
X135255000Y-121285000D01*
X136054999Y-126061371D02*
X136054999Y-122084999D01*
X135116370Y-127000000D02*
X136054999Y-126061371D01*
X133985000Y-127000000D02*
X135116370Y-127000000D01*
X136525000Y-111760000D02*
X135255000Y-113030000D01*
X135255000Y-113030000D02*
X135255000Y-121285000D01*
X120015000Y-124460000D02*
X115570000Y-124460000D01*
X124460000Y-123825000D02*
X120650000Y-123825000D01*
X125730000Y-122555000D02*
X124460000Y-123825000D01*
X125730000Y-120650000D02*
X125730000Y-122555000D01*
X129707000Y-119484999D02*
X126895001Y-119484999D01*
X126895001Y-119484999D02*
X125730000Y-120650000D01*
X130810000Y-120587999D02*
X129707000Y-119484999D01*
X120650000Y-123825000D02*
X120015000Y-124460000D01*
X130810000Y-125095000D02*
X130810000Y-120587999D01*
X132715000Y-127000000D02*
X130810000Y-125095000D01*
X133985000Y-127000000D02*
X132715000Y-127000000D01*
X110730000Y-119620000D02*
X115570000Y-124460000D01*
X107950000Y-119620000D02*
X110730000Y-119620000D01*
X107950000Y-112395000D02*
X107950000Y-119620000D01*
X104775000Y-109220000D02*
X107950000Y-112395000D01*
G04 #@! TO.N,Net-(C4-Pad1)*
X157480000Y-109855000D02*
X157480000Y-107950000D01*
X157480000Y-114300000D02*
X157480000Y-109855000D01*
X151765000Y-106680000D02*
X144145000Y-106680000D01*
X156210000Y-106680000D02*
X157480000Y-107950000D01*
X156210000Y-102870000D02*
X156210000Y-106680000D01*
X156210000Y-106680000D02*
X151765000Y-106680000D01*
G04 #@! TO.N,Net-(C9-Pad2)*
X133985000Y-132080000D02*
X132715000Y-132080000D01*
X132080000Y-132715000D02*
X130810000Y-132715000D01*
X132715000Y-132080000D02*
X132080000Y-132715000D01*
X127635000Y-132715000D02*
X130810000Y-132715000D01*
X123270000Y-128350000D02*
X127635000Y-132715000D01*
X123270000Y-126365000D02*
X123270000Y-128350000D01*
G04 #@! TO.N,/Amplifier/sin_in*
X133985000Y-129540000D02*
X130810000Y-129540000D01*
X128270000Y-121285000D02*
X128270000Y-126365000D01*
X130810000Y-129540000D02*
X129540000Y-129540000D01*
X128270000Y-128270000D02*
X128270000Y-126365000D01*
X129540000Y-129540000D02*
X128270000Y-128270000D01*
G04 #@! TO.N,Net-(C10-Pad1)*
X120650000Y-129540000D02*
X120650000Y-132715000D01*
X126365000Y-138430000D02*
X120650000Y-132715000D01*
X135890000Y-135255000D02*
X132715000Y-138430000D01*
X141685000Y-135255000D02*
X135890000Y-135255000D01*
X132715000Y-138430000D02*
X126365000Y-138430000D01*
G04 #@! TO.N,Net-(C11-Pad1)*
X147955000Y-125730000D02*
X147955000Y-127000000D01*
X146685000Y-124460000D02*
X147955000Y-125730000D01*
X149225000Y-124460000D02*
X147955000Y-125730000D01*
X151130000Y-124460000D02*
X149225000Y-124460000D01*
X141605000Y-118110000D02*
X142875000Y-119380000D01*
X142875000Y-124460000D02*
X146685000Y-124460000D01*
X142875000Y-119380000D02*
X142875000Y-124460000D01*
X141605000Y-124460000D02*
X142875000Y-124460000D01*
G04 #@! TO.N,VEE*
X123190000Y-80010000D02*
X123190000Y-76835000D01*
X123190000Y-76835000D02*
X124460000Y-76835000D01*
X107950000Y-76835000D02*
X123190000Y-76835000D01*
X107950000Y-93980000D02*
X104775000Y-97155000D01*
X107950000Y-76835000D02*
X107950000Y-93980000D01*
G04 #@! TO.N,Net-(C13-Pad1)*
X127000000Y-74295000D02*
X124460000Y-74295000D01*
X128270000Y-75565000D02*
X127000000Y-74295000D01*
X130175000Y-80010000D02*
X128270000Y-78105000D01*
X128270000Y-78105000D02*
X128270000Y-75565000D01*
X133350000Y-80010000D02*
X130175000Y-80010000D01*
X118110000Y-66040000D02*
X123190000Y-66040000D01*
X116840000Y-66040000D02*
X118110000Y-66040000D01*
X115570000Y-67310000D02*
X116840000Y-66040000D01*
X115570000Y-73025000D02*
X115570000Y-67310000D01*
X116840000Y-74295000D02*
X115570000Y-73025000D01*
X124460000Y-74295000D02*
X116840000Y-74295000D01*
G04 #@! TO.N,Net-(C14-Pad2)*
X143000000Y-62865000D02*
X136525000Y-62865000D01*
X133350000Y-62865000D02*
X136525000Y-62865000D01*
G04 #@! TO.N,Net-(C14-Pad1)*
X150114000Y-71120000D02*
X150114000Y-73406000D01*
X145655000Y-77865000D02*
X143000000Y-77865000D01*
X150114000Y-73406000D02*
X145655000Y-77865000D01*
G04 #@! TO.N,Net-(C15-Pad1)*
X113030000Y-84455000D02*
X115570000Y-84455000D01*
X115570000Y-113585000D02*
X123270000Y-121285000D01*
X115570000Y-84455000D02*
X115570000Y-113585000D01*
G04 #@! TO.N,/out_B*
X175260000Y-80645000D02*
X176335000Y-81720000D01*
X175260000Y-79180000D02*
X175260000Y-80645000D01*
X176335000Y-81720000D02*
X180500000Y-81720000D01*
X180500000Y-79180000D02*
X175260000Y-79180000D01*
X172525000Y-79180000D02*
X175260000Y-79180000D01*
X169545000Y-73260000D02*
X169545000Y-76200000D01*
X167405000Y-71120000D02*
X169545000Y-73260000D01*
X169545000Y-76200000D02*
X172525000Y-79180000D01*
X162306000Y-71120000D02*
X167405000Y-71120000D01*
X85325000Y-58890000D02*
X146920000Y-58890000D01*
X80880000Y-63335000D02*
X85325000Y-58890000D01*
X159150000Y-71120000D02*
X162306000Y-71120000D01*
X80880000Y-88735000D02*
X80880000Y-63335000D01*
X73150000Y-96465000D02*
X80880000Y-88735000D01*
X146920000Y-58890000D02*
X159150000Y-71120000D01*
X59730000Y-96465000D02*
X73150000Y-96465000D01*
G04 #@! TO.N,/out_A*
X175260000Y-73025000D02*
X175260000Y-71590000D01*
X176335000Y-74100000D02*
X175260000Y-73025000D01*
X180500000Y-74100000D02*
X176335000Y-74100000D01*
X167405000Y-66040000D02*
X162306000Y-66040000D01*
X172925000Y-71560000D02*
X167405000Y-66040000D01*
X180500000Y-71560000D02*
X172925000Y-71560000D01*
X156875998Y-66040000D02*
X162306000Y-66040000D01*
X147185998Y-56350000D02*
X156875998Y-66040000D01*
X84055000Y-56350000D02*
X147185998Y-56350000D01*
X78340000Y-62065000D02*
X84055000Y-56350000D01*
X78340000Y-87465000D02*
X78340000Y-62065000D01*
X71880000Y-93925000D02*
X78340000Y-87465000D01*
X59730000Y-93925000D02*
X71880000Y-93925000D01*
G04 #@! TO.N,-24V*
X120015000Y-109220000D02*
X120015000Y-97155000D01*
X144780000Y-85090000D02*
X124460000Y-85090000D01*
X124460000Y-85090000D02*
X120015000Y-89535000D01*
X151765000Y-92075000D02*
X144780000Y-85090000D01*
X161290000Y-92075000D02*
X151765000Y-92075000D01*
X120015000Y-89535000D02*
X120015000Y-97155000D01*
X166175000Y-96960000D02*
X161290000Y-92075000D01*
X172420000Y-96960000D02*
X166175000Y-96960000D01*
X175241000Y-100946000D02*
X176335000Y-102040000D01*
X176335000Y-102040000D02*
X180500000Y-102040000D01*
X175241000Y-98641000D02*
X175241000Y-100946000D01*
X173560000Y-96960000D02*
X175241000Y-98641000D01*
X172420000Y-96960000D02*
X173560000Y-96960000D01*
G04 #@! TO.N,/Oscillator/filt_ck*
X132715000Y-123190000D02*
X133985000Y-124460000D01*
X132715000Y-120650000D02*
X132715000Y-123190000D01*
X133245001Y-120119999D02*
X132715000Y-120650000D01*
X133245001Y-115465001D02*
X133245001Y-120119999D01*
X127000000Y-109220000D02*
X133245001Y-115465001D01*
G04 #@! TO.N,/Sine Shaper/sq_in*
X123190000Y-97790000D02*
X127000000Y-93980000D01*
X126365000Y-114935000D02*
X123190000Y-111760000D01*
X128270000Y-114935000D02*
X126365000Y-114935000D01*
X123190000Y-111760000D02*
X123190000Y-97790000D01*
X131445000Y-118110000D02*
X128270000Y-114935000D01*
G04 #@! TO.N,Net-(R5-Pad2)*
X141605000Y-132080000D02*
X144145000Y-134620000D01*
X142875000Y-138430000D02*
X144145000Y-137160000D01*
X144145000Y-137160000D02*
X144145000Y-134620000D01*
G04 #@! TO.N,Net-(R12-Pad2)*
X135255000Y-74295000D02*
X136525000Y-73025000D01*
X132080000Y-74295000D02*
X135255000Y-74295000D01*
G04 #@! TO.N,Net-(R13-Pad2)*
X118110000Y-84455000D02*
X118110000Y-80010000D01*
G04 #@! TO.N,Net-(R13-Pad1)*
X124460000Y-71755000D02*
X125730000Y-71755000D01*
X125730000Y-71755000D02*
X127000000Y-70485000D01*
X127000000Y-70485000D02*
X127000000Y-64135000D01*
X125730000Y-62865000D02*
X123190000Y-62865000D01*
X127000000Y-64135000D02*
X125730000Y-62865000D01*
X120015000Y-71755000D02*
X118110000Y-69850000D01*
X124460000Y-71755000D02*
X120015000Y-71755000D01*
G04 #@! TO.N,Net-(C6-Pad2)*
X151765000Y-100330000D02*
X151765000Y-101600000D01*
X150495000Y-99060000D02*
X151765000Y-100330000D01*
X147320000Y-99060000D02*
X150495000Y-99060000D01*
X152400000Y-99695000D02*
X151765000Y-100330000D01*
X152400000Y-99695000D02*
X156210000Y-99695000D01*
G04 #@! TO.N,Net-(R2-Pad2)*
X144145000Y-109220000D02*
X147320000Y-109220000D01*
X147320000Y-114300000D02*
X147320000Y-109220000D01*
G04 #@! TO.N,Net-(JPA1-Pad1)*
X136525000Y-109220000D02*
X132080000Y-109220000D01*
G04 #@! TO.N,Net-(JPA2-Pad1)*
X137795000Y-88265000D02*
X137160000Y-88900000D01*
X141605000Y-89535000D02*
X140335000Y-88265000D01*
X137160000Y-88900000D02*
X127000000Y-88900000D01*
X141605000Y-95111370D02*
X141605000Y-89535000D01*
X140335000Y-88265000D02*
X137795000Y-88265000D01*
X143013630Y-96520000D02*
X141605000Y-95111370D01*
X144145000Y-96520000D02*
X143013630Y-96520000D01*
G04 #@! TO.N,Net-(JPB1-Pad1)*
X129540000Y-101600000D02*
X127000000Y-104140000D01*
X136525000Y-101600000D02*
X129540000Y-101600000D01*
G04 #@! TO.N,Net-(JPB2-Pad1)*
X136525000Y-93980000D02*
X132080000Y-93980000D01*
G04 #@! TD*
M02*
