G04 #@! TF.GenerationSoftware,KiCad,Pcbnew,5.1.9+dfsg1-1*
G04 #@! TF.CreationDate,2021-02-08T11:18:43+01:00*
G04 #@! TF.ProjectId,Oscillator,4f736369-6c6c-4617-946f-722e6b696361,rev?*
G04 #@! TF.SameCoordinates,Original*
G04 #@! TF.FileFunction,Legend,Top*
G04 #@! TF.FilePolarity,Positive*
%FSLAX46Y46*%
G04 Gerber Fmt 4.6, Leading zero omitted, Abs format (unit mm)*
G04 Created by KiCad (PCBNEW 5.1.9+dfsg1-1) date 2021-02-08 11:18:43*
%MOMM*%
%LPD*%
G01*
G04 APERTURE LIST*
%ADD10C,0.120000*%
%ADD11C,0.500000*%
%ADD12C,0.200000*%
%ADD13C,0.250000*%
%ADD14C,0.150000*%
G04 APERTURE END LIST*
D10*
G04 #@! TO.C,J1*
X58400000Y-95195000D02*
X61060000Y-95195000D01*
X58400000Y-95195000D02*
X58400000Y-97795000D01*
X58400000Y-97795000D02*
X61060000Y-97795000D01*
X61060000Y-95195000D02*
X61060000Y-97795000D01*
X61060000Y-92595000D02*
X61060000Y-93925000D01*
X59730000Y-92595000D02*
X61060000Y-92595000D01*
D11*
G04 #@! TO.C,JPC2*
X128500000Y-93980000D02*
G75*
G03*
X128500000Y-93980000I-1500000J0D01*
G01*
X125900000Y-92880000D02*
X125700000Y-92680000D01*
X128100000Y-95080000D02*
X128300000Y-95280000D01*
G04 #@! TO.C,JPC1*
X128500000Y-109220000D02*
G75*
G03*
X128500000Y-109220000I-1500000J0D01*
G01*
X125900000Y-108120000D02*
X125700000Y-107920000D01*
X128100000Y-110320000D02*
X128300000Y-110520000D01*
G04 #@! TO.C,JPB2*
X133580000Y-93980000D02*
G75*
G03*
X133580000Y-93980000I-1500000J0D01*
G01*
X130980000Y-92880000D02*
X130780000Y-92680000D01*
X133180000Y-95080000D02*
X133380000Y-95280000D01*
G04 #@! TO.C,JPB1*
X128500000Y-104140000D02*
G75*
G03*
X128500000Y-104140000I-1500000J0D01*
G01*
X125900000Y-103040000D02*
X125700000Y-102840000D01*
X128100000Y-105240000D02*
X128300000Y-105440000D01*
G04 #@! TO.C,JPA2*
X128500000Y-88900000D02*
G75*
G03*
X128500000Y-88900000I-1500000J0D01*
G01*
X125900000Y-87800000D02*
X125700000Y-87600000D01*
X128100000Y-90000000D02*
X128300000Y-90200000D01*
G04 #@! TO.C,JPA1*
X133580000Y-109220000D02*
G75*
G03*
X133580000Y-109220000I-1500000J0D01*
G01*
X130980000Y-108120000D02*
X130780000Y-107920000D01*
X133180000Y-110320000D02*
X133380000Y-110520000D01*
D10*
G04 #@! TO.C,C11*
X146900000Y-131770000D02*
X146885000Y-131770000D01*
X149025000Y-131770000D02*
X149010000Y-131770000D01*
X146900000Y-127230000D02*
X146885000Y-127230000D01*
X149025000Y-127230000D02*
X149010000Y-127230000D01*
X146885000Y-127230000D02*
X146885000Y-131770000D01*
X149025000Y-127230000D02*
X149025000Y-131770000D01*
G04 #@! TO.C,C10*
X146455000Y-136310000D02*
X146455000Y-136325000D01*
X146455000Y-134185000D02*
X146455000Y-134200000D01*
X141915000Y-136310000D02*
X141915000Y-136325000D01*
X141915000Y-134185000D02*
X141915000Y-134200000D01*
X141915000Y-136325000D02*
X146455000Y-136325000D01*
X141915000Y-134185000D02*
X146455000Y-134185000D01*
G04 #@! TO.C,C9*
X123500000Y-125310000D02*
X123500000Y-125295000D01*
X123500000Y-127435000D02*
X123500000Y-127420000D01*
X128040000Y-125310000D02*
X128040000Y-125295000D01*
X128040000Y-127435000D02*
X128040000Y-127420000D01*
X128040000Y-125295000D02*
X123500000Y-125295000D01*
X128040000Y-127435000D02*
X123500000Y-127435000D01*
G04 #@! TO.C,C6*
X156440000Y-98640000D02*
X156440000Y-98625000D01*
X156440000Y-100765000D02*
X156440000Y-100750000D01*
X160980000Y-98640000D02*
X160980000Y-98625000D01*
X160980000Y-100765000D02*
X160980000Y-100750000D01*
X160980000Y-98625000D02*
X156440000Y-98625000D01*
X160980000Y-100765000D02*
X156440000Y-100765000D01*
G04 #@! TO.C,C5*
X156440000Y-101815000D02*
X156440000Y-101800000D01*
X156440000Y-103940000D02*
X156440000Y-103925000D01*
X160980000Y-101815000D02*
X160980000Y-101800000D01*
X160980000Y-103940000D02*
X160980000Y-103925000D01*
X160980000Y-101800000D02*
X156440000Y-101800000D01*
X160980000Y-103940000D02*
X156440000Y-103940000D01*
G04 #@! TO.C,Y1*
X154290000Y-101115000D02*
X154290000Y-107365000D01*
X149240000Y-101115000D02*
X149240000Y-107365000D01*
X149240000Y-107365000D02*
G75*
G03*
X154290000Y-107365000I2525000J0D01*
G01*
X149240000Y-101115000D02*
G75*
G02*
X154290000Y-101115000I2525000J0D01*
G01*
G04 #@! TO.C,U3*
X127270000Y-67885000D02*
X125620000Y-67885000D01*
X125620000Y-67885000D02*
X125620000Y-78165000D01*
X125620000Y-78165000D02*
X130920000Y-78165000D01*
X130920000Y-78165000D02*
X130920000Y-67885000D01*
X130920000Y-67885000D02*
X129270000Y-67885000D01*
X123130000Y-67825000D02*
X123130000Y-78225000D01*
X123130000Y-78225000D02*
X133410000Y-78225000D01*
X133410000Y-78225000D02*
X133410000Y-67825000D01*
X133410000Y-67825000D02*
X123130000Y-67825000D01*
X129270000Y-67885000D02*
G75*
G02*
X127270000Y-67885000I-1000000J0D01*
G01*
G04 #@! TO.C,U2*
X142935000Y-123070000D02*
X132655000Y-123070000D01*
X142935000Y-133470000D02*
X142935000Y-123070000D01*
X132655000Y-133470000D02*
X142935000Y-133470000D01*
X132655000Y-123070000D02*
X132655000Y-133470000D01*
X140445000Y-123130000D02*
X138795000Y-123130000D01*
X140445000Y-133410000D02*
X140445000Y-123130000D01*
X135145000Y-133410000D02*
X140445000Y-133410000D01*
X135145000Y-123130000D02*
X135145000Y-133410000D01*
X136795000Y-123130000D02*
X135145000Y-123130000D01*
X138795000Y-123130000D02*
G75*
G02*
X136795000Y-123130000I-1000000J0D01*
G01*
G04 #@! TO.C,U1*
X139335000Y-92650000D02*
X137685000Y-92650000D01*
X137685000Y-92650000D02*
X137685000Y-113090000D01*
X137685000Y-113090000D02*
X142985000Y-113090000D01*
X142985000Y-113090000D02*
X142985000Y-92650000D01*
X142985000Y-92650000D02*
X141335000Y-92650000D01*
X135195000Y-92590000D02*
X135195000Y-113150000D01*
X135195000Y-113150000D02*
X145475000Y-113150000D01*
X145475000Y-113150000D02*
X145475000Y-92590000D01*
X145475000Y-92590000D02*
X135195000Y-92590000D01*
X141335000Y-92650000D02*
G75*
G02*
X139335000Y-92650000I-1000000J0D01*
G01*
G04 #@! TO.C,TR1*
X158210000Y-76080000D02*
X163710000Y-76080000D01*
X154210000Y-61080000D02*
X148710000Y-61080000D01*
X163710000Y-61080000D02*
X158210000Y-61080000D01*
X163710000Y-76080000D02*
X163710000Y-61080000D01*
X148710000Y-76080000D02*
X154210000Y-76080000D01*
X148710000Y-61080000D02*
X148710000Y-76080000D01*
G04 #@! TO.C,RV1*
X110685000Y-82425000D02*
X120455000Y-82425000D01*
X110685000Y-88765000D02*
X120455000Y-88765000D01*
X110685000Y-82425000D02*
X110685000Y-88765000D01*
X120455000Y-82425000D02*
X120455000Y-88765000D01*
G04 #@! TO.C,R14*
X131540000Y-64235000D02*
X131540000Y-61495000D01*
X131540000Y-61495000D02*
X125000000Y-61495000D01*
X125000000Y-61495000D02*
X125000000Y-64235000D01*
X125000000Y-64235000D02*
X131540000Y-64235000D01*
X132310000Y-62865000D02*
X131540000Y-62865000D01*
X124230000Y-62865000D02*
X125000000Y-62865000D01*
G04 #@! TO.C,R13*
X119480000Y-71660000D02*
X116740000Y-71660000D01*
X116740000Y-71660000D02*
X116740000Y-78200000D01*
X116740000Y-78200000D02*
X119480000Y-78200000D01*
X119480000Y-78200000D02*
X119480000Y-71660000D01*
X118110000Y-70890000D02*
X118110000Y-71660000D01*
X118110000Y-78970000D02*
X118110000Y-78200000D01*
G04 #@! TO.C,R12*
X137895000Y-64675000D02*
X135155000Y-64675000D01*
X135155000Y-64675000D02*
X135155000Y-71215000D01*
X135155000Y-71215000D02*
X137895000Y-71215000D01*
X137895000Y-71215000D02*
X137895000Y-64675000D01*
X136525000Y-63905000D02*
X136525000Y-64675000D01*
X136525000Y-71985000D02*
X136525000Y-71215000D01*
G04 #@! TO.C,R11*
X125000000Y-78640000D02*
X125000000Y-81380000D01*
X125000000Y-81380000D02*
X131540000Y-81380000D01*
X131540000Y-81380000D02*
X131540000Y-78640000D01*
X131540000Y-78640000D02*
X125000000Y-78640000D01*
X124230000Y-80010000D02*
X125000000Y-80010000D01*
X132310000Y-80010000D02*
X131540000Y-80010000D01*
G04 #@! TO.C,R10*
X125000000Y-64670000D02*
X125000000Y-67410000D01*
X125000000Y-67410000D02*
X131540000Y-67410000D01*
X131540000Y-67410000D02*
X131540000Y-64670000D01*
X131540000Y-64670000D02*
X125000000Y-64670000D01*
X124230000Y-66040000D02*
X125000000Y-66040000D01*
X132310000Y-66040000D02*
X131540000Y-66040000D01*
G04 #@! TO.C,R9*
X106325000Y-94785000D02*
X106325000Y-99525000D01*
X106325000Y-99525000D02*
X118465000Y-99525000D01*
X118465000Y-99525000D02*
X118465000Y-94785000D01*
X118465000Y-94785000D02*
X106325000Y-94785000D01*
X106215000Y-97155000D02*
X106325000Y-97155000D01*
X118575000Y-97155000D02*
X118465000Y-97155000D01*
G04 #@! TO.C,R8*
X149760000Y-132810000D02*
X152500000Y-132810000D01*
X152500000Y-132810000D02*
X152500000Y-126270000D01*
X152500000Y-126270000D02*
X149760000Y-126270000D01*
X149760000Y-126270000D02*
X149760000Y-132810000D01*
X151130000Y-133580000D02*
X151130000Y-132810000D01*
X151130000Y-125500000D02*
X151130000Y-126270000D01*
G04 #@! TO.C,R7*
X139795000Y-119480000D02*
X139795000Y-116740000D01*
X139795000Y-116740000D02*
X133255000Y-116740000D01*
X133255000Y-116740000D02*
X133255000Y-119480000D01*
X133255000Y-119480000D02*
X139795000Y-119480000D01*
X140565000Y-118110000D02*
X139795000Y-118110000D01*
X132485000Y-118110000D02*
X133255000Y-118110000D01*
G04 #@! TO.C,R6*
X129000000Y-134085000D02*
X129000000Y-131345000D01*
X129000000Y-131345000D02*
X122460000Y-131345000D01*
X122460000Y-131345000D02*
X122460000Y-134085000D01*
X122460000Y-134085000D02*
X129000000Y-134085000D01*
X129770000Y-132715000D02*
X129000000Y-132715000D01*
X121690000Y-132715000D02*
X122460000Y-132715000D01*
G04 #@! TO.C,R5*
X134525000Y-137060000D02*
X134525000Y-139800000D01*
X134525000Y-139800000D02*
X141065000Y-139800000D01*
X141065000Y-139800000D02*
X141065000Y-137060000D01*
X141065000Y-137060000D02*
X134525000Y-137060000D01*
X133755000Y-138430000D02*
X134525000Y-138430000D01*
X141835000Y-138430000D02*
X141065000Y-138430000D01*
G04 #@! TO.C,R4*
X129000000Y-130910000D02*
X129000000Y-128170000D01*
X129000000Y-128170000D02*
X122460000Y-128170000D01*
X122460000Y-128170000D02*
X122460000Y-130910000D01*
X122460000Y-130910000D02*
X129000000Y-130910000D01*
X129770000Y-129540000D02*
X129000000Y-129540000D01*
X121690000Y-129540000D02*
X122460000Y-129540000D01*
G04 #@! TO.C,R3*
X145950000Y-107410000D02*
X148690000Y-107410000D01*
X148690000Y-107410000D02*
X148690000Y-100870000D01*
X148690000Y-100870000D02*
X145950000Y-100870000D01*
X145950000Y-100870000D02*
X145950000Y-107410000D01*
X147320000Y-108180000D02*
X147320000Y-107410000D01*
X147320000Y-100100000D02*
X147320000Y-100870000D01*
G04 #@! TO.C,R2*
X155670000Y-115670000D02*
X155670000Y-112930000D01*
X155670000Y-112930000D02*
X149130000Y-112930000D01*
X149130000Y-112930000D02*
X149130000Y-115670000D01*
X149130000Y-115670000D02*
X155670000Y-115670000D01*
X156440000Y-114300000D02*
X155670000Y-114300000D01*
X148360000Y-114300000D02*
X149130000Y-114300000D01*
G04 #@! TO.C,R1*
X106325000Y-106850000D02*
X106325000Y-111590000D01*
X106325000Y-111590000D02*
X118465000Y-111590000D01*
X118465000Y-111590000D02*
X118465000Y-106850000D01*
X118465000Y-106850000D02*
X106325000Y-106850000D01*
X106215000Y-109220000D02*
X106325000Y-109220000D01*
X118575000Y-109220000D02*
X118465000Y-109220000D01*
G04 #@! TO.C,J3*
X171090000Y-110990000D02*
X173750000Y-110990000D01*
X171090000Y-85530000D02*
X171090000Y-110990000D01*
X173750000Y-85530000D02*
X173750000Y-110990000D01*
X171090000Y-85530000D02*
X173750000Y-85530000D01*
X171090000Y-84260000D02*
X171090000Y-82930000D01*
X171090000Y-82930000D02*
X172420000Y-82930000D01*
G04 #@! TO.C,D2*
X114450000Y-131660000D02*
X116690000Y-131660000D01*
X116690000Y-131660000D02*
X116690000Y-127420000D01*
X116690000Y-127420000D02*
X114450000Y-127420000D01*
X114450000Y-127420000D02*
X114450000Y-131660000D01*
X115570000Y-133580000D02*
X115570000Y-131660000D01*
X115570000Y-125500000D02*
X115570000Y-127420000D01*
X114450000Y-130940000D02*
X116690000Y-130940000D01*
X114450000Y-130820000D02*
X116690000Y-130820000D01*
X114450000Y-131060000D02*
X116690000Y-131060000D01*
G04 #@! TO.C,D1*
X157965000Y-127420000D02*
X155725000Y-127420000D01*
X155725000Y-127420000D02*
X155725000Y-131660000D01*
X155725000Y-131660000D02*
X157965000Y-131660000D01*
X157965000Y-131660000D02*
X157965000Y-127420000D01*
X156845000Y-125500000D02*
X156845000Y-127420000D01*
X156845000Y-133580000D02*
X156845000Y-131660000D01*
X157965000Y-128140000D02*
X155725000Y-128140000D01*
X157965000Y-128260000D02*
X155725000Y-128260000D01*
X157965000Y-128020000D02*
X155725000Y-128020000D01*
G04 #@! TO.C,C15*
X122050000Y-118415000D02*
X129490000Y-118415000D01*
X122050000Y-124155000D02*
X129490000Y-124155000D01*
X122050000Y-118415000D02*
X122050000Y-124155000D01*
X129490000Y-118415000D02*
X129490000Y-124155000D01*
G04 #@! TO.C,C14*
X140800000Y-77735000D02*
X140800000Y-76235000D01*
X140050000Y-76985000D02*
X141550000Y-76985000D01*
X138880000Y-75985000D02*
X147120000Y-75985000D01*
X138880000Y-64745000D02*
X147120000Y-64745000D01*
X138880000Y-75985000D02*
X138880000Y-74485000D01*
X138880000Y-74485000D02*
X139630000Y-73735000D01*
X139630000Y-73735000D02*
X138880000Y-72985000D01*
X138880000Y-72985000D02*
X138880000Y-64745000D01*
X147120000Y-75985000D02*
X147120000Y-74485000D01*
X147120000Y-74485000D02*
X146370000Y-73735000D01*
X146370000Y-73735000D02*
X147120000Y-72985000D01*
X147120000Y-72985000D02*
X147120000Y-64745000D01*
X143000000Y-76625000D02*
X143000000Y-75985000D01*
X143000000Y-64105000D02*
X143000000Y-64745000D01*
G04 #@! TO.C,C13*
X115240000Y-67260000D02*
X115240000Y-59820000D01*
X120980000Y-67260000D02*
X120980000Y-59820000D01*
X115240000Y-67260000D02*
X120980000Y-67260000D01*
X115240000Y-59820000D02*
X120980000Y-59820000D01*
G04 #@! TO.C,C12*
X110150000Y-61965000D02*
X110150000Y-63465000D01*
X110900000Y-62715000D02*
X109400000Y-62715000D01*
X112070000Y-63715000D02*
X103830000Y-63715000D01*
X112070000Y-74955000D02*
X103830000Y-74955000D01*
X112070000Y-63715000D02*
X112070000Y-65215000D01*
X112070000Y-65215000D02*
X111320000Y-65965000D01*
X111320000Y-65965000D02*
X112070000Y-66715000D01*
X112070000Y-66715000D02*
X112070000Y-74955000D01*
X103830000Y-63715000D02*
X103830000Y-65215000D01*
X103830000Y-65215000D02*
X104580000Y-65965000D01*
X104580000Y-65965000D02*
X103830000Y-66715000D01*
X103830000Y-66715000D02*
X103830000Y-74955000D01*
X107950000Y-63075000D02*
X107950000Y-63715000D01*
X107950000Y-75595000D02*
X107950000Y-74955000D01*
G04 #@! TO.C,C8*
X141475000Y-122655000D02*
X134035000Y-122655000D01*
X141475000Y-119915000D02*
X134035000Y-119915000D01*
X141475000Y-122655000D02*
X141475000Y-119915000D01*
X134035000Y-122655000D02*
X134035000Y-119915000D01*
G04 #@! TO.C,C7*
X146150000Y-125780000D02*
X146150000Y-133220000D01*
X143410000Y-125780000D02*
X143410000Y-133220000D01*
X146150000Y-125780000D02*
X143410000Y-125780000D01*
X146150000Y-133220000D02*
X143410000Y-133220000D01*
D12*
G04 #@! TO.C,C4*
X157262099Y-107950000D02*
X155992100Y-107950000D01*
X155992100Y-107950000D02*
X155992100Y-111760000D01*
X155992100Y-111760000D02*
X157262099Y-111760000D01*
X157262099Y-111760000D02*
G75*
G03*
X159167100Y-113665000I3810000J1905001D01*
G01*
X162977100Y-106045000D02*
G75*
G02*
X162977100Y-113665000I-1905000J-3810000D01*
G01*
X157262099Y-107950000D02*
G75*
G02*
X159167100Y-106045000I3810000J-1905001D01*
G01*
D10*
G04 #@! TO.C,C3*
X145365000Y-92175000D02*
X137925000Y-92175000D01*
X145365000Y-89435000D02*
X137925000Y-89435000D01*
X145365000Y-92175000D02*
X145365000Y-89435000D01*
X137925000Y-92175000D02*
X137925000Y-89435000D01*
G04 #@! TO.C,C2*
X105750000Y-134490000D02*
X105750000Y-132990000D01*
X105000000Y-133740000D02*
X106500000Y-133740000D01*
X103830000Y-132740000D02*
X112070000Y-132740000D01*
X103830000Y-121500000D02*
X112070000Y-121500000D01*
X103830000Y-132740000D02*
X103830000Y-131240000D01*
X103830000Y-131240000D02*
X104580000Y-130490000D01*
X104580000Y-130490000D02*
X103830000Y-129740000D01*
X103830000Y-129740000D02*
X103830000Y-121500000D01*
X112070000Y-132740000D02*
X112070000Y-131240000D01*
X112070000Y-131240000D02*
X111320000Y-130490000D01*
X111320000Y-130490000D02*
X112070000Y-129740000D01*
X112070000Y-129740000D02*
X112070000Y-121500000D01*
X107950000Y-133380000D02*
X107950000Y-132740000D01*
X107950000Y-120860000D02*
X107950000Y-121500000D01*
G04 #@! TO.C,C1*
X166665000Y-123320000D02*
X166665000Y-124820000D01*
X167415000Y-124070000D02*
X165915000Y-124070000D01*
X168585000Y-125070000D02*
X160345000Y-125070000D01*
X168585000Y-136310000D02*
X160345000Y-136310000D01*
X168585000Y-125070000D02*
X168585000Y-126570000D01*
X168585000Y-126570000D02*
X167835000Y-127320000D01*
X167835000Y-127320000D02*
X168585000Y-128070000D01*
X168585000Y-128070000D02*
X168585000Y-136310000D01*
X160345000Y-125070000D02*
X160345000Y-126570000D01*
X160345000Y-126570000D02*
X161095000Y-127320000D01*
X161095000Y-127320000D02*
X160345000Y-128070000D01*
X160345000Y-128070000D02*
X160345000Y-136310000D01*
X164465000Y-124430000D02*
X164465000Y-125070000D01*
X164465000Y-136950000D02*
X164465000Y-136310000D01*
G04 #@! TO.C,J1*
D13*
X55873809Y-95618333D02*
X57016666Y-95618333D01*
X57245238Y-95694523D01*
X57397619Y-95846904D01*
X57473809Y-96075476D01*
X57473809Y-96227857D01*
X57473809Y-94018333D02*
X57473809Y-94932619D01*
X57473809Y-94475476D02*
X55873809Y-94475476D01*
X56102380Y-94627857D01*
X56254761Y-94780238D01*
X56330952Y-94932619D01*
G04 #@! TO.C,JPC2*
X124866666Y-96913809D02*
X124866666Y-98056666D01*
X124790476Y-98285238D01*
X124638095Y-98437619D01*
X124409523Y-98513809D01*
X124257142Y-98513809D01*
X125628571Y-98513809D02*
X125628571Y-96913809D01*
X126238095Y-96913809D01*
X126390476Y-96990000D01*
X126466666Y-97066190D01*
X126542857Y-97218571D01*
X126542857Y-97447142D01*
X126466666Y-97599523D01*
X126390476Y-97675714D01*
X126238095Y-97751904D01*
X125628571Y-97751904D01*
X128142857Y-98361428D02*
X128066666Y-98437619D01*
X127838095Y-98513809D01*
X127685714Y-98513809D01*
X127457142Y-98437619D01*
X127304761Y-98285238D01*
X127228571Y-98132857D01*
X127152380Y-97828095D01*
X127152380Y-97599523D01*
X127228571Y-97294761D01*
X127304761Y-97142380D01*
X127457142Y-96990000D01*
X127685714Y-96913809D01*
X127838095Y-96913809D01*
X128066666Y-96990000D01*
X128142857Y-97066190D01*
X128752380Y-97066190D02*
X128828571Y-96990000D01*
X128980952Y-96913809D01*
X129361904Y-96913809D01*
X129514285Y-96990000D01*
X129590476Y-97066190D01*
X129666666Y-97218571D01*
X129666666Y-97370952D01*
X129590476Y-97599523D01*
X128676190Y-98513809D01*
X129666666Y-98513809D01*
G04 #@! TO.C,JPC1*
X124866666Y-112153809D02*
X124866666Y-113296666D01*
X124790476Y-113525238D01*
X124638095Y-113677619D01*
X124409523Y-113753809D01*
X124257142Y-113753809D01*
X125628571Y-113753809D02*
X125628571Y-112153809D01*
X126238095Y-112153809D01*
X126390476Y-112230000D01*
X126466666Y-112306190D01*
X126542857Y-112458571D01*
X126542857Y-112687142D01*
X126466666Y-112839523D01*
X126390476Y-112915714D01*
X126238095Y-112991904D01*
X125628571Y-112991904D01*
X128142857Y-113601428D02*
X128066666Y-113677619D01*
X127838095Y-113753809D01*
X127685714Y-113753809D01*
X127457142Y-113677619D01*
X127304761Y-113525238D01*
X127228571Y-113372857D01*
X127152380Y-113068095D01*
X127152380Y-112839523D01*
X127228571Y-112534761D01*
X127304761Y-112382380D01*
X127457142Y-112230000D01*
X127685714Y-112153809D01*
X127838095Y-112153809D01*
X128066666Y-112230000D01*
X128142857Y-112306190D01*
X129666666Y-113753809D02*
X128752380Y-113753809D01*
X129209523Y-113753809D02*
X129209523Y-112153809D01*
X129057142Y-112382380D01*
X128904761Y-112534761D01*
X128752380Y-112610952D01*
G04 #@! TO.C,JPB2*
X129946666Y-89293809D02*
X129946666Y-90436666D01*
X129870476Y-90665238D01*
X129718095Y-90817619D01*
X129489523Y-90893809D01*
X129337142Y-90893809D01*
X130708571Y-90893809D02*
X130708571Y-89293809D01*
X131318095Y-89293809D01*
X131470476Y-89370000D01*
X131546666Y-89446190D01*
X131622857Y-89598571D01*
X131622857Y-89827142D01*
X131546666Y-89979523D01*
X131470476Y-90055714D01*
X131318095Y-90131904D01*
X130708571Y-90131904D01*
X132841904Y-90055714D02*
X133070476Y-90131904D01*
X133146666Y-90208095D01*
X133222857Y-90360476D01*
X133222857Y-90589047D01*
X133146666Y-90741428D01*
X133070476Y-90817619D01*
X132918095Y-90893809D01*
X132308571Y-90893809D01*
X132308571Y-89293809D01*
X132841904Y-89293809D01*
X132994285Y-89370000D01*
X133070476Y-89446190D01*
X133146666Y-89598571D01*
X133146666Y-89750952D01*
X133070476Y-89903333D01*
X132994285Y-89979523D01*
X132841904Y-90055714D01*
X132308571Y-90055714D01*
X133832380Y-89446190D02*
X133908571Y-89370000D01*
X134060952Y-89293809D01*
X134441904Y-89293809D01*
X134594285Y-89370000D01*
X134670476Y-89446190D01*
X134746666Y-89598571D01*
X134746666Y-89750952D01*
X134670476Y-89979523D01*
X133756190Y-90893809D01*
X134746666Y-90893809D01*
G04 #@! TO.C,JPB1*
X129946666Y-101993809D02*
X129946666Y-103136666D01*
X129870476Y-103365238D01*
X129718095Y-103517619D01*
X129489523Y-103593809D01*
X129337142Y-103593809D01*
X130708571Y-103593809D02*
X130708571Y-101993809D01*
X131318095Y-101993809D01*
X131470476Y-102070000D01*
X131546666Y-102146190D01*
X131622857Y-102298571D01*
X131622857Y-102527142D01*
X131546666Y-102679523D01*
X131470476Y-102755714D01*
X131318095Y-102831904D01*
X130708571Y-102831904D01*
X132841904Y-102755714D02*
X133070476Y-102831904D01*
X133146666Y-102908095D01*
X133222857Y-103060476D01*
X133222857Y-103289047D01*
X133146666Y-103441428D01*
X133070476Y-103517619D01*
X132918095Y-103593809D01*
X132308571Y-103593809D01*
X132308571Y-101993809D01*
X132841904Y-101993809D01*
X132994285Y-102070000D01*
X133070476Y-102146190D01*
X133146666Y-102298571D01*
X133146666Y-102450952D01*
X133070476Y-102603333D01*
X132994285Y-102679523D01*
X132841904Y-102755714D01*
X132308571Y-102755714D01*
X134746666Y-103593809D02*
X133832380Y-103593809D01*
X134289523Y-103593809D02*
X134289523Y-101993809D01*
X134137142Y-102222380D01*
X133984761Y-102374761D01*
X133832380Y-102450952D01*
G04 #@! TO.C,JPA2*
X130060952Y-86753809D02*
X130060952Y-87896666D01*
X129984761Y-88125238D01*
X129832380Y-88277619D01*
X129603809Y-88353809D01*
X129451428Y-88353809D01*
X130822857Y-88353809D02*
X130822857Y-86753809D01*
X131432380Y-86753809D01*
X131584761Y-86830000D01*
X131660952Y-86906190D01*
X131737142Y-87058571D01*
X131737142Y-87287142D01*
X131660952Y-87439523D01*
X131584761Y-87515714D01*
X131432380Y-87591904D01*
X130822857Y-87591904D01*
X132346666Y-87896666D02*
X133108571Y-87896666D01*
X132194285Y-88353809D02*
X132727619Y-86753809D01*
X133260952Y-88353809D01*
X133718095Y-86906190D02*
X133794285Y-86830000D01*
X133946666Y-86753809D01*
X134327619Y-86753809D01*
X134480000Y-86830000D01*
X134556190Y-86906190D01*
X134632380Y-87058571D01*
X134632380Y-87210952D01*
X134556190Y-87439523D01*
X133641904Y-88353809D01*
X134632380Y-88353809D01*
G04 #@! TO.C,JPA1*
X130060952Y-104533809D02*
X130060952Y-105676666D01*
X129984761Y-105905238D01*
X129832380Y-106057619D01*
X129603809Y-106133809D01*
X129451428Y-106133809D01*
X130822857Y-106133809D02*
X130822857Y-104533809D01*
X131432380Y-104533809D01*
X131584761Y-104610000D01*
X131660952Y-104686190D01*
X131737142Y-104838571D01*
X131737142Y-105067142D01*
X131660952Y-105219523D01*
X131584761Y-105295714D01*
X131432380Y-105371904D01*
X130822857Y-105371904D01*
X132346666Y-105676666D02*
X133108571Y-105676666D01*
X132194285Y-106133809D02*
X132727619Y-104533809D01*
X133260952Y-106133809D01*
X134632380Y-106133809D02*
X133718095Y-106133809D01*
X134175238Y-106133809D02*
X134175238Y-104533809D01*
X134022857Y-104762380D01*
X133870476Y-104914761D01*
X133718095Y-104990952D01*
G04 #@! TO.C,J2*
X178819047Y-61814285D02*
X178819047Y-60014285D01*
X179428571Y-60014285D01*
X179580952Y-60100000D01*
X179657142Y-60185714D01*
X179733333Y-60357142D01*
X179733333Y-60614285D01*
X179657142Y-60785714D01*
X179580952Y-60871428D01*
X179428571Y-60957142D01*
X178819047Y-60957142D01*
X181257142Y-61814285D02*
X180342857Y-61814285D01*
X180800000Y-61814285D02*
X180800000Y-60014285D01*
X180647619Y-60271428D01*
X180495238Y-60442857D01*
X180342857Y-60528571D01*
X178780952Y-137185714D02*
X178857142Y-137100000D01*
X179009523Y-137014285D01*
X179390476Y-137014285D01*
X179542857Y-137100000D01*
X179619047Y-137185714D01*
X179695238Y-137357142D01*
X179695238Y-137528571D01*
X179619047Y-137785714D01*
X178704761Y-138814285D01*
X179695238Y-138814285D01*
X181142857Y-137014285D02*
X180380952Y-137014285D01*
X180304761Y-137871428D01*
X180380952Y-137785714D01*
X180533333Y-137700000D01*
X180914285Y-137700000D01*
X181066666Y-137785714D01*
X181142857Y-137871428D01*
X181219047Y-138042857D01*
X181219047Y-138471428D01*
X181142857Y-138642857D01*
X181066666Y-138728571D01*
X180914285Y-138814285D01*
X180533333Y-138814285D01*
X180380952Y-138728571D01*
X180304761Y-138642857D01*
G04 #@! TO.C,C11*
X148526428Y-124218571D02*
X148602619Y-124294761D01*
X148678809Y-124523333D01*
X148678809Y-124675714D01*
X148602619Y-124904285D01*
X148450238Y-125056666D01*
X148297857Y-125132857D01*
X147993095Y-125209047D01*
X147764523Y-125209047D01*
X147459761Y-125132857D01*
X147307380Y-125056666D01*
X147155000Y-124904285D01*
X147078809Y-124675714D01*
X147078809Y-124523333D01*
X147155000Y-124294761D01*
X147231190Y-124218571D01*
X148678809Y-122694761D02*
X148678809Y-123609047D01*
X148678809Y-123151904D02*
X147078809Y-123151904D01*
X147307380Y-123304285D01*
X147459761Y-123456666D01*
X147535952Y-123609047D01*
X148678809Y-121170952D02*
X148678809Y-122085238D01*
X148678809Y-121628095D02*
X147078809Y-121628095D01*
X147307380Y-121780476D01*
X147459761Y-121932857D01*
X147535952Y-122085238D01*
G04 #@! TO.C,C10*
X145656428Y-138366428D02*
X145580238Y-138442619D01*
X145351666Y-138518809D01*
X145199285Y-138518809D01*
X144970714Y-138442619D01*
X144818333Y-138290238D01*
X144742142Y-138137857D01*
X144665952Y-137833095D01*
X144665952Y-137604523D01*
X144742142Y-137299761D01*
X144818333Y-137147380D01*
X144970714Y-136995000D01*
X145199285Y-136918809D01*
X145351666Y-136918809D01*
X145580238Y-136995000D01*
X145656428Y-137071190D01*
X147180238Y-138518809D02*
X146265952Y-138518809D01*
X146723095Y-138518809D02*
X146723095Y-136918809D01*
X146570714Y-137147380D01*
X146418333Y-137299761D01*
X146265952Y-137375952D01*
X148170714Y-136918809D02*
X148323095Y-136918809D01*
X148475476Y-136995000D01*
X148551666Y-137071190D01*
X148627857Y-137223571D01*
X148704047Y-137528333D01*
X148704047Y-137909285D01*
X148627857Y-138214047D01*
X148551666Y-138366428D01*
X148475476Y-138442619D01*
X148323095Y-138518809D01*
X148170714Y-138518809D01*
X148018333Y-138442619D01*
X147942142Y-138366428D01*
X147865952Y-138214047D01*
X147789761Y-137909285D01*
X147789761Y-137528333D01*
X147865952Y-137223571D01*
X147942142Y-137071190D01*
X148018333Y-136995000D01*
X148170714Y-136918809D01*
G04 #@! TO.C,C9*
X119748333Y-126936428D02*
X119672142Y-127012619D01*
X119443571Y-127088809D01*
X119291190Y-127088809D01*
X119062619Y-127012619D01*
X118910238Y-126860238D01*
X118834047Y-126707857D01*
X118757857Y-126403095D01*
X118757857Y-126174523D01*
X118834047Y-125869761D01*
X118910238Y-125717380D01*
X119062619Y-125565000D01*
X119291190Y-125488809D01*
X119443571Y-125488809D01*
X119672142Y-125565000D01*
X119748333Y-125641190D01*
X120510238Y-127088809D02*
X120815000Y-127088809D01*
X120967380Y-127012619D01*
X121043571Y-126936428D01*
X121195952Y-126707857D01*
X121272142Y-126403095D01*
X121272142Y-125793571D01*
X121195952Y-125641190D01*
X121119761Y-125565000D01*
X120967380Y-125488809D01*
X120662619Y-125488809D01*
X120510238Y-125565000D01*
X120434047Y-125641190D01*
X120357857Y-125793571D01*
X120357857Y-126174523D01*
X120434047Y-126326904D01*
X120510238Y-126403095D01*
X120662619Y-126479285D01*
X120967380Y-126479285D01*
X121119761Y-126403095D01*
X121195952Y-126326904D01*
X121272142Y-126174523D01*
G04 #@! TO.C,C6*
X158443333Y-97726428D02*
X158367142Y-97802619D01*
X158138571Y-97878809D01*
X157986190Y-97878809D01*
X157757619Y-97802619D01*
X157605238Y-97650238D01*
X157529047Y-97497857D01*
X157452857Y-97193095D01*
X157452857Y-96964523D01*
X157529047Y-96659761D01*
X157605238Y-96507380D01*
X157757619Y-96355000D01*
X157986190Y-96278809D01*
X158138571Y-96278809D01*
X158367142Y-96355000D01*
X158443333Y-96431190D01*
X159814761Y-96278809D02*
X159510000Y-96278809D01*
X159357619Y-96355000D01*
X159281428Y-96431190D01*
X159129047Y-96659761D01*
X159052857Y-96964523D01*
X159052857Y-97574047D01*
X159129047Y-97726428D01*
X159205238Y-97802619D01*
X159357619Y-97878809D01*
X159662380Y-97878809D01*
X159814761Y-97802619D01*
X159890952Y-97726428D01*
X159967142Y-97574047D01*
X159967142Y-97193095D01*
X159890952Y-97040714D01*
X159814761Y-96964523D01*
X159662380Y-96888333D01*
X159357619Y-96888333D01*
X159205238Y-96964523D01*
X159129047Y-97040714D01*
X159052857Y-97193095D01*
G04 #@! TO.C,C5*
X155943333Y-105981428D02*
X155867142Y-106057619D01*
X155638571Y-106133809D01*
X155486190Y-106133809D01*
X155257619Y-106057619D01*
X155105238Y-105905238D01*
X155029047Y-105752857D01*
X154952857Y-105448095D01*
X154952857Y-105219523D01*
X155029047Y-104914761D01*
X155105238Y-104762380D01*
X155257619Y-104610000D01*
X155486190Y-104533809D01*
X155638571Y-104533809D01*
X155867142Y-104610000D01*
X155943333Y-104686190D01*
X157390952Y-104533809D02*
X156629047Y-104533809D01*
X156552857Y-105295714D01*
X156629047Y-105219523D01*
X156781428Y-105143333D01*
X157162380Y-105143333D01*
X157314761Y-105219523D01*
X157390952Y-105295714D01*
X157467142Y-105448095D01*
X157467142Y-105829047D01*
X157390952Y-105981428D01*
X157314761Y-106057619D01*
X157162380Y-106133809D01*
X156781428Y-106133809D01*
X156629047Y-106057619D01*
X156552857Y-105981428D01*
G04 #@! TO.C,Y1*
X151003095Y-111086904D02*
X151003095Y-111848809D01*
X150469761Y-110248809D02*
X151003095Y-111086904D01*
X151536428Y-110248809D01*
X152907857Y-111848809D02*
X151993571Y-111848809D01*
X152450714Y-111848809D02*
X152450714Y-110248809D01*
X152298333Y-110477380D01*
X152145952Y-110629761D01*
X151993571Y-110705952D01*
G04 #@! TO.C,U3*
X121043809Y-74244047D02*
X122339047Y-74244047D01*
X122491428Y-74167857D01*
X122567619Y-74091666D01*
X122643809Y-73939285D01*
X122643809Y-73634523D01*
X122567619Y-73482142D01*
X122491428Y-73405952D01*
X122339047Y-73329761D01*
X121043809Y-73329761D01*
X121043809Y-72720238D02*
X121043809Y-71729761D01*
X121653333Y-72263095D01*
X121653333Y-72034523D01*
X121729523Y-71882142D01*
X121805714Y-71805952D01*
X121958095Y-71729761D01*
X122339047Y-71729761D01*
X122491428Y-71805952D01*
X122567619Y-71882142D01*
X122643809Y-72034523D01*
X122643809Y-72491666D01*
X122567619Y-72644047D01*
X122491428Y-72720238D01*
G04 #@! TO.C,U2*
X132765952Y-134378809D02*
X132765952Y-135674047D01*
X132842142Y-135826428D01*
X132918333Y-135902619D01*
X133070714Y-135978809D01*
X133375476Y-135978809D01*
X133527857Y-135902619D01*
X133604047Y-135826428D01*
X133680238Y-135674047D01*
X133680238Y-134378809D01*
X134365952Y-134531190D02*
X134442142Y-134455000D01*
X134594523Y-134378809D01*
X134975476Y-134378809D01*
X135127857Y-134455000D01*
X135204047Y-134531190D01*
X135280238Y-134683571D01*
X135280238Y-134835952D01*
X135204047Y-135064523D01*
X134289761Y-135978809D01*
X135280238Y-135978809D01*
G04 #@! TO.C,U1*
X139115952Y-114058809D02*
X139115952Y-115354047D01*
X139192142Y-115506428D01*
X139268333Y-115582619D01*
X139420714Y-115658809D01*
X139725476Y-115658809D01*
X139877857Y-115582619D01*
X139954047Y-115506428D01*
X140030238Y-115354047D01*
X140030238Y-114058809D01*
X141630238Y-115658809D02*
X140715952Y-115658809D01*
X141173095Y-115658809D02*
X141173095Y-114058809D01*
X141020714Y-114287380D01*
X140868333Y-114439761D01*
X140715952Y-114515952D01*
G04 #@! TO.C,TR1*
X148475952Y-58813809D02*
X149390238Y-58813809D01*
X148933095Y-60413809D02*
X148933095Y-58813809D01*
X150837857Y-60413809D02*
X150304523Y-59651904D01*
X149923571Y-60413809D02*
X149923571Y-58813809D01*
X150533095Y-58813809D01*
X150685476Y-58890000D01*
X150761666Y-58966190D01*
X150837857Y-59118571D01*
X150837857Y-59347142D01*
X150761666Y-59499523D01*
X150685476Y-59575714D01*
X150533095Y-59651904D01*
X149923571Y-59651904D01*
X152361666Y-60413809D02*
X151447380Y-60413809D01*
X151904523Y-60413809D02*
X151904523Y-58813809D01*
X151752142Y-59042380D01*
X151599761Y-59194761D01*
X151447380Y-59270952D01*
G04 #@! TO.C,RV1*
X112077619Y-82003809D02*
X111544285Y-81241904D01*
X111163333Y-82003809D02*
X111163333Y-80403809D01*
X111772857Y-80403809D01*
X111925238Y-80480000D01*
X112001428Y-80556190D01*
X112077619Y-80708571D01*
X112077619Y-80937142D01*
X112001428Y-81089523D01*
X111925238Y-81165714D01*
X111772857Y-81241904D01*
X111163333Y-81241904D01*
X112534761Y-80403809D02*
X113068095Y-82003809D01*
X113601428Y-80403809D01*
X114972857Y-82003809D02*
X114058571Y-82003809D01*
X114515714Y-82003809D02*
X114515714Y-80403809D01*
X114363333Y-80632380D01*
X114210952Y-80784761D01*
X114058571Y-80860952D01*
G04 #@! TO.C,R14*
X127241428Y-61048809D02*
X126708095Y-60286904D01*
X126327142Y-61048809D02*
X126327142Y-59448809D01*
X126936666Y-59448809D01*
X127089047Y-59525000D01*
X127165238Y-59601190D01*
X127241428Y-59753571D01*
X127241428Y-59982142D01*
X127165238Y-60134523D01*
X127089047Y-60210714D01*
X126936666Y-60286904D01*
X126327142Y-60286904D01*
X128765238Y-61048809D02*
X127850952Y-61048809D01*
X128308095Y-61048809D02*
X128308095Y-59448809D01*
X128155714Y-59677380D01*
X128003333Y-59829761D01*
X127850952Y-59905952D01*
X130136666Y-59982142D02*
X130136666Y-61048809D01*
X129755714Y-59372619D02*
X129374761Y-60515476D01*
X130365238Y-60515476D01*
G04 #@! TO.C,R13*
X116293809Y-75958571D02*
X115531904Y-76491904D01*
X116293809Y-76872857D02*
X114693809Y-76872857D01*
X114693809Y-76263333D01*
X114770000Y-76110952D01*
X114846190Y-76034761D01*
X114998571Y-75958571D01*
X115227142Y-75958571D01*
X115379523Y-76034761D01*
X115455714Y-76110952D01*
X115531904Y-76263333D01*
X115531904Y-76872857D01*
X116293809Y-74434761D02*
X116293809Y-75349047D01*
X116293809Y-74891904D02*
X114693809Y-74891904D01*
X114922380Y-75044285D01*
X115074761Y-75196666D01*
X115150952Y-75349047D01*
X114693809Y-73901428D02*
X114693809Y-72910952D01*
X115303333Y-73444285D01*
X115303333Y-73215714D01*
X115379523Y-73063333D01*
X115455714Y-72987142D01*
X115608095Y-72910952D01*
X115989047Y-72910952D01*
X116141428Y-72987142D01*
X116217619Y-73063333D01*
X116293809Y-73215714D01*
X116293809Y-73672857D01*
X116217619Y-73825238D01*
X116141428Y-73901428D01*
G04 #@! TO.C,R12*
X137248809Y-77863571D02*
X136486904Y-78396904D01*
X137248809Y-78777857D02*
X135648809Y-78777857D01*
X135648809Y-78168333D01*
X135725000Y-78015952D01*
X135801190Y-77939761D01*
X135953571Y-77863571D01*
X136182142Y-77863571D01*
X136334523Y-77939761D01*
X136410714Y-78015952D01*
X136486904Y-78168333D01*
X136486904Y-78777857D01*
X137248809Y-76339761D02*
X137248809Y-77254047D01*
X137248809Y-76796904D02*
X135648809Y-76796904D01*
X135877380Y-76949285D01*
X136029761Y-77101666D01*
X136105952Y-77254047D01*
X135801190Y-75730238D02*
X135725000Y-75654047D01*
X135648809Y-75501666D01*
X135648809Y-75120714D01*
X135725000Y-74968333D01*
X135801190Y-74892142D01*
X135953571Y-74815952D01*
X136105952Y-74815952D01*
X136334523Y-74892142D01*
X137248809Y-75806428D01*
X137248809Y-74815952D01*
G04 #@! TO.C,R11*
X127241428Y-83273809D02*
X126708095Y-82511904D01*
X126327142Y-83273809D02*
X126327142Y-81673809D01*
X126936666Y-81673809D01*
X127089047Y-81750000D01*
X127165238Y-81826190D01*
X127241428Y-81978571D01*
X127241428Y-82207142D01*
X127165238Y-82359523D01*
X127089047Y-82435714D01*
X126936666Y-82511904D01*
X126327142Y-82511904D01*
X128765238Y-83273809D02*
X127850952Y-83273809D01*
X128308095Y-83273809D02*
X128308095Y-81673809D01*
X128155714Y-81902380D01*
X128003333Y-82054761D01*
X127850952Y-82130952D01*
X130289047Y-83273809D02*
X129374761Y-83273809D01*
X129831904Y-83273809D02*
X129831904Y-81673809D01*
X129679523Y-81902380D01*
X129527142Y-82054761D01*
X129374761Y-82130952D01*
G04 #@! TO.C,R10*
X127241428Y-66763809D02*
X126708095Y-66001904D01*
X126327142Y-66763809D02*
X126327142Y-65163809D01*
X126936666Y-65163809D01*
X127089047Y-65240000D01*
X127165238Y-65316190D01*
X127241428Y-65468571D01*
X127241428Y-65697142D01*
X127165238Y-65849523D01*
X127089047Y-65925714D01*
X126936666Y-66001904D01*
X126327142Y-66001904D01*
X128765238Y-66763809D02*
X127850952Y-66763809D01*
X128308095Y-66763809D02*
X128308095Y-65163809D01*
X128155714Y-65392380D01*
X128003333Y-65544761D01*
X127850952Y-65620952D01*
X129755714Y-65163809D02*
X129908095Y-65163809D01*
X130060476Y-65240000D01*
X130136666Y-65316190D01*
X130212857Y-65468571D01*
X130289047Y-65773333D01*
X130289047Y-66154285D01*
X130212857Y-66459047D01*
X130136666Y-66611428D01*
X130060476Y-66687619D01*
X129908095Y-66763809D01*
X129755714Y-66763809D01*
X129603333Y-66687619D01*
X129527142Y-66611428D01*
X129450952Y-66459047D01*
X129374761Y-66154285D01*
X129374761Y-65773333D01*
X129450952Y-65468571D01*
X129527142Y-65316190D01*
X129603333Y-65240000D01*
X129755714Y-65163809D01*
G04 #@! TO.C,R9*
X112128333Y-94068809D02*
X111595000Y-93306904D01*
X111214047Y-94068809D02*
X111214047Y-92468809D01*
X111823571Y-92468809D01*
X111975952Y-92545000D01*
X112052142Y-92621190D01*
X112128333Y-92773571D01*
X112128333Y-93002142D01*
X112052142Y-93154523D01*
X111975952Y-93230714D01*
X111823571Y-93306904D01*
X111214047Y-93306904D01*
X112890238Y-94068809D02*
X113195000Y-94068809D01*
X113347380Y-93992619D01*
X113423571Y-93916428D01*
X113575952Y-93687857D01*
X113652142Y-93383095D01*
X113652142Y-92773571D01*
X113575952Y-92621190D01*
X113499761Y-92545000D01*
X113347380Y-92468809D01*
X113042619Y-92468809D01*
X112890238Y-92545000D01*
X112814047Y-92621190D01*
X112737857Y-92773571D01*
X112737857Y-93154523D01*
X112814047Y-93306904D01*
X112890238Y-93383095D01*
X113042619Y-93459285D01*
X113347380Y-93459285D01*
X113499761Y-93383095D01*
X113575952Y-93306904D01*
X113652142Y-93154523D01*
G04 #@! TO.C,R8*
X151853809Y-121551666D02*
X151091904Y-122085000D01*
X151853809Y-122465952D02*
X150253809Y-122465952D01*
X150253809Y-121856428D01*
X150330000Y-121704047D01*
X150406190Y-121627857D01*
X150558571Y-121551666D01*
X150787142Y-121551666D01*
X150939523Y-121627857D01*
X151015714Y-121704047D01*
X151091904Y-121856428D01*
X151091904Y-122465952D01*
X150939523Y-120637380D02*
X150863333Y-120789761D01*
X150787142Y-120865952D01*
X150634761Y-120942142D01*
X150558571Y-120942142D01*
X150406190Y-120865952D01*
X150330000Y-120789761D01*
X150253809Y-120637380D01*
X150253809Y-120332619D01*
X150330000Y-120180238D01*
X150406190Y-120104047D01*
X150558571Y-120027857D01*
X150634761Y-120027857D01*
X150787142Y-120104047D01*
X150863333Y-120180238D01*
X150939523Y-120332619D01*
X150939523Y-120637380D01*
X151015714Y-120789761D01*
X151091904Y-120865952D01*
X151244285Y-120942142D01*
X151549047Y-120942142D01*
X151701428Y-120865952D01*
X151777619Y-120789761D01*
X151853809Y-120637380D01*
X151853809Y-120332619D01*
X151777619Y-120180238D01*
X151701428Y-120104047D01*
X151549047Y-120027857D01*
X151244285Y-120027857D01*
X151091904Y-120104047D01*
X151015714Y-120180238D01*
X150939523Y-120332619D01*
G04 #@! TO.C,R7*
X136258333Y-116293809D02*
X135725000Y-115531904D01*
X135344047Y-116293809D02*
X135344047Y-114693809D01*
X135953571Y-114693809D01*
X136105952Y-114770000D01*
X136182142Y-114846190D01*
X136258333Y-114998571D01*
X136258333Y-115227142D01*
X136182142Y-115379523D01*
X136105952Y-115455714D01*
X135953571Y-115531904D01*
X135344047Y-115531904D01*
X136791666Y-114693809D02*
X137858333Y-114693809D01*
X137172619Y-116293809D01*
G04 #@! TO.C,R6*
X125463333Y-135978809D02*
X124930000Y-135216904D01*
X124549047Y-135978809D02*
X124549047Y-134378809D01*
X125158571Y-134378809D01*
X125310952Y-134455000D01*
X125387142Y-134531190D01*
X125463333Y-134683571D01*
X125463333Y-134912142D01*
X125387142Y-135064523D01*
X125310952Y-135140714D01*
X125158571Y-135216904D01*
X124549047Y-135216904D01*
X126834761Y-134378809D02*
X126530000Y-134378809D01*
X126377619Y-134455000D01*
X126301428Y-134531190D01*
X126149047Y-134759761D01*
X126072857Y-135064523D01*
X126072857Y-135674047D01*
X126149047Y-135826428D01*
X126225238Y-135902619D01*
X126377619Y-135978809D01*
X126682380Y-135978809D01*
X126834761Y-135902619D01*
X126910952Y-135826428D01*
X126987142Y-135674047D01*
X126987142Y-135293095D01*
X126910952Y-135140714D01*
X126834761Y-135064523D01*
X126682380Y-134988333D01*
X126377619Y-134988333D01*
X126225238Y-135064523D01*
X126149047Y-135140714D01*
X126072857Y-135293095D01*
G04 #@! TO.C,R5*
X137528333Y-136613809D02*
X136995000Y-135851904D01*
X136614047Y-136613809D02*
X136614047Y-135013809D01*
X137223571Y-135013809D01*
X137375952Y-135090000D01*
X137452142Y-135166190D01*
X137528333Y-135318571D01*
X137528333Y-135547142D01*
X137452142Y-135699523D01*
X137375952Y-135775714D01*
X137223571Y-135851904D01*
X136614047Y-135851904D01*
X138975952Y-135013809D02*
X138214047Y-135013809D01*
X138137857Y-135775714D01*
X138214047Y-135699523D01*
X138366428Y-135623333D01*
X138747380Y-135623333D01*
X138899761Y-135699523D01*
X138975952Y-135775714D01*
X139052142Y-135928095D01*
X139052142Y-136309047D01*
X138975952Y-136461428D01*
X138899761Y-136537619D01*
X138747380Y-136613809D01*
X138366428Y-136613809D01*
X138214047Y-136537619D01*
X138137857Y-136461428D01*
G04 #@! TO.C,R4*
X125463333Y-130263809D02*
X124930000Y-129501904D01*
X124549047Y-130263809D02*
X124549047Y-128663809D01*
X125158571Y-128663809D01*
X125310952Y-128740000D01*
X125387142Y-128816190D01*
X125463333Y-128968571D01*
X125463333Y-129197142D01*
X125387142Y-129349523D01*
X125310952Y-129425714D01*
X125158571Y-129501904D01*
X124549047Y-129501904D01*
X126834761Y-129197142D02*
X126834761Y-130263809D01*
X126453809Y-128587619D02*
X126072857Y-129730476D01*
X127063333Y-129730476D01*
G04 #@! TO.C,R3*
X148043809Y-95516666D02*
X147281904Y-96050000D01*
X148043809Y-96430952D02*
X146443809Y-96430952D01*
X146443809Y-95821428D01*
X146520000Y-95669047D01*
X146596190Y-95592857D01*
X146748571Y-95516666D01*
X146977142Y-95516666D01*
X147129523Y-95592857D01*
X147205714Y-95669047D01*
X147281904Y-95821428D01*
X147281904Y-96430952D01*
X146443809Y-94983333D02*
X146443809Y-93992857D01*
X147053333Y-94526190D01*
X147053333Y-94297619D01*
X147129523Y-94145238D01*
X147205714Y-94069047D01*
X147358095Y-93992857D01*
X147739047Y-93992857D01*
X147891428Y-94069047D01*
X147967619Y-94145238D01*
X148043809Y-94297619D01*
X148043809Y-94754761D01*
X147967619Y-94907142D01*
X147891428Y-94983333D01*
G04 #@! TO.C,R2*
X152133333Y-118198809D02*
X151600000Y-117436904D01*
X151219047Y-118198809D02*
X151219047Y-116598809D01*
X151828571Y-116598809D01*
X151980952Y-116675000D01*
X152057142Y-116751190D01*
X152133333Y-116903571D01*
X152133333Y-117132142D01*
X152057142Y-117284523D01*
X151980952Y-117360714D01*
X151828571Y-117436904D01*
X151219047Y-117436904D01*
X152742857Y-116751190D02*
X152819047Y-116675000D01*
X152971428Y-116598809D01*
X153352380Y-116598809D01*
X153504761Y-116675000D01*
X153580952Y-116751190D01*
X153657142Y-116903571D01*
X153657142Y-117055952D01*
X153580952Y-117284523D01*
X152666666Y-118198809D01*
X153657142Y-118198809D01*
G04 #@! TO.C,R1*
X112128333Y-106133809D02*
X111595000Y-105371904D01*
X111214047Y-106133809D02*
X111214047Y-104533809D01*
X111823571Y-104533809D01*
X111975952Y-104610000D01*
X112052142Y-104686190D01*
X112128333Y-104838571D01*
X112128333Y-105067142D01*
X112052142Y-105219523D01*
X111975952Y-105295714D01*
X111823571Y-105371904D01*
X111214047Y-105371904D01*
X113652142Y-106133809D02*
X112737857Y-106133809D01*
X113195000Y-106133809D02*
X113195000Y-104533809D01*
X113042619Y-104762380D01*
X112890238Y-104914761D01*
X112737857Y-104990952D01*
G04 #@! TO.C,J3*
X164458809Y-84823333D02*
X165601666Y-84823333D01*
X165830238Y-84899523D01*
X165982619Y-85051904D01*
X166058809Y-85280476D01*
X166058809Y-85432857D01*
X164458809Y-84213809D02*
X164458809Y-83223333D01*
X165068333Y-83756666D01*
X165068333Y-83528095D01*
X165144523Y-83375714D01*
X165220714Y-83299523D01*
X165373095Y-83223333D01*
X165754047Y-83223333D01*
X165906428Y-83299523D01*
X165982619Y-83375714D01*
X166058809Y-83528095D01*
X166058809Y-83985238D01*
X165982619Y-84137619D01*
X165906428Y-84213809D01*
G04 #@! TO.C,D2*
X118833809Y-130720952D02*
X117233809Y-130720952D01*
X117233809Y-130340000D01*
X117310000Y-130111428D01*
X117462380Y-129959047D01*
X117614761Y-129882857D01*
X117919523Y-129806666D01*
X118148095Y-129806666D01*
X118452857Y-129882857D01*
X118605238Y-129959047D01*
X118757619Y-130111428D01*
X118833809Y-130340000D01*
X118833809Y-130720952D01*
X117386190Y-129197142D02*
X117310000Y-129120952D01*
X117233809Y-128968571D01*
X117233809Y-128587619D01*
X117310000Y-128435238D01*
X117386190Y-128359047D01*
X117538571Y-128282857D01*
X117690952Y-128282857D01*
X117919523Y-128359047D01*
X118833809Y-129273333D01*
X118833809Y-128282857D01*
D14*
X114222380Y-134881904D02*
X113222380Y-134881904D01*
X114222380Y-134310476D02*
X113650952Y-134739047D01*
X113222380Y-134310476D02*
X113793809Y-134881904D01*
G04 #@! TO.C,D1*
D13*
X155028809Y-130720952D02*
X153428809Y-130720952D01*
X153428809Y-130340000D01*
X153505000Y-130111428D01*
X153657380Y-129959047D01*
X153809761Y-129882857D01*
X154114523Y-129806666D01*
X154343095Y-129806666D01*
X154647857Y-129882857D01*
X154800238Y-129959047D01*
X154952619Y-130111428D01*
X155028809Y-130340000D01*
X155028809Y-130720952D01*
X155028809Y-128282857D02*
X155028809Y-129197142D01*
X155028809Y-128740000D02*
X153428809Y-128740000D01*
X153657380Y-128892380D01*
X153809761Y-129044761D01*
X153885952Y-129197142D01*
D14*
X159097380Y-124721904D02*
X158097380Y-124721904D01*
X159097380Y-124150476D02*
X158525952Y-124579047D01*
X158097380Y-124150476D02*
X158668809Y-124721904D01*
G04 #@! TO.C,C15*
D13*
X124741428Y-117856428D02*
X124665238Y-117932619D01*
X124436666Y-118008809D01*
X124284285Y-118008809D01*
X124055714Y-117932619D01*
X123903333Y-117780238D01*
X123827142Y-117627857D01*
X123750952Y-117323095D01*
X123750952Y-117094523D01*
X123827142Y-116789761D01*
X123903333Y-116637380D01*
X124055714Y-116485000D01*
X124284285Y-116408809D01*
X124436666Y-116408809D01*
X124665238Y-116485000D01*
X124741428Y-116561190D01*
X126265238Y-118008809D02*
X125350952Y-118008809D01*
X125808095Y-118008809D02*
X125808095Y-116408809D01*
X125655714Y-116637380D01*
X125503333Y-116789761D01*
X125350952Y-116865952D01*
X127712857Y-116408809D02*
X126950952Y-116408809D01*
X126874761Y-117170714D01*
X126950952Y-117094523D01*
X127103333Y-117018333D01*
X127484285Y-117018333D01*
X127636666Y-117094523D01*
X127712857Y-117170714D01*
X127789047Y-117323095D01*
X127789047Y-117704047D01*
X127712857Y-117856428D01*
X127636666Y-117932619D01*
X127484285Y-118008809D01*
X127103333Y-118008809D01*
X126950952Y-117932619D01*
X126874761Y-117856428D01*
G04 #@! TO.C,C14*
X146621428Y-62623571D02*
X146697619Y-62699761D01*
X146773809Y-62928333D01*
X146773809Y-63080714D01*
X146697619Y-63309285D01*
X146545238Y-63461666D01*
X146392857Y-63537857D01*
X146088095Y-63614047D01*
X145859523Y-63614047D01*
X145554761Y-63537857D01*
X145402380Y-63461666D01*
X145250000Y-63309285D01*
X145173809Y-63080714D01*
X145173809Y-62928333D01*
X145250000Y-62699761D01*
X145326190Y-62623571D01*
X146773809Y-61099761D02*
X146773809Y-62014047D01*
X146773809Y-61556904D02*
X145173809Y-61556904D01*
X145402380Y-61709285D01*
X145554761Y-61861666D01*
X145630952Y-62014047D01*
X145707142Y-59728333D02*
X146773809Y-59728333D01*
X145097619Y-60109285D02*
X146240476Y-60490238D01*
X146240476Y-59499761D01*
G04 #@! TO.C,C13*
X114681428Y-64568571D02*
X114757619Y-64644761D01*
X114833809Y-64873333D01*
X114833809Y-65025714D01*
X114757619Y-65254285D01*
X114605238Y-65406666D01*
X114452857Y-65482857D01*
X114148095Y-65559047D01*
X113919523Y-65559047D01*
X113614761Y-65482857D01*
X113462380Y-65406666D01*
X113310000Y-65254285D01*
X113233809Y-65025714D01*
X113233809Y-64873333D01*
X113310000Y-64644761D01*
X113386190Y-64568571D01*
X114833809Y-63044761D02*
X114833809Y-63959047D01*
X114833809Y-63501904D02*
X113233809Y-63501904D01*
X113462380Y-63654285D01*
X113614761Y-63806666D01*
X113690952Y-63959047D01*
X113233809Y-62511428D02*
X113233809Y-61520952D01*
X113843333Y-62054285D01*
X113843333Y-61825714D01*
X113919523Y-61673333D01*
X113995714Y-61597142D01*
X114148095Y-61520952D01*
X114529047Y-61520952D01*
X114681428Y-61597142D01*
X114757619Y-61673333D01*
X114833809Y-61825714D01*
X114833809Y-62282857D01*
X114757619Y-62435238D01*
X114681428Y-62511428D01*
G04 #@! TO.C,C12*
X102806428Y-70243571D02*
X102882619Y-70319761D01*
X102958809Y-70548333D01*
X102958809Y-70700714D01*
X102882619Y-70929285D01*
X102730238Y-71081666D01*
X102577857Y-71157857D01*
X102273095Y-71234047D01*
X102044523Y-71234047D01*
X101739761Y-71157857D01*
X101587380Y-71081666D01*
X101435000Y-70929285D01*
X101358809Y-70700714D01*
X101358809Y-70548333D01*
X101435000Y-70319761D01*
X101511190Y-70243571D01*
X102958809Y-68719761D02*
X102958809Y-69634047D01*
X102958809Y-69176904D02*
X101358809Y-69176904D01*
X101587380Y-69329285D01*
X101739761Y-69481666D01*
X101815952Y-69634047D01*
X101511190Y-68110238D02*
X101435000Y-68034047D01*
X101358809Y-67881666D01*
X101358809Y-67500714D01*
X101435000Y-67348333D01*
X101511190Y-67272142D01*
X101663571Y-67195952D01*
X101815952Y-67195952D01*
X102044523Y-67272142D01*
X102958809Y-68186428D01*
X102958809Y-67195952D01*
G04 #@! TO.C,C8*
X143243333Y-121856428D02*
X143167142Y-121932619D01*
X142938571Y-122008809D01*
X142786190Y-122008809D01*
X142557619Y-121932619D01*
X142405238Y-121780238D01*
X142329047Y-121627857D01*
X142252857Y-121323095D01*
X142252857Y-121094523D01*
X142329047Y-120789761D01*
X142405238Y-120637380D01*
X142557619Y-120485000D01*
X142786190Y-120408809D01*
X142938571Y-120408809D01*
X143167142Y-120485000D01*
X143243333Y-120561190D01*
X144157619Y-121094523D02*
X144005238Y-121018333D01*
X143929047Y-120942142D01*
X143852857Y-120789761D01*
X143852857Y-120713571D01*
X143929047Y-120561190D01*
X144005238Y-120485000D01*
X144157619Y-120408809D01*
X144462380Y-120408809D01*
X144614761Y-120485000D01*
X144690952Y-120561190D01*
X144767142Y-120713571D01*
X144767142Y-120789761D01*
X144690952Y-120942142D01*
X144614761Y-121018333D01*
X144462380Y-121094523D01*
X144157619Y-121094523D01*
X144005238Y-121170714D01*
X143929047Y-121246904D01*
X143852857Y-121399285D01*
X143852857Y-121704047D01*
X143929047Y-121856428D01*
X144005238Y-121932619D01*
X144157619Y-122008809D01*
X144462380Y-122008809D01*
X144614761Y-121932619D01*
X144690952Y-121856428D01*
X144767142Y-121704047D01*
X144767142Y-121399285D01*
X144690952Y-121246904D01*
X144614761Y-121170714D01*
X144462380Y-121094523D01*
G04 #@! TO.C,C7*
X145351428Y-124091666D02*
X145427619Y-124167857D01*
X145503809Y-124396428D01*
X145503809Y-124548809D01*
X145427619Y-124777380D01*
X145275238Y-124929761D01*
X145122857Y-125005952D01*
X144818095Y-125082142D01*
X144589523Y-125082142D01*
X144284761Y-125005952D01*
X144132380Y-124929761D01*
X143980000Y-124777380D01*
X143903809Y-124548809D01*
X143903809Y-124396428D01*
X143980000Y-124167857D01*
X144056190Y-124091666D01*
X143903809Y-123558333D02*
X143903809Y-122491666D01*
X145503809Y-123177380D01*
G04 #@! TO.C,C4*
X164198333Y-116141428D02*
X164122142Y-116217619D01*
X163893571Y-116293809D01*
X163741190Y-116293809D01*
X163512619Y-116217619D01*
X163360238Y-116065238D01*
X163284047Y-115912857D01*
X163207857Y-115608095D01*
X163207857Y-115379523D01*
X163284047Y-115074761D01*
X163360238Y-114922380D01*
X163512619Y-114770000D01*
X163741190Y-114693809D01*
X163893571Y-114693809D01*
X164122142Y-114770000D01*
X164198333Y-114846190D01*
X165569761Y-115227142D02*
X165569761Y-116293809D01*
X165188809Y-114617619D02*
X164807857Y-115760476D01*
X165798333Y-115760476D01*
G04 #@! TO.C,C3*
X141338333Y-88836428D02*
X141262142Y-88912619D01*
X141033571Y-88988809D01*
X140881190Y-88988809D01*
X140652619Y-88912619D01*
X140500238Y-88760238D01*
X140424047Y-88607857D01*
X140347857Y-88303095D01*
X140347857Y-88074523D01*
X140424047Y-87769761D01*
X140500238Y-87617380D01*
X140652619Y-87465000D01*
X140881190Y-87388809D01*
X141033571Y-87388809D01*
X141262142Y-87465000D01*
X141338333Y-87541190D01*
X141871666Y-87388809D02*
X142862142Y-87388809D01*
X142328809Y-87998333D01*
X142557380Y-87998333D01*
X142709761Y-88074523D01*
X142785952Y-88150714D01*
X142862142Y-88303095D01*
X142862142Y-88684047D01*
X142785952Y-88836428D01*
X142709761Y-88912619D01*
X142557380Y-88988809D01*
X142100238Y-88988809D01*
X141947857Y-88912619D01*
X141871666Y-88836428D01*
G04 #@! TO.C,C2*
X102806428Y-127386666D02*
X102882619Y-127462857D01*
X102958809Y-127691428D01*
X102958809Y-127843809D01*
X102882619Y-128072380D01*
X102730238Y-128224761D01*
X102577857Y-128300952D01*
X102273095Y-128377142D01*
X102044523Y-128377142D01*
X101739761Y-128300952D01*
X101587380Y-128224761D01*
X101435000Y-128072380D01*
X101358809Y-127843809D01*
X101358809Y-127691428D01*
X101435000Y-127462857D01*
X101511190Y-127386666D01*
X101511190Y-126777142D02*
X101435000Y-126700952D01*
X101358809Y-126548571D01*
X101358809Y-126167619D01*
X101435000Y-126015238D01*
X101511190Y-125939047D01*
X101663571Y-125862857D01*
X101815952Y-125862857D01*
X102044523Y-125939047D01*
X102958809Y-126853333D01*
X102958809Y-125862857D01*
G04 #@! TO.C,C1*
X170751428Y-130956666D02*
X170827619Y-131032857D01*
X170903809Y-131261428D01*
X170903809Y-131413809D01*
X170827619Y-131642380D01*
X170675238Y-131794761D01*
X170522857Y-131870952D01*
X170218095Y-131947142D01*
X169989523Y-131947142D01*
X169684761Y-131870952D01*
X169532380Y-131794761D01*
X169380000Y-131642380D01*
X169303809Y-131413809D01*
X169303809Y-131261428D01*
X169380000Y-131032857D01*
X169456190Y-130956666D01*
X170903809Y-129432857D02*
X170903809Y-130347142D01*
X170903809Y-129890000D02*
X169303809Y-129890000D01*
X169532380Y-130042380D01*
X169684761Y-130194761D01*
X169760952Y-130347142D01*
G04 #@! TD*
M02*
